0 0.8793984375 0.5016484375 0.02 0.047875 1.57 0.999999682932 0.000796326710733
0 0.9258984375 0.4575234375 0.020624999999999998 0.0505 1.57 0.999999682932 0.000796326710733
2 0.9251484375 0.5463984375 0.030625000000000003 0.16999999999999998 1.57 0.999999682932 0.000796326710733
1 0.8295234375 0.45564843750000006 0.026375 0.0685 1.57 0.999999682932 0.000796326710733
0 0.7436484375 0.4541484375 0.021625 0.052375000000000005 1.56 0.99994172023 0.0107961170583
1 0.6631484375 0.4517734375 0.021374999999999998 0.050375 1.59 0.999815615134 -0.0192024929017
0 0.6296484375 0.5528984375 0.020749999999999998 0.05225 1.57 0.999999682932 0.000796326710733
1 0.5271484375 0.5521484375 0.025500000000000002 0.057874999999999996 1.57 0.999999682932 0.000796326710733
