0 0.8742734375 0.41539843750000005 0.020874999999999998 0.054625 -2.99 -0.151012712086 -0.988531820827
3 0.7161484375 0.3886484375 0.008375 0.01475 2.08 0.873132979508 -0.487482102334
0 0.8723984375 0.5975234375 0.018 0.03175 1.57 0.999999682932 0.000796326710733
0 0.7882734375 0.4215234375 0.017625 0.05375 -0.05 -0.0499791692707 0.998750260395
