0 0.4807734375 0.48352343749999993 0.022 0.048 1.6 0.999573603042 -0.0291995223013
0 0.8431484375 0.3910234375 0.01925 0.042499999999999996 1.57 0.999999682932 0.000796326710733
0 0.8511484375 0.43764843750000004 0.021374999999999998 0.056125 1.57 0.999999682932 0.000796326710733
0 0.7202734375 0.3958984375 0.020624999999999998 0.04775 1.61 0.999231634421 -0.039193631773
0 0.6456484375 0.3935234375000001 0.020874999999999998 0.050624999999999996 1.59 0.999815615134 -0.0192024929017
1 0.6872734375 0.4398984374999999 0.026125 0.0745 1.59 0.999815615134 -0.0192024929017
0 0.5447734375 0.43939843750000007 0.01975 0.049875 1.6 0.999573603042 -0.0291995223013
0 0.40277343749999994 0.4291484375 0.020125 0.0445 1.58 0.999957646499 -0.00920354326881
0 0.7205234375 0.3547734375 0.021374999999999998 0.04675 1.58 0.999957646499 -0.00920354326881
