3 0.8061484375 0.5660234375 0.007375 0.010374999999999999 -1.57 -0.999999682932 0.000796326710733
3 0.8107734375 0.5745234375 0.0063750000000000005 0.0075 -1.55 -0.999783764189 0.0207948278031
3 0.7461484375 0.32102343749999995 0.007000000000000001 0.00925 -2.44 -0.645434998334 -0.763815202078
