0 0.9205234375 0.5322734375 0.020499999999999997 0.047125 1.55 0.999783764189 0.0207948278031
0 0.6055234375 0.4425234375 0.022 0.049625 -1.58 -0.999957646499 -0.00920354326881
0 0.8636484375 0.4377734375 0.020125 0.04925 -1.59 -0.999815615134 -0.0192024929017
0 0.8020234374999999 0.43902343750000006 0.020749999999999998 0.04875 -1.61 -0.999231634421 -0.039193631773
