0 0.4102734375 0.4927734375 0.020874999999999998 0.0455 1.59 0.999815615134 -0.0192024929017
0 0.7425234375 0.38452343750000006 0.020874999999999998 0.048375 -1.54 -0.999525830605 0.0307914590825
0 0.3593984375 0.45464843750000006 0.018875 0.05625 1.59 0.999815615134 -0.0192024929017
