0 0.4777734375 0.48452343750000004 0.019375 0.048875 1.58 0.999957646499 -0.00920354326881
0 0.8740234375 0.5467734375 0.020125 0.052875000000000005 -1.59 -0.999815615134 -0.0192024929017
0 0.7238984375 0.5781484375 0.018875 0.04625 -1.57 -0.999999682932 0.000796326710733
0 0.5645234374999999 0.5532734375 0.020624999999999998 0.052625 -3.07 -0.0715315111408 -0.997438340407
