0 0.9470234375 0.5350234375 0.019125 0.042249999999999996 1.65 0.996865028454 -0.0791208888067
0 0.7628984375 0.5155234375 0.01925 0.042749999999999996 1.74 0.985719178836 -0.168397447949
0 0.6181484375 0.5660234375 0.020874999999999998 0.04725 0.69 0.636537182222 0.771246014997
0 0.5815234374999999 0.6090234375 0.019125 0.0505 0.73 0.666869635004 0.745174402345
0 0.5465234375 0.6567734375 0.016 0.0395 0.69 0.636537182222 0.771246014997
0 0.5095234375 0.7007734375 0.021249999999999998 0.05575 0.77 0.696135238627 0.717910669611
