0 0.8770234375 0.4675234374999999 0.020374999999999997 0.052500000000000005 -1.56 -0.99994172023 0.0107961170583
0 0.8278984375 0.5447734375 0.020125 0.05325 1.58 0.999957646499 -0.00920354326881
0 0.9022734375 0.5473984375 0.018 0.056625 -1.58 -0.999957646499 -0.00920354326881
0 0.6071484375 0.46927343749999995 0.019375 0.049 -1.56 -0.99994172023 0.0107961170583
0 0.8080234374999999 0.4665234375 0.019375 0.046375 -1.57 -0.999999682932 0.000796326710733
0 0.7647734375 0.5492734374999999 0.019125 0.042125 1.58 0.999957646499 -0.00920354326881
0 0.6803984375000001 0.5505234375 0.0195 0.0395 1.62 0.998789743471 -0.0491838219142
0 0.6231484375 0.5482734375 0.0195 0.04525 1.6 0.999573603042 -0.0291995223013
0 0.5478984375 0.5492734374999999 0.01925 0.057499999999999996 1.57 0.999999682932 0.000796326710733
