0 0.6967734375 0.5091484375 0.020749999999999998 0.04 1.47 0.994924349778 0.100625733387
0 0.3227734375 0.48327343750000007 0.020125 0.04575 -1.74 -0.985719178836 -0.168397447949
0 0.2898984375 0.4531484375 0.019125 0.042125 -1.74 -0.985719178836 -0.168397447949
