0 0.8846484375 0.5398984375 0.020874999999999998 0.048 1.56 0.99994172023 0.0107961170583
0 0.6698984375 0.4866484375 0.020874999999999998 0.04725 -1.73 -0.987353839701 -0.158532000644
0 0.8256484374999999 0.5446484375 0.01875 0.047875 1.49 0.996737752043 0.0807084484548
7 0.7600234375 0.5495234375 0.019375 0.032625 1.44 0.991458348192 0.130423708738
