3 0.8987734375 0.5195234375 0.010499999999999999 0.01075 1.66 0.996023989917 -0.0890854169365
3 0.8947734375 0.5331484375 0.01125 0.011875 1.65 0.996865028454 -0.0791208888067
3 0.8478984375 0.4387734375 0.01075 0.012750000000000001 2.74 0.390884778898 -0.920439617588
3 0.7831484375 0.5105234375000001 0.00975 0.010499999999999999 1.82 0.96910912888 -0.246632309969
3 0.8537734375 0.5421484375000001 0.008875 0.012875000000000001 1.93 0.936177052316 -0.351528841941
3 0.8950234375 0.5708984375 0.010624999999999999 0.014374999999999999 2.9 0.239249329214 -0.97095816515
3 0.8731484375 0.5756484375 0.008624999999999999 0.007000000000000001 -2.35 -0.711473352791 -0.702713076774
3 0.8145234375 0.4507734375 0.0085 0.013875000000000002 -1.61 -0.999231634421 -0.039193631773
7 0.8242734375 0.4501484375 0.00775 0.012625 -1.57 -0.999999682932 0.000796326710733
3 0.8123984375 0.44239843749999996 0.0085 0.013750000000000002 -1.53 -0.999167945271 0.0407850112416
3 0.8796484375 0.5871484375 0.010875 0.013250000000000001 2.36 0.70441076577 -0.709792556362
0 0.5182734375 0.45864843750000006 0.0225 0.05500000000000001 -1.47 -0.994924349778 0.100625733387
0 0.7018984375 0.4352734375 0.025500000000000002 0.05775 -1.51 -0.998152472498 0.0607588812194
1 0.6196484375 0.4338984375 0.022375 0.062375 -1.49 -0.996737752043 0.0807084484548
