3 0.9185234375 0.5686484375 0.009 0.013625000000000002 -1.68 -0.994043202198 -0.10898675224
0 0.9691484375 0.5450234375 0.02 0.0405 1.56 0.99994172023 0.0107961170583
0 0.9001484375 0.5473984375 0.02175 0.05125 1.52 0.998710143976 0.0507744849336
0 0.8906484375 0.45464843750000006 0.020999999999999998 0.047375 -1.58 -0.999957646499 -0.00920354326881
0 0.8232734375 0.4571484375 0.019 0.041875 -1.62 -0.998789743471 -0.0491838219142
0 0.8153984375000001 0.5487734375 0.020624999999999998 0.054625 1.56 0.99994172023 0.0107961170583
0 0.7290234375 0.4587734375 0.020624999999999998 0.05225 -1.59 -0.999815615134 -0.0192024929017
0 0.6433984375 0.48027343749999996 0.018125 0.0435 -1.86 -0.958471283079 -0.285189059245
0 0.7218984375 0.5542734375 0.020999999999999998 0.0505 1.44 0.991458348192 0.130423708738
0 0.5143984374999999 0.5456484374999999 0.020499999999999997 0.051000000000000004 -2.05 -0.887362368633 -0.461072691377
2 0.08227343750000016 0.7685234375 0.036125000000000004 0.135125 1.13 0.904412189379 0.42665980793
