1 0.8646484375 0.5908984375 0.0225 0.05675 1.06 0.872355482345 0.488872081861
0 0.8202734375 0.5162734375 0.021374999999999998 0.058125 1.07 0.877200504275 0.480124229029
0 0.7977734375 0.48227343749999996 0.020749999999999998 0.05775 1.03 0.857298989189 0.51481884497
0 0.7735234375 0.5936484375 0.020499999999999997 0.049375 1.09 0.886626914449 0.462485366875
1 0.5941484375 0.8317734375 0.025500000000000002 0.075625 -2.11 -0.858117829635 -0.513452812304
2 0.6003984375 0.7737734375 0.028125 0.09962499999999999 -2.11 -0.858117829635 -0.513452812304
7 0.7867734375 0.44964843749999994 0.029875000000000002 0.07275000000000001 -2.11 -0.858117829635 -0.513452812304
