0 0.6435234375 0.5003984375 0.020624999999999998 0.046125 1.58 0.999957646499 -0.00920354326881
0 0.9246484375 0.5535234375 0.020125 0.0495 0.71 0.651833771022 0.758361875991
0 0.8782734375 0.5566484375 0.020374999999999997 0.041999999999999996 0.73 0.666869635004 0.745174402345
0 0.8331484375 0.5571484375 0.02 0.051125 0.7 0.644217687238 0.764842187284
0 0.38977343749999993 0.40677343749999995 0.020499999999999997 0.049 -1.58 -0.999957646499 -0.00920354326881
0 0.7897734375000001 0.4178984375 0.018375 0.04525 -1.56 -0.99994172023 0.0107961170583
0 0.6987734375 0.5548984375 0.019875 0.051125 0.7 0.644217687238 0.764842187284
0 0.6148984375 0.5496484374999999 0.020374999999999997 0.050624999999999996 0.81 0.72428717437 0.689498432952
1 0.43164843750000004 0.5503984375 0.02275 0.057999999999999996 0.83 0.73793137111 0.674875760071
0 0.35689843749999994 0.35789843750000006 0.020999999999999998 0.056125 -1.59 -0.999815615134 -0.0192024929017
0 0.27552343749999997 0.35789843750000006 0.01975 0.052500000000000005 -1.6 -0.999573603042 -0.0291995223013
0 0.2592734375 0.30639843750000006 0.016125 0.036875000000000005 -1.56 -0.99994172023 0.0107961170583
