0 0.9261484375 0.4175234375000001 0.021875 0.057125 3.14 0.00159265291649 -0.999998731728
0 0.8496484375 0.42239843749999995 0.020999999999999998 0.050249999999999996 -0.1 -0.0998334166468 0.995004165278
0 0.8220234375 0.42202343750000004 0.01775 0.05337499999999999 -3.11 -0.0315873984365 -0.999500993626
0 0.8877734375 0.4148984375 0.020624999999999998 0.05175 3.14 0.00159265291649 -0.999998731728
0 0.6212734375 0.4331484375000001 0.020749999999999998 0.05475 -0.04 -0.0399893341866 0.999200106661
0 0.7820234375 0.6687734375 0.021625 0.05375 -1.54 -0.999525830605 0.0307914590825
0 0.6752734375 0.5557734375 0.02325 0.05225 -0.06 -0.0599640064794 0.998200539935
0 0.6337734375 0.5551484375 0.020749999999999998 0.054625 -0.0 -0.0 1.0
