0 0.6615234375 0.5227734374999999 0.019375 0.048875 1.12 0.900100442177 0.435682446277
0 0.8042734375 0.4457734375 0.018375 0.04375 -1.63 -0.998247974378 -0.0591690937141
0 0.6748984375 0.4545234375 0.01975 0.041875 -1.65 -0.996865028454 -0.0791208888067
0 0.6197734375 0.45727343749999994 0.021374999999999998 0.055125 -1.6 -0.999573603042 -0.0291995223013
0 0.5112734375 0.45727343749999994 0.0215 0.055125 -1.51 -0.998152472498 0.0607588812194
