3 0.8208984375 0.5700234375 0.006625000000000001 0.011875 0.01 0.00999983333417 0.999950000417
3 0.6972734375 0.5715234375 0.006625000000000001 0.009625 1.57 0.999999682932 0.000796326710733
3 0.6967734375 0.5658984375 0.007625 0.009625 1.57 0.999999682932 0.000796326710733
