0 0.26052343749999995 0.40452343749999997 0.01925 0.0445 1.75 0.983985946874 -0.178246055649
0 0.7337734375 0.48289843750000006 0.022 0.048 1.71 0.990326804156 -0.138754534952
0 0.8695234375 0.4125234375 0.019875 0.048625 1.71 0.990326804156 -0.138754534952
0 0.7086484375 0.44139843749999996 0.020999999999999998 0.049375 1.75 0.983985946874 -0.178246055649
0 0.7595234375 0.38952343750000007 0.021124999999999998 0.056625 1.73 0.987353839701 -0.158532000644
0 0.7413984375 0.3443984375 0.021249999999999998 0.051625 1.69 0.992903651094 -0.118921569297
0 0.6158984375000001 0.36914843750000004 0.019125 0.052500000000000005 1.7 0.991664810452 -0.128844494296
1 0.6272734375 0.31464843750000004 0.023625 0.057374999999999995 1.72 0.988889766005 -0.148650700271
0 0.5056484374999999 0.35127343749999995 0.02025 0.051000000000000004 1.71 0.990326804156 -0.138754534952
0 0.4817734375 0.2866484375 0.01875 0.0505 1.73 0.987353839701 -0.158532000644
1 0.3038984374999999 0.32102343749999995 0.023875 0.081625 1.76 0.982154317138 -0.188076838893
7 0.4002734374999999 0.3843984375 0.027750000000000004 0.06899999999999999 1.73 0.987353839701 -0.158532000644
