0 0.7471484375 0.4563984375000001 0.02225 0.046125 1.58 0.999957646499 -0.00920354326881
5 0.7037734375 0.6115234375 0.0075 0.022375 -0.2 -0.198669330795 0.980066577841
5 0.6453984375 0.6000234375 0.007875 0.02275 0.05 0.0499791692707 0.998750260395
3 0.6568984375 0.46664843749999996 0.008624999999999999 0.012875000000000001 -0.45 -0.434965534111 0.900447102353
5 0.5383984374999999 0.5448984375 0.0075 0.022375 0.42 0.40776045306 0.913088940312
3 0.6905234375 0.4232734375 0.007625 0.013000000000000001 0.0 0.0 1.0
5 0.7122734374999999 0.3890234375 0.008 0.02175 1.0 0.841470984808 0.540302305868
3 0.6725234375 0.3972734375 0.006750000000000001 0.012875000000000001 -2.86 -0.277885925817 -0.960614080801
3 0.6640234375 0.4282734375 0.007000000000000001 0.010249999999999999 3.13 0.0115923939362 -0.999932805944
0 0.5453984374999999 0.8012734375 0.022625 0.05487499999999999 0.01 0.00999983333417 0.999950000417
