0 0.7752734375 0.5780234375 0.019375 0.048875 -1.66 -0.996023989917 -0.0890854169365
0 0.7517734375 0.5515234375 0.023 0.05125 -1.75 -0.983985946874 -0.178246055649
0 0.5836484375 0.4090234374999999 0.01975 0.04875 3.1 0.0415806624333 -0.999135150273
1 0.8593984375 0.4951484374999999 0.023625 0.057625 2.2 0.80849640382 -0.588501117255
0 0.7848984375 0.43602343750000006 0.020499999999999997 0.047 2.22 0.796565472236 -0.604552271058
