3 0.8991484375 0.5551484375 0.011375 0.011375 1.54 0.999525830605 0.0307914590825
0 0.6327734375 0.5116484375 0.020999999999999998 0.051000000000000004 -1.66 -0.996023989917 -0.0890854169365
3 0.7987734375 0.5540234374999999 0.011 0.006125 1.48 0.995880844538 0.0906716244643
1 0.6528984375 0.5496484374999999 0.025750000000000002 0.073375 1.5 0.997494986604 0.0707372016677
