0 0.28014843749999996 0.45002343749999996 0.01925 0.0445 1.68 0.994043202198 -0.10898675224
0 0.9405234375 0.4348984375 0.01975 0.0445 1.67 0.99508334981 -0.0990410365987
0 0.7938984375 0.5125234375 0.022 0.048 1.68 0.994043202198 -0.10898675224
0 0.8420234375 0.4245234375 0.020125 0.047 1.67 0.99508334981 -0.0990410365987
1 0.7770234375 0.3630234375 0.02325 0.064125 1.69 0.992903651094 -0.118921569297
0 0.7620234375 0.41902343750000004 0.019875 0.048625 1.67 0.99508334981 -0.0990410365987
0 0.6492734375 0.4593984375 0.020999999999999998 0.049375 1.71 0.990326804156 -0.138754534952
0 0.6593984375 0.4015234375000001 0.021124999999999998 0.056625 1.69 0.992903651094 -0.118921569297
0 0.6613984375 0.35927343749999996 0.021249999999999998 0.051625 1.69 0.992903651094 -0.118921569297
0 0.5072734375 0.38477343750000004 0.019125 0.052500000000000005 1.67 0.99508334981 -0.0990410365987
1 0.5383984374999999 0.33264843749999995 0.023625 0.057374999999999995 1.69 0.992903651094 -0.118921569297
0 0.3993984374999999 0.3703984375 0.02025 0.051000000000000004 1.69 0.992903651094 -0.118921569297
1 0.1955234375 0.34789843749999994 0.023875 0.081625 1.72 0.988889766005 -0.148650700271
7 0.3321484375 0.4138984375 0.027750000000000004 0.06899999999999999 1.7 0.991664810452 -0.128844494296
