0 0.6068984374999999 0.4912734375000001 0.022 0.048 1.59 0.999815615134 -0.0192024929017
0 0.9011484375 0.43539843749999996 0.020499999999999997 0.049375 1.57 0.999999682932 0.000796326710733
1 0.7943984374999999 0.39452343749999996 0.020749999999999998 0.048 1.57 0.999999682932 0.000796326710733
7 0.8105234375 0.44464843749999994 0.0235 0.03175 1.57 0.999999682932 0.000796326710733
1 0.7468984375000001 0.4445234375 0.02475 0.058125 1.57 0.999999682932 0.000796326710733
0 0.7113984375 0.39039843750000003 0.01675 0.043 1.57 0.999999682932 0.000796326710733
0 0.5588984375 0.43564843750000004 0.022625 0.054000000000000006 1.58 0.999957646499 -0.00920354326881
0 0.41039843749999994 0.43139843750000006 0.020874999999999998 0.0485 1.59 0.999815615134 -0.0192024929017
1 0.2542734375 0.4302734375 0.02525 0.077125 1.6 0.999573603042 -0.0291995223013
0 0.7728984375 0.3510234375 0.02 0.0495 1.57 0.999999682932 0.000796326710733
