0 0.9078984375 0.5001484375 0.020374999999999997 0.041499999999999995 1.57 0.999999682932 0.000796326710733
0 0.6498984375 0.6921484375 0.021625 0.05325 3.12 0.0215909757261 -0.999766887713
1 0.5692734374999999 0.6816484375 0.0245 0.06687499999999999 3.03 0.111361188687 -0.993779998619
