6 0.031648437500000015 0.6190234375 0.029625000000000002 0.29112499999999997 1.56 0.99994172023 0.0107961170583
0 0.8720234375 0.3863984375 0.020125 0.047875 -1.54 -0.999525830605 0.0307914590825
0 0.8097734375000001 0.3876484375 0.018125 0.042499999999999996 -1.67 -0.99508334981 -0.0990410365987
0 0.7491484375 0.38852343749999996 0.021374999999999998 0.05387499999999999 -1.58 -0.999957646499 -0.00920354326881
0 0.6277734375 0.39314843750000006 0.020749999999999998 0.050124999999999996 -1.59 -0.999815615134 -0.0192024929017
0 0.5626484374999999 0.39677343750000005 0.02 0.04875 -1.62 -0.998789743471 -0.0491838219142
0 0.31539843749999996 0.40614843749999996 0.020874999999999998 0.056999999999999995 -1.61 -0.999231634421 -0.039193631773
