0 0.6867734375 0.5007734375 0.021625 0.049625 1.7 0.991664810452 -0.128844494296
0 0.6886484375 0.6038984375 0.01975 0.04875 2.58 0.532534907556 -0.846408041216
0 0.6098984375000001 0.5880234375 0.019125 0.05475 2.62 0.498261642412 -0.867026721446
0 0.6506484375 0.5992734375 0.0225 0.04975 2.6 0.515501371821 -0.856888753369
0 0.8776484375 0.5305234375000001 0.020499999999999997 0.047 1.71 0.990326804156 -0.138754534952
