0 0.9275234375 0.5756484375 0.022125 0.05525 3.13 0.0115923939362 -0.999932805944
0 0.8987734375 0.41814843749999997 0.020749999999999998 0.052000000000000005 -3.1 -0.0415806624333 -0.999135150273
0 0.5006484375 0.5302734375 0.020374999999999997 0.05125 1.59 0.999815615134 -0.0192024929017
0 0.5818984374999999 0.42177343749999996 0.0195 0.053125 -0.01 -0.00999983333417 0.999950000417
0 0.6826484375 0.5720234375000001 0.02025 0.0485 0.03 0.0299955002025 0.999550033749
0 0.7485234375 0.4196484375 0.020999999999999998 0.051500000000000004 -3.08 -0.0615537174299 -0.998103772095
0 0.8103984375 0.4282734375 0.018625 0.04825 -0.09 -0.089878549198 0.995952733012
0 0.8695234375 0.42577343749999996 0.020499999999999997 0.050875000000000004 -3.1 -0.0415806624333 -0.999135150273
0 0.8041484375 0.5796484375000001 0.01975 0.043875 0.08 0.0799146939692 0.996801706303
0 0.8323984375 0.5808984374999999 0.019875 0.043625000000000004 0.09 0.089878549198 0.995952733012
