0 0.42939843749999995 0.5307734375 0.02025 0.048625 1.6 0.999573603042 -0.0291995223013
0 0.7268984375 0.5400234375 0.01975 0.049375 1.62 0.998789743471 -0.0491838219142
0 0.8432734375 0.5432734375 0.019625 0.040375 1.57 0.999999682932 0.000796326710733
2 0.4448984374999999 0.5780234375 0.032 0.09962499999999999 1.62 0.998789743471 -0.0491838219142
0 0.8436484375 0.5922734375 0.020125 0.052500000000000005 1.6 0.999573603042 -0.0291995223013
0 0.4990234375 0.6673984374999999 0.017 0.043875 2.2 0.80849640382 -0.588501117255
