6 0.07164843750000005 0.5805234374999999 0.029625000000000002 0.29112499999999997 1.67 0.99508334981 -0.0990410365987
0 0.7970234375 0.38552343750000007 0.02 0.04875 -1.58 -0.999957646499 -0.00920354326881
5 0.6276484375 0.6375234375 0.0055 0.021249999999999998 1.57 0.999999682932 0.000796326710733
