0 0.8471484375 0.3980234375 0.02175 0.045375 -1.22 -0.939099356319 0.343645746316
0 0.6432734375 0.4415234375 0.021625 0.049625 1.84 0.963982996152 -0.265963875609
0 0.6263984375 0.5417734375000001 0.01975 0.04875 2.75 0.381660992052 -0.924302378632
1 0.9177734375 0.5353984374999999 0.023625 0.057625 1.87 0.955571516853 -0.294759352997
0 0.8265234375 0.5028984375000001 0.020499999999999997 0.047 1.88 0.952576194272 -0.30430017106
