0 0.9427734375 0.45502343749999996 0.019125 0.04775 -1.55 -0.999783764189 0.0207948278031
0 0.8106484375 0.4551484375 0.019125 0.042249999999999996 -1.54 -0.999525830605 0.0307914590825
0 0.7263984375 0.4515234375 0.01925 0.0445 -1.58 -0.999957646499 -0.00920354326881
0 0.6350234375 0.4598984374999999 0.0195 0.045 -1.77 -0.980224472788 -0.197888814609
7 0.8263984375 0.5271484375 0.005 0.0225 1.57 0.999999682932 0.000796326710733
