0 0.8847734375 0.45627343749999993 0.020499999999999997 0.04725 -1.65 -0.996865028454 -0.0791208888067
0 0.8301484375 0.4615234375 0.021374999999999998 0.053500000000000006 -1.64 -0.997606381319 -0.0691484486541
1 0.7787734374999999 0.6266484375 0.026500000000000003 0.07075000000000001 0.03 0.0299955002025 0.999550033749
0 0.7235234375 0.5528984375 0.021374999999999998 0.049125 1.57 0.999999682932 0.000796326710733
0 0.7155234375 0.4677734375 0.020624999999999998 0.0495 -1.64 -0.997606381319 -0.0691484486541
0 0.6477734375 0.5548984375 0.023625 0.054625 1.56 0.99994172023 0.0107961170583
