0 0.7365234375 0.4442734374999999 0.020749999999999998 0.047 -1.61 -0.999231634421 -0.039193631773
0 0.9362734375 0.5471484375 0.020749999999999998 0.04825 1.56 0.99994172023 0.0107961170583
0 0.8632734375 0.5482734375 0.019875 0.041749999999999995 1.62 0.998789743471 -0.0491838219142
0 0.7985234375 0.5492734374999999 0.02 0.04625 1.54 0.999525830605 0.0307914590825
0 0.6655234375 0.44727343750000004 0.020999999999999998 0.047 -1.62 -0.998789743471 -0.0491838219142
0 0.7305234375 0.5510234374999999 0.020499999999999997 0.044 1.54 0.999525830605 0.0307914590825
0 0.5973984375 0.44964843749999994 0.020999999999999998 0.05425 -1.62 -0.998789743471 -0.0491838219142
0 0.6632734375 0.5513984375 0.020499999999999997 0.05175 1.55 0.999783764189 0.0207948278031
0 0.3992734375 0.46189843750000004 0.02 0.04 -1.65 -0.996865028454 -0.0791208888067
