0 0.9423984375 0.4505234375 0.0225 0.056374999999999995 -1.56 -0.99994172023 0.0107961170583
0 0.8462734375000001 0.44739843749999997 0.020499999999999997 0.05500000000000001 -1.52 -0.998710143976 0.0507744849336
0 0.6712734375 0.4445234375 0.018125 0.041249999999999995 -1.56 -0.99994172023 0.0107961170583
1 0.5703984375 0.44339843749999996 0.0245 0.067 -1.52 -0.998710143976 0.0507744849336
0 0.5643984375 0.4757734375 0.020374999999999997 0.048625 -1.54 -0.999525830605 0.0307914590825
5 0.8993984375 0.5631484375 0.007875 0.02275 1.61 0.999231634421 -0.039193631773
0 0.38477343750000004 0.44239843749999996 0.016625 0.054000000000000006 -1.56 -0.99994172023 0.0107961170583
