0 0.6995234375 0.5321484375 0.020749999999999998 0.051875000000000004 1.58 0.999957646499 -0.00920354326881
0 0.8935234375 0.45064843750000005 0.020749999999999998 0.041875 -1.57 -0.999999682932 0.000796326710733
0 0.7857734375000001 0.6010234375 0.021249999999999998 0.058125 3.14 0.00159265291649 -0.999998731728
0 0.7472734375 0.6010234375 0.022625 0.054125 3.14 0.00159265291649 -0.999998731728
0 0.7813984375 0.42002343750000004 0.019625 0.0435 -1.57 -0.999999682932 0.000796326710733
0 0.6706484375 0.5982734375 0.020874999999999998 0.054000000000000006 3.13 0.0115923939362 -0.999932805944
0 0.5913984374999999 0.7788984375 0.0225 0.054625 0.04 0.0399893341866 0.999200106661
0 0.5488984374999999 0.7795234375 0.023125 0.058125 -0.0 -0.0 1.0
1 0.6698984375 0.7787734374999999 0.025875 0.061750000000000006 0.03 0.0299955002025 0.999550033749
