0 0.2552734375 0.47464843749999996 0.0195 0.04525 1.43 0.990104560337 0.140331605847
0 0.36489843749999995 0.5007734375 0.02025 0.0485 1.57 0.999999682932 0.000796326710733
0 0.38514843749999994 0.46027343749999994 0.021249999999999998 0.05625 1.6 0.999573603042 -0.0291995223013
0 0.5160234375 0.3417734375 0.020874999999999998 0.053625 -1.73 -0.987353839701 -0.158532000644
