0 0.6196484375 0.5010234375 0.020624999999999998 0.046125 1.57 0.999999682932 0.000796326710733
0 0.6255234375000001 0.3660234375 0.021249999999999998 0.055125 -1.56 -0.99994172023 0.0107961170583
0 0.6737734375 0.5563984375000001 0.019625 0.04425 0.75 0.681638760023 0.731688868874
0 0.6303984375 0.5598984375 0.020499999999999997 0.049875 0.74 0.674287911628 0.73846855873
0 0.5881484374999999 0.5522734375 0.020624999999999998 0.05225 0.78 0.7032794192 0.710913538012
0 0.5465234375 0.5496484374999999 0.020624999999999998 0.04925 0.8 0.7173560909 0.696706709347
