0 0.6800234375 0.5018984375 0.020624999999999998 0.046125 1.58 0.999957646499 -0.00920354326881
0 0.8245234375 0.41339843749999994 0.020499999999999997 0.049 -1.54 -0.999525830605 0.0307914590825
0 0.8836484375 0.5563984375000001 0.019875 0.051125 0.71 0.651833771022 0.758361875991
0 0.7995234375 0.5518984375 0.020374999999999997 0.050624999999999996 0.78 0.7032794192 0.710913538012
0 0.7526484375 0.5556484375 0.01975 0.048375 0.77 0.696135238627 0.717910669611
0 0.7033984375 0.5601484375 0.020874999999999998 0.045625 0.77 0.696135238627 0.717910669611
1 0.6166484375 0.5536484374999999 0.02275 0.057999999999999996 0.84 0.744643119971 0.667462825841
0 0.5286484375 0.5525234375 0.020374999999999997 0.052000000000000005 0.78 0.7032794192 0.710913538012
0 0.30502343749999994 0.5566484375 0.0215 0.0485 0.73 0.666869635004 0.745174402345
0 0.5435234375 0.3626484375000001 0.020999999999999998 0.056125 -1.59 -0.999815615134 -0.0192024929017
1 0.16052343749999998 0.4135234375 0.027250000000000003 0.08637500000000001 -1.65 -0.996865028454 -0.0791208888067
0 0.46227343749999994 0.36352343749999994 0.01975 0.052500000000000005 -1.6 -0.999573603042 -0.0291995223013
0 0.37614843749999993 0.36527343749999996 0.019625 0.050124999999999996 -1.59 -0.999815615134 -0.0192024929017
0 0.17364843750000003 0.3703984375 0.020624999999999998 0.057874999999999996 -1.65 -0.996865028454 -0.0791208888067
0 0.4465234375 0.3115234375 0.016125 0.036875000000000005 -1.57 -0.999999682932 0.000796326710733
0 0.5077734374999999 0.14714843749999995 0.019875 0.04575 -0.87 -0.764328937026 0.64482654724
