0 0.7211484375 0.5035234375 0.020749999999999998 0.04 1.54 0.999525830605 0.0307914590825
0 0.6832734375 0.5450234375 0.01875 0.042249999999999996 1.56 0.99994172023 0.0107961170583
7 0.4172734374999999 0.7472734375 0.01625 0.021875 1.5 0.997494986604 0.0707372016677
0 0.5822734374999999 0.7440234375 0.021124999999999998 0.05125 1.54 0.999525830605 0.0307914590825
0 0.6531484375000001 0.7417734375 0.020874999999999998 0.04525 1.54 0.999525830605 0.0307914590825
7 0.7067734375 0.7440234375 0.018875 0.01925 -1.53 -0.999167945271 0.0407850112416
