0 0.9342734375 0.5382734375 0.020499999999999997 0.051875000000000004 1.6 0.999573603042 -0.0291995223013
1 0.8380234375 0.5356484375 0.03075 0.073125 1.57 0.999999682932 0.000796326710733
0 0.7440234375 0.5338984375 0.019875 0.054125 1.57 0.999999682932 0.000796326710733
0 0.6777734375 0.5341484375000001 0.019625 0.048375 -1.53 -0.999167945271 0.0407850112416
0 0.5680234375 0.5238984375 0.020125 0.041749999999999995 1.63 0.998247974378 -0.0591690937141
