0 0.9512734375 0.5486484375 0.01825 0.047375 0.45 0.434965534111 0.900447102353
0 0.8847734375 0.4740234375 0.017875 0.0455 -1.57 -0.999999682932 0.000796326710733
5 0.8413984375 0.4847734375 0.005875 0.021875 -1.07 -0.877200504275 0.480124229029
0 0.7788984375 0.5445234375 0.018375 0.04575 0.38 0.370920469413 0.928664635577
