1 0.8522734375000001 0.43839843749999996 0.025374999999999998 0.06687499999999999 1.45 0.992712991038 0.120502769367
5 0.7502734375 0.5293984375 0.007375 0.023625 1.35 0.975723357827 0.219006687093
3 0.8863984375 0.5956484375000001 0.007375 0.010374999999999999 1.6 0.999573603042 -0.0291995223013
4 0.8892734375 0.5737734375000001 0.0063750000000000005 0.014875 -3.13 -0.0115923939362 -0.999932805944
4 0.8717734375 0.5745234375 0.00625 0.016625 3.13 0.0115923939362 -0.999932805944
3 0.7951484375 0.45627343749999993 0.006500000000000001 0.00775 -0.54 -0.514135991653 0.857708681364
3 0.8448984374999999 0.3707734375 0.010499999999999999 0.008875 -0.09 -0.089878549198 0.995952733012
3 0.8367734375 0.3717734375 0.006125 0.009125 -0.1 -0.0998334166468 0.995004165278
0 0.7016484375 0.34202343749999997 0.02025 0.048875 3.02 0.121293255031 -0.992616716706
