0 0.7141484375 0.45889843750000003 0.02 0.04825 1.23 0.942488801932 0.334237727125
0 0.5548984375 0.5386484375 0.019125 0.0475 1.13 0.904412189379 0.42665980793
1 0.8295234375 0.33027343750000004 0.01925 0.060625 -1.89 -0.949485614865 -0.313810559359
1 0.8440234375 0.4605234375 0.025625 0.062 1.22 0.939099356319 0.343645746316
0 0.4381484375 0.5463984375 0.0195 0.045625 1.22 0.939099356319 0.343645746316
0 0.21989843749999993 0.6022734375 0.01825 0.0395 1.39 0.983700814811 0.179812977673
