0 0.9537734375 0.4595234375 0.02225 0.046125 1.56 0.99994172023 0.0107961170583
5 0.7658984375 0.6301484375 0.00975 0.021374999999999998 1.08 0.881957806885 0.471328364174
0 0.41614843749999997 0.3783984375 0.021875 0.055625 -1.41 -0.987100101014 0.160104311555
