0 0.6647734375000001 0.2393984375 0.017125 0.049625 -1.6 -0.999573603042 -0.0291995223013
0 0.5711484375 0.2350234375 0.02175 0.047 1.57 0.999999682932 0.000796326710733
0 0.47827343749999995 0.2317734375 0.017374999999999998 0.044375 1.57 0.999999682932 0.000796326710733
0 0.7098984375 0.4973984375 0.020374999999999997 0.05625 1.59 0.999815615134 -0.0192024929017
5 0.4118984374999999 0.6171484375 0.00425 0.01975 1.58 0.999957646499 -0.00920354326881
