0 0.7050234375 0.4983984375 0.022 0.048 1.57 0.999999682932 0.000796326710733
0 0.8808984375 0.39477343749999994 0.020125 0.05375 1.57 0.999999682932 0.000796326710733
0 0.8695234375 0.4402734374999999 0.020874999999999998 0.0485 1.57 0.999999682932 0.000796326710733
0 0.7141484375 0.3930234374999999 0.019 0.050749999999999997 1.57 0.999999682932 0.000796326710733
1 0.7382734375 0.44264843750000005 0.02525 0.077125 1.57 0.999999682932 0.000796326710733
0 0.6235234375 0.39139843750000003 0.021249999999999998 0.049625 1.59 0.999815615134 -0.0192024929017
0 0.5946484375 0.4467734375 0.020874999999999998 0.049 1.57 0.999999682932 0.000796326710733
0 0.44164843749999994 0.43764843750000004 0.021124999999999998 0.045375 1.58 0.999957646499 -0.00920354326881
7 0.028148437499999956 0.42139843749999994 0.032125 0.146 1.59 0.999815615134 -0.0192024929017
