0 0.5283984374999999 0.4893984375 0.022 0.048 1.59 0.999815615134 -0.0192024929017
0 0.7945234375 0.40414843749999996 0.02025 0.046625 1.58 0.999957646499 -0.00920354326881
0 0.8301484375 0.4565234375 0.020125 0.052625 1.57 0.999999682932 0.000796326710733
0 0.6796484375 0.39914843749999995 0.020499999999999997 0.04825 1.57 0.999999682932 0.000796326710733
0 0.6336484375 0.43639843750000007 0.021374999999999998 0.056125 1.58 0.999957646499 -0.00920354326881
1 0.4447734375 0.43702343749999994 0.026125 0.0745 1.6 0.999573603042 -0.0291995223013
0 0.8373984375 0.3453984375 0.019875 0.054000000000000006 1.58 0.999957646499 -0.00920354326881
0 0.7025234375 0.34189843750000004 0.019375 0.047875 1.57 0.999999682932 0.000796326710733
0 0.6101484375 0.33689843750000004 0.021374999999999998 0.051625 1.58 0.999957646499 -0.00920354326881
