0 0.6996484375 0.4886484375 0.021124999999999998 0.042249999999999996 1.57 0.999999682932 0.000796326710733
0 0.8157734375 0.4232734375 0.020374999999999997 0.047875 2.86 0.277885925817 -0.960614080801
0 0.6732734375 0.41914843749999997 0.020125 0.0495 2.58 0.532534907556 -0.846408041216
0 0.6356484375 0.42202343750000004 0.019625 0.046625 2.5 0.598472144104 -0.801143615547
0 0.5655234375 0.45827343750000005 0.02175 0.04575 1.58 0.999957646499 -0.00920354326881
0 0.9718984375 0.5388984375 0.020749999999999998 0.051000000000000004 1.6 0.999573603042 -0.0291995223013
1 0.7120234375 0.5295234375 0.025374999999999998 0.068625 1.64 0.997606381319 -0.0691484486541
1 0.6147734375 0.37489843749999996 0.0245 0.057874999999999996 -1.59 -0.999815615134 -0.0192024929017
0 0.5866484375 0.4912734375000001 0.020874999999999998 0.045125 1.58 0.999957646499 -0.00920354326881
5 0.5578984374999999 0.26639843750000003 0.0075 0.019875 -1.54 -0.999525830605 0.0307914590825
