0 0.8687734375 0.3786484375 0.019875 0.045 -0.66 -0.613116851973 0.789992231497
3 0.7728984375 0.4807734375 0.006875000000000001 0.014499999999999999 2.76 0.372399039425 -0.928072710209
3 0.7665234375000001 0.48389843749999994 0.007000000000000001 0.015375 2.74 0.390884778898 -0.920439617588
1 0.7290234375 0.6068984375 0.02275 0.057125 -2.7 -0.427379880234 -0.904072142017
