0 0.9026484375 0.5027734374999999 0.02 0.047875 1.56 0.99994172023 0.0107961170583
2 0.8852734375 0.5467734375 0.030625000000000003 0.16999999999999998 1.57 0.999999682932 0.000796326710733
1 0.8898984375 0.45527343750000004 0.026375 0.0685 1.59 0.999815615134 -0.0192024929017
0 0.8032734375 0.45327343750000004 0.021625 0.052375000000000005 1.57 0.999999682932 0.000796326710733
1 0.7218984375 0.4508984375 0.021374999999999998 0.050375 1.59 0.999815615134 -0.0192024929017
0 0.6880234375000001 0.5518984375 0.020749999999999998 0.05225 1.58 0.999957646499 -0.00920354326881
1 0.5861484375 0.5508984375 0.025500000000000002 0.057874999999999996 1.58 0.999957646499 -0.00920354326881
