0 0.35927343749999996 0.5372734375 0.020374999999999997 0.045875 1.51 0.998152472498 0.0607588812194
7 0.9668984375 0.5330234375 0.019375 0.032625 1.52 0.998710143976 0.0507744849336
0 0.8353984375 0.5442734375 0.019625 0.046375 1.55 0.999783764189 0.0207948278031
0 0.9070234375 0.5401484375 0.0195 0.046125 1.44 0.991458348192 0.130423708738
0 0.7132734375 0.5493984375000001 0.02025 0.047 1.53 0.999167945271 0.0407850112416
0 0.5692734374999999 0.5593984375 0.019125 0.0445 1.49 0.996737752043 0.0807084484548
