6 0.07952343750000002 0.5710234375 0.029625000000000002 0.29112499999999997 1.69 0.992903651094 -0.118921569297
0 0.8526484375000001 0.3840234375 0.02 0.04875 -1.57 -0.999999682932 0.000796326710733
5 0.6545234375 0.6352734375 0.0055 0.021249999999999998 1.57 0.999999682932 0.000796326710733
