7 0.8708984375 0.5497734375000001 0.013750000000000002 0.027625 1.29 0.960835064206 0.277120875057
0 0.8237734375 0.5638984375 0.0195 0.042749999999999996 1.26 0.952090341591 0.305816908378
0 0.5701484375 0.5607734375 0.020499999999999997 0.052625 -1.85 -0.961275202975 -0.275590246825
0 0.4727734375 0.6710234374999999 0.01975 0.048625 -1.86 -0.958471283079 -0.285189059245
0 0.37089843749999996 0.6265234375 0.020874999999999998 0.055374999999999994 -1.9 -0.946300087687 -0.323289566864
