0 0.43164843750000004 0.5293984375 0.01975 0.049375 1.63 0.998247974378 -0.0591690937141
0 0.5562734375 0.5370234375 0.019625 0.040375 1.6 0.999573603042 -0.0291995223013
2 0.10302343750000009 0.5626484375 0.032 0.09962499999999999 1.62 0.998789743471 -0.0491838219142
0 0.5728984374999999 0.5861484375 0.020125 0.052500000000000005 1.62 0.998789743471 -0.0491838219142
1 0.8753984375 0.5871484375 0.022625 0.05550000000000001 1.58 0.999957646499 -0.00920354326881
0 0.48352343749999993 0.6570234375 0.017 0.043875 2.15 0.836898790798 -0.54735766548
