1 0.9155234375 0.4491484375 0.020874999999999998 0.04925 -1.58 -0.999957646499 -0.00920354326881
0 0.7026484375 0.45427343750000004 0.0185 0.047 -1.57 -0.999999682932 0.000796326710733
1 0.6256484375 0.4535234375 0.020749999999999998 0.050624999999999996 -1.58 -0.999957646499 -0.00920354326881
0 0.4016484374999999 0.4605234375 0.021875 0.052875000000000005 -1.55 -0.999783764189 0.0207948278031
