0 0.8446484375000001 0.5347734375 0.020749999999999998 0.04975 1.63 0.998247974378 -0.0591690937141
0 0.7600234375 0.4268984375 0.021124999999999998 0.046 -0.03 -0.0299955002025 0.999550033749
0 0.6411484375000001 0.4106484375 0.018375 0.040375 3.12 0.0215909757261 -0.999766887713
1 0.5857734375 0.4168984375 0.021875 0.05337499999999999 -3.13 -0.0115923939362 -0.999932805944
0 0.5293984375 0.5747734375 0.0195 0.0435 2.11 0.858117829635 -0.513452812304
0 0.3762734375 0.5192734375 0.018875 0.043125000000000004 1.71 0.990326804156 -0.138754534952
