0 0.6995234375 0.49414843750000004 0.021124999999999998 0.042249999999999996 1.54 0.999525830605 0.0307914590825
0 0.8831484375 0.43639843750000007 0.020749999999999998 0.044375 2.49 0.606453523378 -0.795118937004
0 0.6820234375 0.4278984375 0.020374999999999997 0.047875 2.84 0.297041351307 -0.95486461638
7 0.7956484375 0.4361484375 0.008 0.018375 -2.98 -0.160890314967 -0.986972292696
0 0.8410234375000001 0.5408984375 0.020749999999999998 0.051000000000000004 1.58 0.999957646499 -0.00920354326881
1 0.5801484374999999 0.5376484375 0.025374999999999998 0.068625 1.61 0.999231634421 -0.039193631773
0 0.8817734375 0.3857734374999999 0.02025 0.04425 -1.54 -0.999525830605 0.0307914590825
0 0.5853984375 0.4990234375 0.020874999999999998 0.045125 1.56 0.99994172023 0.0107961170583
