0 0.5853984375 0.4936484375 0.022 0.048 1.59 0.999815615134 -0.0192024929017
7 0.7428984375000001 0.4518984374999999 0.025374999999999998 0.064125 1.57 0.999999682932 0.000796326710733
7 0.9266484375 0.45464843750000006 0.027750000000000004 0.06899999999999999 1.58 0.999957646499 -0.00920354326881
0 0.7007734375 0.39939843750000004 0.018875 0.0405 1.56 0.99994172023 0.0107961170583
1 0.6103984375 0.40039843750000004 0.024875 0.061875 1.57 0.999999682932 0.000796326710733
2 0.4328984374999999 0.44902343749999996 0.03125 0.20550000000000002 1.59 0.999815615134 -0.0192024929017
