0 0.9182734375 0.6027734375 0.021875 0.055874999999999994 0.0 0.0 1.0
0 0.8665234374999999 0.4547734375 0.01875 0.0485 -1.6 -0.999573603042 -0.0291995223013
0 0.8715234375 0.5375234375 0.019375 0.039875 1.58 0.999957646499 -0.00920354326881
1 0.8001484375 0.4523984375000001 0.022375 0.055874999999999994 -1.56 -0.99994172023 0.0107961170583
0 0.8106484375 0.5366484375 0.021124999999999998 0.055625 1.58 0.999957646499 -0.00920354326881
0 0.7301484375 0.5438984375 0.020749999999999998 0.046375 1.41 0.987100101014 0.160104311555
1 0.6955234375 0.3561484375 0.027625 0.084375 3.11 0.0315873984365 -0.999500993626
0 0.6630234375 0.5675234375 0.023 0.055374999999999994 1.14 0.908633496116 0.417594503958
1 0.42002343750000004 0.5126484375 0.0225 0.05675 1.58 0.999957646499 -0.00920354326881
1 0.4907734374999999 0.6583984375 0.026625 0.08299999999999999 -0.0 -0.0 1.0
