0 0.6416484375 0.22689843750000005 0.017374999999999998 0.044375 1.58 0.999957646499 -0.00920354326881
0 0.5186484375 0.16352343749999998 0.022 0.03925 1.25 0.948984619356 0.315322362395
0 0.7263984375 0.4920234375 0.020374999999999997 0.05625 1.6 0.999573603042 -0.0291995223013
0 0.3833984375 0.1586484374999999 0.020499999999999997 0.035625000000000004 -1.55 -0.999783764189 0.0207948278031
5 0.4547734374999999 0.6196484375 0.00425 0.01975 1.58 0.999957646499 -0.00920354326881
