0 0.6135234375 0.48289843750000006 0.02 0.0445 1.62 0.998789743471 -0.0491838219142
0 0.46689843750000004 0.4397734375 0.020374999999999997 0.044625 1.59 0.999815615134 -0.0192024929017
1 0.3065234374999999 0.4710234375 0.020499999999999997 0.065 1.64 0.997606381319 -0.0691484486541
