0 0.8815234375 0.5015234375000001 0.021625 0.038125 1.57 0.999999682932 0.000796326710733
6 0.5143984374999999 0.6095234375 0.027125 0.156125 -0.94 -0.807558100405 0.589788025031
0 0.7798984375 0.36027343749999996 0.021875 0.05 -1.56 -0.99994172023 0.0107961170583
0 0.5956484375 0.35727343749999996 0.020374999999999997 0.05387499999999999 -1.54 -0.999525830605 0.0307914590825
5 0.7047734375 0.28477343749999995 0.0075 0.022625 1.57 0.999999682932 0.000796326710733
