0 0.8340234375 0.5400234375 0.020499999999999997 0.052625 1.57 0.999999682932 0.000796326710733
0 0.7616484375 0.45389843750000003 0.020499999999999997 0.04625 -1.57 -0.999999682932 0.000796326710733
0 0.6270234375 0.4803984375 0.022625 0.05675 1.48 0.995880844538 0.0906716244643
0 0.6768984375 0.5507734375 0.01925 0.03775 1.15 0.912763940261 0.408487440884
