1 0.9122734375 0.5368984375 0.02475 0.07025 1.57 0.999999682932 0.000796326710733
0 0.8500234375 0.4598984374999999 0.01875 0.048125 -1.5 -0.997494986604 0.0707372016677
0 0.7725234375 0.5368984375 0.019875 0.046 1.58 0.999957646499 -0.00920354326881
0 0.6893984375 0.4545234375 0.019875 0.051500000000000004 -1.54 -0.999525830605 0.0307914590825
0 0.5890234375 0.4575234375 0.020125 0.044875 -1.52 -0.998710143976 0.0507744849336
0 0.5798984375 0.5351484375 0.020624999999999998 0.053500000000000006 -1.55 -0.999783764189 0.0207948278031
