0 0.9206484375 0.44002343750000006 0.020749999999999998 0.047 -1.61 -0.999231634421 -0.039193631773
0 0.8510234375 0.4397734375 0.020999999999999998 0.047 -1.58 -0.999957646499 -0.00920354326881
0 0.9138984375 0.5452734375 0.020499999999999997 0.044 1.54 0.999525830605 0.0307914590825
0 0.7830234375 0.43927343750000003 0.020999999999999998 0.05425 -1.6 -0.999573603042 -0.0291995223013
0 0.8483984375 0.5432734375 0.020499999999999997 0.05175 1.59 0.999815615134 -0.0192024929017
0 0.5860234375 0.44502343749999995 0.02 0.04 -1.63 -0.998247974378 -0.0591690937141
0 0.7855234375 0.5442734375 0.020749999999999998 0.04375 1.57 0.999999682932 0.000796326710733
0 0.7162734374999999 0.5482734375 0.020125 0.043875 1.55 0.999783764189 0.0207948278031
0 0.6465234375 0.5502734375 0.020999999999999998 0.0475 1.58 0.999957646499 -0.00920354326881
