1 0.4711484374999999 0.4378984375 0.02275 0.055374999999999994 1.7 0.991664810452 -0.128844494296
5 0.8271484375 0.48752343749999993 0.010249999999999999 0.022375 1.72 0.988889766005 -0.148650700271
0 0.9217734375 0.5302734375 0.01975 0.049125 1.68 0.994043202198 -0.10898675224
0 0.8886484375 0.4246484374999999 0.020999999999999998 0.050375 -1.5 -0.997494986604 0.0707372016677
1 0.8226484375 0.4176484375 0.021374999999999998 0.05387499999999999 -1.46 -0.993868363412 0.11056977982
0 0.8350234375000001 0.5201484375 0.021249999999999998 0.0445 1.68 0.994043202198 -0.10898675224
0 0.7707734375 0.5100234375 0.021625 0.048625 1.72 0.988889766005 -0.148650700271
0 0.7598984375 0.41114843749999996 0.02 0.047375 -1.41 -0.987100101014 0.160104311555
3 0.8343984375 0.5580234374999999 0.01 0.011 -1.46 -0.993868363412 0.11056977982
0 0.6891484375 0.3990234375 0.018875 0.046375 -1.43 -0.990104560337 0.140331605847
0 0.7052734375 0.4991484375 0.018875 0.043625000000000004 1.72 0.988889766005 -0.148650700271
