0 0.9378984375 0.45027343750000004 0.020125 0.044625 -1.55 -0.999783764189 0.0207948278031
0 0.8722734375000001 0.4511484375 0.02 0.052125 -1.63 -0.998247974378 -0.0591690937141
0 0.8222734375 0.6388984375 0.02025 0.0445 -2.48 -0.614374257806 -0.78901474723
0 0.8028984375 0.6122734375000001 0.01975 0.040999999999999995 -2.47 -0.622233555319 -0.782831656638
0 0.7713984375 0.6056484375 0.018375 0.037125000000000005 -2.51 -0.590430918114 -0.807088180396
0 0.7307734375 0.6120234375 0.017875 0.043625000000000004 -2.59 -0.524044341687 -0.851690981487
0 0.6960234375000001 0.6125234374999999 0.019125 0.045625 -2.63 -0.489566606827 -0.871965903852
0 0.6577734375 0.6143984375 0.020624999999999998 0.051500000000000004 -2.62 -0.498261642412 -0.867026721446
0 0.7911484375 0.5343984374999999 0.020999999999999998 0.049125 1.54 0.999525830605 0.0307914590825
0 0.7162734374999999 0.5362734375 0.020624999999999998 0.0475 1.54 0.999525830605 0.0307914590825
0 0.7341484375 0.45427343750000004 0.01925 0.04975 -1.65 -0.996865028454 -0.0791208888067
1 0.6617734375 0.45627343749999993 0.022375 0.05487499999999999 -1.62 -0.998789743471 -0.0491838219142
0 0.5501484375 0.5988984375 0.020874999999999998 0.04625 3.11 0.0315873984365 -0.999500993626
2 0.38489843749999997 0.5265234375000001 0.036125000000000004 0.135125 1.44 0.991458348192 0.130423708738
