0 0.7377734375 0.6690234375 0.022 0.05125 -3.07 -0.0715315111408 -0.997438340407
0 0.5620234375 0.4523984375000001 0.02225 0.046125 1.58 0.999957646499 -0.00920354326881
5 0.5025234375 0.5570234375 0.0075 0.022375 -0.04 -0.0399893341866 0.999200106661
5 0.46264843749999995 0.5162734375 0.007875 0.02275 0.08 0.0799146939692 0.996801706303
5 0.5886484375 0.36852343750000005 0.008 0.02175 1.46 0.993868363412 0.11056977982
3 0.5071484374999999 0.3960234375 0.007124999999999999 0.0165 -0.12 -0.119712207289 0.992808635854
