0 0.7035234375 0.5226484375 0.0215 0.05437499999999999 -1.41 -0.987100101014 0.160104311555
0 0.7023984375 0.42664843750000003 0.018625 0.050875000000000004 -1.43 -0.990104560337 0.140331605847
0 0.5977734375 0.41677343750000007 0.01925 0.04475 -1.45 -0.992712991038 0.120502769367
