3 0.8858984375 0.41777343749999996 0.006500000000000001 0.00625 -0.03 -0.0299955002025 0.999550033749
3 0.7528984375 0.42502343749999993 0.009 0.00625 -1.59 -0.999815615134 -0.0192024929017
4 0.8947734375 0.5783984375 0.006875000000000001 0.006625000000000001 2.89 0.248946786673 -0.968517164228
