0 0.9782734375 0.5321484375 0.020624999999999998 0.053500000000000006 -1.53 -0.999167945271 0.0407850112416
0 0.8685234374999999 0.45627343749999993 0.020499999999999997 0.049375 -1.56 -0.99994172023 0.0107961170583
0 0.8653984375 0.5318984375 0.020499999999999997 0.048 1.57 0.999999682932 0.000796326710733
0 0.7347734375 0.5303984374999999 0.019875 0.052375000000000005 -1.55 -0.999783764189 0.0207948278031
0 0.7286484375 0.45464843750000006 0.020499999999999997 0.045375 -1.53 -0.999167945271 0.0407850112416
0 0.6615234375 0.5306484375 0.01975 0.04575 1.58 0.999957646499 -0.00920354326881
