0 0.8525234375 0.6157734375 0.017875 0.043625000000000004 -2.62 -0.498261642412 -0.867026721446
0 0.8175234375 0.6185234375 0.019125 0.045625 -2.65 -0.47203054129 -0.881582195878
0 0.7806484375 0.6195234375 0.020624999999999998 0.051500000000000004 -2.63 -0.489566606827 -0.871965903852
0 0.7442734375 0.6192734375 0.019625 0.0455 -2.61 -0.506906852248 -0.86200083709
0 0.9111484375 0.5373984375 0.020999999999999998 0.049125 1.51 0.998152472498 0.0607588812194
0 0.8376484375 0.5410234375 0.020624999999999998 0.0475 1.49 0.996737752043 0.0807084484548
0 0.8513984375 0.45889843750000003 0.01925 0.04975 -1.67 -0.99508334981 -0.0990410365987
1 0.7827734375 0.4611484375 0.022375 0.05487499999999999 -1.67 -0.99508334981 -0.0990410365987
0 0.7080234375 0.6188984375 0.018625 0.045375 -2.59 -0.524044341687 -0.851690981487
0 0.6711484375 0.6031484375 0.020874999999999998 0.04625 3.1 0.0415806624333 -0.999135150273
1 0.6388984375 0.6143984375 0.023125 0.06475 3.09 0.0515697683985 -0.998669394238
0 0.7131484375 0.4647734375 0.020374999999999997 0.056374999999999995 -1.58 -0.999957646499 -0.00920354326881
0 0.6445234375 0.46627343750000005 0.020749999999999998 0.054125 -1.65 -0.996865028454 -0.0791208888067
0 0.3657734374999999 0.6291484375 0.02175 0.060625 -0.01 -0.00999983333417 0.999950000417
2 0.4923984375 0.5377734375000001 0.036125000000000004 0.135125 1.41 0.987100101014 0.160104311555
