6 0.04314843749999997 0.6106484375 0.029625000000000002 0.29112499999999997 1.58 0.999957646499 -0.00920354326881
0 0.8688984375 0.3866484375 0.018125 0.042499999999999996 -1.65 -0.996865028454 -0.0791208888067
0 0.6876484375 0.3906484375 0.020749999999999998 0.050124999999999996 -1.58 -0.999957646499 -0.00920354326881
0 0.6231484375 0.3928984375 0.02 0.04875 -1.61 -0.999231634421 -0.039193631773
0 0.3750234375 0.3998984375 0.020874999999999998 0.056999999999999995 -1.61 -0.999231634421 -0.039193631773
5 0.5411484375 0.6488984375 0.0055 0.021249999999999998 1.57 0.999999682932 0.000796326710733
