0 0.9077734375 0.44002343750000006 0.020749999999999998 0.047 -1.6 -0.999573603042 -0.0291995223013
0 0.9690234375 0.5458984375 0.02 0.04625 1.56 0.99994172023 0.0107961170583
0 0.8381484375 0.4401484375 0.020999999999999998 0.047 -1.58 -0.999957646499 -0.00920354326881
0 0.9006484375 0.5453984375 0.020499999999999997 0.044 1.55 0.999783764189 0.0207948278031
0 0.7701484375000001 0.4398984374999999 0.020999999999999998 0.05425 -1.6 -0.999573603042 -0.0291995223013
0 0.8352734374999999 0.5435234375 0.020499999999999997 0.05175 1.58 0.999957646499 -0.00920354326881
0 0.5730234375 0.4458984375 0.02 0.04 -1.62 -0.998789743471 -0.0491838219142
0 0.7725234375 0.5448984375 0.020749999999999998 0.04375 1.56 0.99994172023 0.0107961170583
0 0.7033984375 0.5488984375 0.020125 0.043875 1.54 0.999525830605 0.0307914590825
0 0.6337734375 0.5508984375 0.020999999999999998 0.0475 1.57 0.999999682932 0.000796326710733
