0 0.8351484375 0.5343984374999999 0.01925 0.0445 1.53 0.999167945271 0.0407850112416
0 0.8106484375 0.3972734375 0.019625 0.0465 1.58 0.999957646499 -0.00920354326881
0 0.8530234375 0.4521484375 0.020374999999999997 0.04775 1.56 0.99994172023 0.0107961170583
0 0.7130234375 0.45039843749999997 0.020125 0.042749999999999996 1.56 0.99994172023 0.0107961170583
0 0.6845234375 0.5333984375 0.020749999999999998 0.0505 1.57 0.999999682932 0.000796326710733
0 0.6153984375 0.4477734375 0.020125 0.052000000000000005 1.56 0.99994172023 0.0107961170583
0 0.5990234375 0.3948984375 0.019125 0.04675 1.57 0.999999682932 0.000796326710733
0 0.4723984375 0.39152343749999996 0.019 0.0475 1.59 0.999815615134 -0.0192024929017
0 0.3361484375 0.4387734375 0.020125 0.047 1.58 0.999957646499 -0.00920354326881
0 0.39177343749999993 0.4916484375 0.020999999999999998 0.049375 1.58 0.999957646499 -0.00920354326881
0 0.3856484375 0.5338984375 0.017625 0.042625 1.63 0.998247974378 -0.0591690937141
0 0.24752343749999994 0.5230234375 0.01925 0.0445 1.57 0.999999682932 0.000796326710733
