0 0.38889843749999997 0.5015234375000001 0.020374999999999997 0.045875 1.58 0.999957646499 -0.00920354326881
0 0.8443984375 0.5342734375 0.019875 0.047375 1.61 0.999231634421 -0.039193631773
0 0.6527734375 0.5345234375000001 0.019625 0.050875000000000004 1.56 0.99994172023 0.0107961170583
0 0.7807734375 0.5350234375 0.019875 0.046875 1.56 0.99994172023 0.0107961170583
0 0.4221484375 0.5382734375 0.019375 0.049125 1.59 0.999815615134 -0.0192024929017
3 0.9300234375 0.5491484375 0.008624999999999999 0.0085 1.57 0.999999682932 0.000796326710733
