0 0.7321484375 0.5051484375 0.021124999999999998 0.042249999999999996 1.54 0.999525830605 0.0307914590825
0 0.9357734375 0.4408984375 0.020499999999999997 0.045125 2.47 0.622233555319 -0.782831656638
0 0.8985234375 0.44239843749999996 0.020125 0.051125 2.52 0.582330649524 -0.8129520371
0 0.8068984375 0.4481484375 0.019625 0.04425 2.34 0.718464793069 -0.695563326463
0 0.7578984375 0.44102343749999995 0.0195 0.0465 2.3 0.745705212177 -0.66627602128
0 0.6403984375 0.45064843750000005 0.02 0.044375 2.54 0.565956230449 -0.824435288677
1 0.24164843749999998 0.46027343749999994 0.02275 0.058625000000000003 2.39 0.682803221931 -0.730602326934
0 0.8697734375 0.5486484375 0.020374999999999997 0.050249999999999996 1.56 0.99994172023 0.0107961170583
0 0.7782734375 0.5511484375 0.0215 0.055125 1.57 0.999999682932 0.000796326710733
3 0.7658984375 0.5350234375 0.010499999999999999 0.009375 1.07 0.877200504275 0.480124229029
0 0.6265234375 0.5532734375 0.019875 0.048125 1.56 0.99994172023 0.0107961170583
0 0.5606484375 0.5566484375 0.022375 0.04925 1.57 0.999999682932 0.000796326710733
0 0.5667734375 0.5078984375 0.020874999999999998 0.045125 1.52 0.998710143976 0.0507744849336
0 0.7408984375000001 0.32039843749999997 0.022125 0.053125 -1.59 -0.999815615134 -0.0192024929017
1 0.41639843749999994 0.6988984375 0.03075 0.073125 0.01 0.00999983333417 0.999950000417
