0 0.8202734375 0.49727343749999997 0.018875 0.05437499999999999 -1.89 -0.949485614865 -0.313810559359
0 0.9213984375 0.4720234375000001 0.020999999999999998 0.0485 -2.11 -0.858117829635 -0.513452812304
0 0.7548984375 0.5198984375 0.020999999999999998 0.053625 -1.91 -0.94301993129 -0.332736245681
5 0.6420234375 0.6646484375 0.007124999999999999 0.025 -1.94 -0.932615014022 -0.36087288014
5 0.5451484375 0.6976484375 0.0063750000000000005 0.025 -1.89 -0.949485614865 -0.313810559359
