0 0.9326484375 0.46589843750000004 0.019875 0.050375 1.56 0.99994172023 0.0107961170583
0 0.8098984375 0.46602343749999997 0.01925 0.041999999999999996 1.56 0.99994172023 0.0107961170583
0 0.7008984375 0.5028984375000001 0.020874999999999998 0.05475 1.56 0.99994172023 0.0107961170583
0 0.6277734375 0.4771484375 0.019875 0.045625 1.55 0.999783764189 0.0207948278031
0 0.8131484375 0.42339843750000006 0.022 0.04975 -1.56 -0.99994172023 0.0107961170583
0 0.45127343750000004 0.4301484375 0.0215 0.054625 -1.6 -0.999573603042 -0.0291995223013
