0 0.9747734375 0.5411484375 0.020125 0.045125 -1.53 -0.999167945271 0.0407850112416
0 0.9055234375 0.42902343749999994 0.0195 0.051125 -1.65 -0.996865028454 -0.0791208888067
0 0.9028984375 0.5396484375 0.020874999999999998 0.048625 1.61 0.999231634421 -0.039193631773
0 0.7193984375 0.42764843750000003 0.020374999999999997 0.04525 -1.59 -0.999815615134 -0.0192024929017
0 0.7965234375 0.5372734375 0.02 0.04425 1.63 0.998247974378 -0.0591690937141
0 0.7282734375 0.5383984374999999 0.01875 0.041749999999999995 1.68 0.994043202198 -0.10898675224
0 0.6565234375 0.4287734375000001 0.017875 0.044 -1.56 -0.99994172023 0.0107961170583
3 0.6251484375 0.5631484375 0.0085 0.01 1.57 0.999999682932 0.000796326710733
3 0.6297734375 0.5710234375 0.008125 0.00925 1.57 0.999999682932 0.000796326710733
