5 0.9252734375 0.4613984375 0.007124999999999999 0.025 -1.53 -0.999167945271 0.0407850112416
5 0.8888984375 0.46627343750000005 0.0075 0.023125 -1.45 -0.992712991038 0.120502769367
3 0.7260234375 0.4720234375000001 0.007625 0.009125 2.07 0.877964062999 -0.478726544159
3 0.7292734375000001 0.4653984375 0.006750000000000001 0.010875 2.04 0.891928650953 -0.452176162141
3 0.5765234374999999 0.5136484375 0.007625 0.0115 -1.39 -0.983700814811 0.179812977673
3 0.5776484375 0.5238984375 0.008624999999999999 0.009625 -1.39 -0.983700814811 0.179812977673
