0 0.8323984375 0.5327734375000001 0.019875 0.053500000000000006 1.58 0.999957646499 -0.00920354326881
0 0.8068984375 0.3842734375 0.019 0.045625 -0.04 -0.0399893341866 0.999200106661
0 0.9283984375 0.5367734375000001 0.018875 0.041625 1.57 0.999999682932 0.000796326710733
0 0.7550234375 0.5347734375 0.019625 0.04725 1.57 0.999999682932 0.000796326710733
0 0.7493984375 0.44302343749999995 0.021374999999999998 0.048125 -1.53 -0.999167945271 0.0407850112416
0 0.6827734375 0.44339843749999996 0.020624999999999998 0.04625 -1.56 -0.99994172023 0.0107961170583
0 0.6483984375 0.5331484375 0.020749999999999998 0.047375 1.57 0.999999682932 0.000796326710733
0 0.9823984375 0.5356484375 0.020125 0.043875 1.57 0.999999682932 0.000796326710733
0 0.6112734375 0.44739843749999997 0.020374999999999997 0.04925 -1.56 -0.99994172023 0.0107961170583
1 0.4733984375 0.5366484375 0.03075 0.073125 1.57 0.999999682932 0.000796326710733
0 0.1738984375000001 0.42702343750000005 0.021124999999999998 0.045 1.79 0.976070921983 -0.217452420681
