0 0.9392734375 0.44202343749999995 0.0225 0.052000000000000005 1.57 0.999999682932 0.000796326710733
0 0.7660234375 0.43502343750000005 0.020749999999999998 0.047625 -1.56 -0.99994172023 0.0107961170583
5 0.5643984375 0.46289843750000004 0.00825 0.022875 -1.55 -0.999783764189 0.0207948278031
0 0.5642734375 0.42802343750000005 0.020874999999999998 0.0615 -1.57 -0.999999682932 0.000796326710733
0 0.30477343749999997 0.5317734375 0.023 0.05125 1.52 0.998710143976 0.0507744849336
0 0.8096484374999999 0.5305234375000001 0.020874999999999998 0.04525 1.58 0.999957646499 -0.00920354326881
