0 0.7498984375 0.5018984375 0.021124999999999998 0.042249999999999996 1.57 0.999999682932 0.000796326710733
1 0.8781484375 0.5421484375000001 0.02325 0.055125 1.52 0.998710143976 0.0507744849336
1 0.7813984375 0.35989843749999995 0.0195 0.051500000000000004 -1.57 -0.999999682932 0.000796326710733
0 0.8495234375 0.43902343750000006 0.020374999999999997 0.0455 2.41 0.668055593416 -0.744111365392
0 0.8092734375 0.43827343750000003 0.020499999999999997 0.045125 2.5 0.598472144104 -0.801143615547
0 0.7707734375 0.44064843749999993 0.020125 0.051125 2.49 0.606453523378 -0.795118937004
0 0.6791484375 0.4455234375 0.019625 0.04425 2.34 0.718464793069 -0.695563326463
0 0.5125234375 0.44727343750000004 0.02 0.044375 2.45 0.637764702135 -0.770231254047
0 0.7421484375 0.5463984375 0.020374999999999997 0.050249999999999996 1.57 0.999999682932 0.000796326710733
0 0.6483984375 0.5487734375 0.0215 0.055125 1.58 0.999957646499 -0.00920354326881
3 0.6460234375 0.5323984375 0.010499999999999999 0.009375 1.11 0.89569868568 0.444661516742
0 0.5910234375 0.4998984375 0.020874999999999998 0.045125 1.58 0.999957646499 -0.00920354326881
0 0.6140234375 0.3167734375 0.022125 0.053125 -1.62 -0.998789743471 -0.0491838219142
