3 0.9256484375 0.5527734375 0.011 0.006125 1.39 0.983700814811 0.179812977673
3 0.7981484375 0.4425234375 0.008624999999999999 0.005875 2.29 0.752330576394 -0.658785779918
3 0.8848984375 0.45389843750000003 0.008375 0.011375 -1.64 -0.997606381319 -0.0691484486541
3 0.7236484375 0.5213984375 0.012625 0.012125 -2.42 -0.660581201279 -0.750754604725
3 0.7532734375 0.4721484375 0.008125 0.009 1.31 0.966184951613 0.257850032533
3 0.6846484375 0.48689843750000006 0.011 0.01125 -1.74 -0.985719178836 -0.168397447949
3 0.6533984375 0.5153984375 0.01175 0.011625 1.44 0.991458348192 0.130423708738
3 0.5326484375 0.5147734374999999 0.008375 0.010374999999999999 -1.59 -0.999815615134 -0.0192024929017
1 0.8727734375 0.5375234375 0.025750000000000002 0.073375 1.51 0.998152472498 0.0607588812194
