0 0.3491484375 0.5133984375 0.020374999999999997 0.045875 1.58 0.999957646499 -0.00920354326881
0 0.9027734375 0.5382734375 0.019625 0.046375 1.6 0.999573603042 -0.0291995223013
0 0.7807734375 0.5380234374999999 0.02025 0.047 1.56 0.99994172023 0.0107961170583
0 0.6357734375 0.5425234375 0.019125 0.0445 1.54 0.999525830605 0.0307914590825
0 0.5716484374999999 0.5457734375000001 0.02 0.047625 1.6 0.999573603042 -0.0291995223013
