0 0.4993984374999999 0.6715234375 0.022 0.05125 -3.09 -0.0515697683985 -0.998669394238
0 0.32202343749999995 0.45527343750000004 0.02225 0.046125 1.58 0.999957646499 -0.00920354326881
5 0.2573984374999999 0.49052343750000005 0.0075 0.022375 0.0 0.0 1.0
3 0.24402343749999988 0.5145234375000001 0.0085 0.018 3.14 0.00159265291649 -0.999998731728
3 0.26289843749999997 0.36914843750000004 0.007124999999999999 0.0165 -0.07 -0.0699428473375 0.997551000253
