0 0.9198984375 0.4242734374999999 0.018625 0.0445 -0.01 -0.00999983333417 0.999950000417
0 0.8921484375000001 0.4285234375 0.02 0.04525 -0.02 -0.0199986666933 0.999800006667
0 0.8620234375 0.4246484374999999 0.019625 0.038875 -0.06 -0.0599640064794 0.998200539935
0 0.8326484375000001 0.4221484375 0.021374999999999998 0.05425 -0.04 -0.0399893341866 0.999200106661
0 0.8016484375 0.4152734375 0.02025 0.040749999999999995 3.12 0.0215909757261 -0.999766887713
0 0.7713984375 0.4211484375 0.020749999999999998 0.046625 -3.09 -0.0515697683985 -0.998669394238
0 0.7400234375 0.4148984375 0.019625 0.054625 3.11 0.0315873984365 -0.999500993626
0 0.6835234375 0.4166484374999999 0.020999999999999998 0.0485 -3.07 -0.0715315111408 -0.997438340407
0 0.6515234375 0.4162734375 0.0225 0.054625 0.02 0.0199986666933 0.999800006667
5 0.46889843749999993 0.46427343749999994 0.0072499999999999995 0.021124999999999998 -1.55 -0.999783764189 0.0207948278031
0 0.8626484375 0.5340234374999999 0.018625 0.042249999999999996 1.56 0.99994172023 0.0107961170583
0 0.7995234375 0.5777734375 0.02 0.04925 -0.06 -0.0599640064794 0.998200539935
0 0.6337734375 0.5737734375000001 0.020624999999999998 0.05325 0.05 0.0499791692707 0.998750260395
0 0.6056484375 0.5760234375 0.021124999999999998 0.04775 0.02 0.0199986666933 0.999800006667
0 0.5106484375 0.41602343750000004 0.019875 0.05550000000000001 -3.13 -0.0115923939362 -0.999932805944
0 0.43902343749999995 0.5310234375 0.0195 0.051000000000000004 1.62 0.998789743471 -0.0491838219142
