0 0.9186484375 0.4613984375 0.021124999999999998 0.053500000000000006 -1.53 -0.999167945271 0.0407850112416
7 0.8471484375 0.4577734375 0.022625 0.03225 -1.66 -0.996023989917 -0.0890854169365
0 0.7240234375 0.47489843750000005 0.020374999999999997 0.050375 -1.76 -0.982154317138 -0.188076838893
0 0.2650234374999999 0.7102734374999999 0.021875 0.058374999999999996 0.99 0.836025978601 0.548689860582
