0 0.9740234375 0.5430234375 0.020624999999999998 0.054625 1.6 0.999573603042 -0.0291995223013
0 0.8931484375000001 0.4483984375000001 0.020624999999999998 0.05225 -1.54 -0.999525830605 0.0307914590825
0 0.8080234374999999 0.4638984374999999 0.018125 0.0435 -1.79 -0.976070921983 -0.217452420681
0 0.8808984375 0.5437734375 0.020999999999999998 0.0505 1.5 0.997494986604 0.0707372016677
0 0.8135234375 0.5487734375 0.01975 0.053500000000000006 1.4 0.985449729988 0.1699671429
0 0.6736484375 0.5220234375 0.020499999999999997 0.051000000000000004 -1.98 -0.917437955282 -0.39787887379
1 0.6267734375 0.7167734375 0.0215 0.047375 1.53 0.999167945271 0.0407850112416
1 0.6118984375000001 0.6851484375 0.021875 0.051375000000000004 1.48 0.995880844538 0.0906716244643
2 0.13589843750000008 0.7600234375 0.036125000000000004 0.135125 1.17 0.920750597736 0.390151684308
