1 0.6721484375 0.4953984375 0.027500000000000004 0.066625 1.67 0.99508334981 -0.0990410365987
0 0.7453984375 0.5582734375 0.0195 0.052375000000000005 0.62 0.581035160537 0.813878456663
7 0.44702343749999995 0.4076484375 0.027875 0.03325 1.71 0.990326804156 -0.138754534952
1 0.3660234375 0.39652343749999996 0.024 0.055374999999999994 1.71 0.990326804156 -0.138754534952
