6 0.6752734375 0.7251484375 0.034999999999999996 0.16275 0.27 0.266731436689 0.963770896366
3 0.9271484375 0.5642734375 0.00925 0.0125 -3.13 -0.0115923939362 -0.999932805944
3 0.9435234375 0.45627343749999993 0.01175 0.013625000000000002 -2.81 -0.325549334518 -0.945525055615
0 0.8587734375 0.5576484374999999 0.019125 0.04375 0.29 0.285952225105 0.958243875513
