0 0.3411484375 0.5201484375 0.01925 0.0445 1.59 0.999815615134 -0.0192024929017
0 0.8776484375 0.4447734375 0.01975 0.0445 1.59 0.999815615134 -0.0192024929017
0 0.8922734375 0.3946484375 0.019 0.0475 1.58 0.999957646499 -0.00920354326881
1 0.8191484375 0.39152343749999996 0.019 0.03975 1.57 0.999999682932 0.000796326710733
0 0.8906484375 0.5375234375 0.022 0.048 1.59 0.999815615134 -0.0192024929017
0 0.7466484375 0.44127343750000003 0.020125 0.047 1.59 0.999815615134 -0.0192024929017
1 0.7082734375 0.38714843749999994 0.02325 0.064125 1.61 0.999231634421 -0.039193631773
0 0.6628984375 0.44227343750000003 0.019875 0.048625 1.6 0.999573603042 -0.0291995223013
0 0.6006484375 0.4927734375 0.020999999999999998 0.049375 1.6 0.999573603042 -0.0291995223013
0 0.6023984375 0.3898984375 0.021249999999999998 0.051625 1.61 0.999231634421 -0.039193631773
0 0.40777343749999995 0.4295234375 0.019125 0.052500000000000005 1.64 0.997606381319 -0.0691484486541
1 0.4618984374999999 0.3727734375 0.023625 0.057374999999999995 1.6 0.999573603042 -0.0291995223013
1 0.09102343749999997 0.4148984375 0.023875 0.081625 1.66 0.996023989917 -0.0890854169365
7 0.2756484374999999 0.47352343750000003 0.027750000000000004 0.06899999999999999 1.63 0.998247974378 -0.0591690937141
