0 0.9642734375 0.4541484375 0.018875 0.046875 -1.59 -0.999815615134 -0.0192024929017
2 0.5102734375 0.44902343749999996 0.029875000000000002 0.108625 -1.56 -0.99994172023 0.0107961170583
0 0.5780234375 0.4951484374999999 0.020374999999999997 0.05625 1.57 0.999999682932 0.000796326710733
