0 0.5211484375 0.49252343749999994 0.02 0.0445 1.6 0.999573603042 -0.0291995223013
0 0.42377343749999996 0.44927343750000004 0.020374999999999997 0.044625 1.61 0.999231634421 -0.039193631773
1 0.24814843750000004 0.5003984375 0.020499999999999997 0.065 1.56 0.99994172023 0.0107961170583
0 0.6443984375 0.2978984375 0.019125 0.04375 -1.56 -0.99994172023 0.0107961170583
