0 0.8075234375 0.3933984374999999 0.020499999999999997 0.04625 -3.13 -0.0115923939362 -0.999932805944
0 0.7742734375 0.3962734375 0.019375 0.050249999999999996 -3.13 -0.0115923939362 -0.999932805944
0 0.6290234375 0.3960234375 0.02225 0.053125 3.12 0.0215909757261 -0.999766887713
0 0.39652343749999996 0.40177343749999994 0.020499999999999997 0.04625 0.01 0.00999983333417 0.999950000417
5 0.5857734375 0.6052734375 0.005375 0.021249999999999998 1.57 0.999999682932 0.000796326710733
5 0.5200234375 0.6093984375 0.0055 0.022375 1.58 0.999957646499 -0.00920354326881
