0 0.5455234375 0.2367734374999999 0.020374999999999997 0.04425 1.58 0.999957646499 -0.00920354326881
0 0.4095234375 0.2360234375 0.01875 0.043875 1.55 0.999783764189 0.0207948278031
0 0.5737734375 0.48852343749999994 0.020374999999999997 0.05625 1.59 0.999815615134 -0.0192024929017
