0 0.8263984375 0.6256484375 0.020874999999999998 0.05525 1.1 0.891207360061 0.453596121426
0 0.7358984375 0.5923984375 0.0195 0.048 -2.02 -0.900793191523 -0.434248346118
0 0.5501484375 0.6960234375 0.019375 0.052625 1.13 0.904412189379 0.42665980793
0 0.5831484375 0.7536484375 0.020624999999999998 0.045875 1.1 0.891207360061 0.453596121426
