0 0.0817734375000001 0.47227343749999995 0.02 0.0445 1.63 0.998247974378 -0.0591690937141
0 0.7123984375 0.3988984375 0.018875 0.051875000000000004 -1.61 -0.999231634421 -0.039193631773
0 0.44339843749999996 0.39639843750000003 0.021374999999999998 0.04925 -1.52 -0.998710143976 0.0507744849336
