0 0.8500234375 0.45127343750000004 0.020499999999999997 0.052625 -1.51 -0.998152472498 0.0607588812194
0 0.7161484375 0.5227734374999999 0.01975 0.048625 -1.51 -0.998152472498 0.0607588812194
0 0.6340234375 0.44639843749999997 0.020874999999999998 0.055374999999999994 -1.57 -0.999999682932 0.000796326710733
0 0.6305234375 0.5186484375 0.019875 0.04525 1.68 0.994043202198 -0.10898675224
