0 0.8796484375 0.5448984375 0.021625 0.049625 1.53 0.999167945271 0.0407850112416
0 0.8086484375 0.5472734375 0.02025 0.051375000000000004 1.53 0.999167945271 0.0407850112416
0 0.8177734375 0.6426484375 0.019125 0.05475 2.46 0.630030629996 -0.776570283533
