0 0.9355234375 0.4560234375000001 0.019 0.0445 -1.57 -0.999999682932 0.000796326710733
0 0.5506484374999999 0.4475234375 0.020499999999999997 0.057125 -1.53 -0.999167945271 0.0407850112416
1 0.20239843749999997 0.4796484375000001 0.025374999999999998 0.0675 2.07 0.877964062999 -0.478726544159
0 0.6511484375000001 0.40252343749999997 0.017625 0.05275 -2.75 -0.381660992052 -0.924302378632
