5 0.7275234375 0.3413984375 0.00625 0.02175 -1.56 -0.99994172023 0.0107961170583
0 0.5371484375 0.39514843749999995 0.019 0.04375 -3.12 -0.0215909757261 -0.999766887713
0 0.4703984374999999 0.39414843749999995 0.019 0.043375000000000004 -3.14 -0.00159265291649 -0.999998731728
