0 0.6378984375 0.5007734375 0.020624999999999998 0.046125 1.58 0.999957646499 -0.00920354326881
0 0.9155234375 0.5525234375 0.021625 0.050749999999999997 0.77 0.696135238627 0.717910669611
0 0.8727734375 0.5536484374999999 0.020125 0.0495 0.71 0.651833771022 0.758361875991
0 0.8262734375 0.5567734375 0.020374999999999997 0.041999999999999996 0.72 0.659384671971 0.751805729141
0 0.7811484375 0.5568984375 0.02 0.051125 0.7 0.644217687238 0.764842187284
0 0.2672734374999999 0.4076484375 0.020499999999999997 0.049 -1.58 -0.999957646499 -0.00920354326881
0 0.6788984375 0.4178984375 0.018375 0.04525 -1.58 -0.999957646499 -0.00920354326881
0 0.6475234375 0.5555234375 0.019875 0.051125 0.69 0.636537182222 0.771246014997
0 0.5632734374999999 0.5506484375 0.020374999999999997 0.050624999999999996 0.79 0.710353272418 0.703845315652
1 0.3797734374999999 0.5517734375 0.02275 0.057999999999999996 0.84 0.744643119971 0.667462825841
0 0.3075234375 0.35952343750000004 0.020999999999999998 0.056125 -1.59 -0.999815615134 -0.0192024929017
0 0.22764843749999997 0.36089843750000006 0.01975 0.052500000000000005 -1.6 -0.999573603042 -0.0291995223013
0 0.20689843749999992 0.3082734375 0.016125 0.036875000000000005 -1.56 -0.99994172023 0.0107961170583
