0 0.8098984375 0.36489843749999995 0.01975 0.04575 -1.74 -0.985719178836 -0.168397447949
0 0.5911484375 0.5283984375 0.0195 0.04425 1.48 0.995880844538 0.0906716244643
0 0.49614843749999993 0.5057734375 0.021124999999999998 0.05325 1.45 0.992712991038 0.120502769367
0 0.45902343749999996 0.5485234375 0.020374999999999997 0.05625 1.46 0.993868363412 0.11056977982
0 0.5818984374999999 0.7110234375 0.02 0.048 0.19 0.188858894977 0.982004235117
0 0.5426484374999999 0.7065234375 0.020125 0.0455 0.18 0.179029573426 0.983843692788
