0 0.6546484375 0.5005234375 0.020624999999999998 0.046125 1.58 0.999957646499 -0.00920354326881
0 0.9085234375 0.5572734374999999 0.02 0.051125 0.72 0.659384671971 0.751805729141
0 0.5667734375 0.4086484374999999 0.020499999999999997 0.049 -1.57 -0.999999682932 0.000796326710733
0 0.7735234375 0.5553984375 0.019875 0.051125 0.72 0.659384671971 0.751805729141
0 0.6903984375 0.5496484374999999 0.020374999999999997 0.050624999999999996 0.78 0.7032794192 0.710913538012
1 0.5076484375 0.5513984375 0.02275 0.057999999999999996 0.83 0.73793137111 0.674875760071
0 0.35089843749999994 0.35952343750000004 0.01975 0.052500000000000005 -1.6 -0.999573603042 -0.0291995223013
0 0.33764843749999995 0.3077734375000001 0.016125 0.036875000000000005 -1.56 -0.99994172023 0.0107961170583
0 0.3992734375 0.14414843749999995 0.019875 0.04575 -0.86 -0.757842562895 0.652437468164
