0 0.9745234375 0.5320234375 0.019875 0.052375000000000005 -1.55 -0.999783764189 0.0207948278031
0 0.9652734375 0.4567734375 0.020499999999999997 0.045375 -1.55 -0.999783764189 0.0207948278031
0 0.8998984375 0.5308984375 0.01975 0.04575 1.58 0.999957646499 -0.00920354326881
0 0.8390234375000001 0.5302734375 0.02 0.04725 -1.55 -0.999783764189 0.0207948278031
0 0.7067734375 0.5268984375 0.020624999999999998 0.05125 -2.49 -0.606453523378 -0.795118937004
