0 0.7855234375 0.5510234374999999 0.019625 0.043875 0.08 0.0799146939692 0.996801706303
0 0.9203984375 0.5558984375 0.02175 0.0485 0.08 0.0799146939692 0.996801706303
0 0.8735234375 0.40214843749999996 0.02 0.0505 -3.08 -0.0615537174299 -0.998103772095
0 0.8375234375 0.4002734375 0.0215 0.051875000000000004 0.0 0.0 1.0
0 0.7746484375 0.3992734375 0.019625 0.050124999999999996 -3.07 -0.0715315111408 -0.997438340407
0 0.7555234375 0.5465234375 0.020374999999999997 0.042875 0.12 0.119712207289 0.992808635854
0 0.7128984375 0.3866484375 0.02025 0.050124999999999996 -2.92 -0.219783612225 -0.975548647581
0 0.6038984375 0.36152343750000004 0.020624999999999998 0.046875 -2.86 -0.277885925817 -0.960614080801
0 0.3021484375 0.3677734375 0.020749999999999998 0.04975 2.04 0.891928650953 -0.452176162141
