0 0.8008984375 0.4482734374999999 0.017875 0.038875 -1.57 -0.999999682932 0.000796326710733
0 0.6501484375 0.2400234375 0.018 0.050749999999999997 -1.59 -0.999815615134 -0.0192024929017
0 0.5657734375 0.23627343750000007 0.020874999999999998 0.0485 -1.57 -0.999999682932 0.000796326710733
0 0.5177734375 0.44902343749999996 0.0185 0.061625 -1.58 -0.999957646499 -0.00920354326881
0 0.6617734375 0.49614843750000004 0.020374999999999997 0.05625 1.57 0.999999682932 0.000796326710733
