0 0.8480234375 0.46164843749999995 0.021875 0.058374999999999996 1.52 0.998710143976 0.0507744849336
0 0.7122734374999999 0.46764843750000007 0.020999999999999998 0.04925 -1.61 -0.999231634421 -0.039193631773
0 0.8806484375 0.5950234375 0.014374999999999999 0.042375 -0.49 -0.470625888171 0.88233285861
