0 0.9032734375 0.5413984375 0.019875 0.039625 0.66 0.613116851973 0.789992231497
0 0.8761484375 0.5303984374999999 0.019375 0.053500000000000006 0.52 0.496880137844 0.867819179678
0 0.8017734375000001 0.4781484375 0.020749999999999998 0.052000000000000005 0.59 0.556361022913 0.8309406791
