1 0.10414843750000014 0.6670234374999999 0.023125 0.051375000000000004 1.4 0.985449729988 0.1699671429
1 0.2915234375 0.5877734375 0.023125 0.07775 1.35 0.975723357827 0.219006687093
0 0.46764843749999996 0.5881484375 0.018125 0.048625 1.29 0.960835064206 0.277120875057
0 0.7098984375 0.37614843750000004 0.018125 0.05437499999999999 -1.76 -0.982154317138 -0.188076838893
1 0.5313984374999999 0.39977343750000005 0.02275 0.057125 -1.68 -0.994043202198 -0.10898675224
