1 0.4095234375 0.4022734375 0.0225 0.062 0.08 0.0799146939692 0.996801706303
0 0.7491484375 0.40677343749999995 0.019125 0.052625 -3.05 -0.0914646422324 -0.995808324539
0 0.7843984375 0.5237734374999999 0.02025 0.052500000000000005 1.65 0.996865028454 -0.0791208888067
0 0.8322734375 0.4615234375 0.018375 0.042875 -1.56 -0.99994172023 0.0107961170583
2 0.1585234375000001 0.5012734375 0.03125 0.08175 1.62 0.998789743471 -0.0491838219142
