0 0.9295234375 0.46427343749999994 0.020999999999999998 0.05125 1.54 0.999525830605 0.0307914590825
0 0.7588984375 0.5282734375 0.020499999999999997 0.052125 1.63 0.998247974378 -0.0591690937141
0 0.9568984375 0.5290234375 0.0195 0.049625 1.62 0.998789743471 -0.0491838219142
0 0.8721484374999999 0.4563984375000001 0.020624999999999998 0.053125 1.62 0.998789743471 -0.0491838219142
3 0.8825234375 0.44139843749999996 0.0075 0.004875 1.57 0.999999682932 0.000796326710733
3 0.8480234375 0.4351484375 0.00425 0.004 1.57 0.999999682932 0.000796326710733
0 0.5907734375 0.4605234375 0.021875 0.048625 1.63 0.998247974378 -0.0591690937141
0 0.6047734375 0.5260234374999999 0.020499999999999997 0.050375 1.64 0.997606381319 -0.0691484486541
3 0.8538984375 0.4407734375000001 0.005 0.005375 1.57 0.999999682932 0.000796326710733
0 0.3903984374999999 0.5227734374999999 0.021875 0.056499999999999995 1.55 0.999783764189 0.0207948278031
