0 0.9036484375 0.4388984375 0.01875 0.041749999999999995 -1.45 -0.992712991038 0.120502769367
0 0.8436484375 0.4265234375 0.021374999999999998 0.049125 -0.96 -0.819191568301 0.573519986072
0 0.29802343749999993 0.7695234375 0.021875 0.057874999999999996 0.51 0.488177246883 0.872744507646
0 0.9672734375 0.5418984375 0.01975 0.041375 1.23 0.942488801932 0.334237727125
0 0.9141484375 0.5622734375 0.02 0.038875 0.99 0.836025978601 0.548689860582
0 0.7691484375 0.5521484375 0.021124999999999998 0.059 2.98 0.160890314967 -0.986972292696
0 0.6273984375 0.16339843750000005 0.02175 0.049 0.5 0.479425538604 0.87758256189
0 0.7208984375 0.6775234375 0.021249999999999998 0.049375 -2.62 -0.498261642412 -0.867026721446
0 0.6457734375 0.8096484375 0.020999999999999998 0.047375 -2.64 -0.480822614989 -0.876817890394
