0 0.7008984375 0.48952343750000005 0.021124999999999998 0.042249999999999996 1.56 0.99994172023 0.0107961170583
0 0.8350234375000001 0.42402343750000004 0.020374999999999997 0.047875 2.85 0.287478012343 -0.957787237553
0 0.6925234375 0.4202734375 0.020125 0.0495 2.57 0.540972220377 -0.841040460846
0 0.6546484375 0.4232734375 0.019625 0.046625 2.5 0.598472144104 -0.801143615547
0 0.5846484375 0.4597734375 0.02175 0.04575 1.58 0.999957646499 -0.00920354326881
1 0.7316484375 0.5307734375 0.025374999999999998 0.068625 1.63 0.998247974378 -0.0591690937141
1 0.6347734375 0.37614843750000004 0.0245 0.057874999999999996 -1.57 -0.999999682932 0.000796326710733
0 0.5856484375 0.49214843750000004 0.020874999999999998 0.045125 1.58 0.999957646499 -0.00920354326881
5 0.5838984375 0.26752343750000007 0.0075 0.019875 -1.56 -0.99994172023 0.0107961170583
