0 0.6878984375 0.5535234375 0.022 0.048 1.34 0.973484541695 0.228752807808
0 0.8487734375 0.39077343750000004 0.0195 0.047875 1.73 0.987353839701 -0.158532000644
0 0.7423984375 0.3241484375 0.018875 0.04325 1.73 0.987353839701 -0.158532000644
7 0.6596484375 0.3636484375 0.0335 0.1575 1.75 0.983985946874 -0.178246055649
0 0.34189843750000004 0.30277343749999996 0.022 0.040125 1.8 0.973847630878 -0.227202094693
0 0.3510234375 0.6756484375 0.0195 0.043125000000000004 1.02 0.852108021949 0.523365951252
0 0.10602343749999998 0.8167734375 0.020749999999999998 0.047 0.9 0.783326909627 0.621609968271
