0 0.48227343749999996 0.48352343749999993 0.022 0.048 1.6 0.999573603042 -0.0291995223013
0 0.8982734375 0.4016484375 0.020499999999999997 0.04825 1.59 0.999815615134 -0.0192024929017
0 0.8112734375 0.39052343749999996 0.01925 0.042499999999999996 1.57 0.999999682932 0.000796326710733
0 0.8240234375 0.4371484375 0.021374999999999998 0.056125 1.58 0.999957646499 -0.00920354326881
0 0.6876484375 0.3948984375 0.020624999999999998 0.04775 1.61 0.999231634421 -0.039193631773
0 0.6136484375 0.3928984375 0.020874999999999998 0.050624999999999996 1.59 0.999815615134 -0.0192024929017
1 0.6580234375 0.4391484375 0.026125 0.0745 1.6 0.999573603042 -0.0291995223013
0 0.5178984375 0.4387734375 0.01975 0.049875 1.6 0.999573603042 -0.0291995223013
0 0.6972734375 0.3545234374999999 0.021374999999999998 0.04675 1.58 0.999957646499 -0.00920354326881
