0 0.9193984375 0.4438984375 0.020624999999999998 0.04625 -1.56 -0.99994172023 0.0107961170583
0 0.8883984375 0.5362734375 0.020749999999999998 0.047375 1.57 0.999999682932 0.000796326710733
0 0.8513984375 0.44502343749999995 0.020374999999999997 0.04925 -1.56 -0.99994172023 0.0107961170583
0 0.8127734375 0.5372734375 0.020499999999999997 0.051875000000000004 1.62 0.998789743471 -0.0491838219142
1 0.7142734374999999 0.5352734375 0.03075 0.073125 1.57 0.999999682932 0.000796326710733
0 0.6240234375 0.5346484375 0.019875 0.054125 1.57 0.999999682932 0.000796326710733
0 0.5991484375 0.5323984375 0.019625 0.048375 -1.53 -0.999167945271 0.0407850112416
0 0.4477734375 0.5240234375 0.020125 0.041749999999999995 1.61 0.999231634421 -0.039193631773
0 0.36152343750000004 0.5093984375 0.019875 0.047125 1.84 0.963982996152 -0.265963875609
