3 0.9205234375 0.5448984375 0.010249999999999999 0.014249999999999999 1.5 0.997494986604 0.0707372016677
3 0.8780234375 0.5053984375 0.01175 0.011625 0.95 0.813415504789 0.581683089464
3 0.9106484375 0.46689843750000004 0.01 0.01075 -1.56 -0.99994172023 0.0107961170583
3 0.9258984375 0.5341484375000001 0.00975 0.012875000000000001 -1.54 -0.999525830605 0.0307914590825
5 0.8956484375 0.4767734375 0.00825 0.021875 -1.54 -0.999525830605 0.0307914590825
4 0.8753984375 0.46302343749999997 0.00625 0.008624999999999999 3.04 0.101417986317 -0.994843903359
3 0.7033984375 0.4565234375 0.00825 0.01125 -1.42 -0.988651762852 0.150225469912
3 0.7013984375 0.44864843749999994 0.009125 0.009625 -1.35 -0.975723357827 0.219006687093
3 0.7277734375 0.48352343749999993 0.0095 0.012750000000000001 1.57 0.999999682932 0.000796326710733
3 0.7293984375 0.49689843749999996 0.008 0.011375 1.52 0.998710143976 0.0507744849336
3 0.7057734375 0.46689843750000004 0.009125 0.010499999999999999 1.99 0.913413361341 -0.407033206659
