0 0.9045234375 0.5358984375 0.018875 0.043125000000000004 1.67 0.99508334981 -0.0990410365987
0 0.8961484375 0.4156484375 0.02 0.04725 3.13 0.0115923939362 -0.999932805944
0 0.8675234375 0.41977343749999996 0.019875 0.0455 3.09 0.0515697683985 -0.998669394238
0 0.8360234375 0.4155234375 0.0195 0.04725 3.11 0.0315873984365 -0.999500993626
0 0.8051484375 0.4152734375 0.019 0.04675 -0.12 -0.119712207289 0.992808635854
0 0.7817734375000001 0.5315234375 0.020374999999999997 0.051875000000000004 1.62 0.998789743471 -0.0491838219142
0 0.7347734375 0.4247734375000001 0.020624999999999998 0.051875000000000004 -0.06 -0.0599640064794 0.998200539935
0 0.6473984375 0.5347734375 0.01975 0.050624999999999996 1.63 0.998247974378 -0.0591690937141
0 0.7030234375 0.41739843749999994 0.01875 0.045125 -3.13 -0.0115923939362 -0.999932805944
0 0.6723984375000001 0.4175234375000001 0.020125 0.040125 -3.14 -0.00159265291649 -0.999998731728
0 0.4040234375 0.5352734375 0.021374999999999998 0.05437499999999999 1.6 0.999573603042 -0.0291995223013
