0 0.9820234375 0.5320234375 0.019375 0.042125 1.57 0.999999682932 0.000796326710733
0 0.9153984375 0.4417734375 0.0225 0.052000000000000005 1.57 0.999999682932 0.000796326710733
0 0.7427734375 0.43502343750000005 0.020749999999999998 0.047625 -1.57 -0.999999682932 0.000796326710733
5 0.5318984375 0.4547734375 0.007875 0.025875 -1.58 -0.999957646499 -0.00920354326881
5 0.5257734374999999 0.4633984375 0.00825 0.022875 -1.54 -0.999525830605 0.0307914590825
0 0.5407734375 0.42802343750000005 0.020874999999999998 0.0615 -1.57 -0.999999682932 0.000796326710733
5 0.3435234374999999 0.4527734375 0.00825 0.02375 -1.63 -0.998247974378 -0.0591690937141
0 0.2805234375 0.5308984375 0.023 0.05125 1.52 0.998710143976 0.0507744849336
0 0.7850234375 0.5301484375000001 0.020874999999999998 0.04525 1.58 0.999957646499 -0.00920354326881
