0 0.9133984375 0.5406484375 0.021374999999999998 0.049125 1.6 0.999573603042 -0.0291995223013
0 0.9086484375 0.4545234375 0.020624999999999998 0.0495 -1.55 -0.999783764189 0.0207948278031
0 0.8366484375000001 0.5373984375 0.023625 0.054625 1.64 0.997606381319 -0.0691484486541
0 0.8488984374999999 0.45402343749999996 0.018875 0.041125 -1.52 -0.998710143976 0.0507744849336
0 0.7602734375 0.4447734375 0.020749999999999998 0.0505 -1.54 -0.999525830605 0.0307914590825
0 0.5075234375 0.42839843750000006 0.020874999999999998 0.051625 -1.56 -0.99994172023 0.0107961170583
