3 0.7840234375 0.4710234375 0.007625 0.009125 1.92 0.939645473685 -0.342149651151
3 0.7863984375 0.46527343749999994 0.006750000000000001 0.010875 1.86 0.958471283079 -0.285189059245
3 0.8560234375 0.5742734374999999 0.01 0.00625 -2.88 -0.258619349661 -0.965979312398
3 0.6602734375 0.5222734375 0.007625 0.0115 -1.37 -0.979908061399 0.199449720998
3 0.6608984375 0.5328984375 0.008624999999999999 0.009625 -1.36 -0.977864602435 0.209238665891
