0 0.33164843749999995 0.5260234374999999 0.01975 0.049375 1.61 0.999231634421 -0.039193631773
0 0.4625234375 0.5337734375000001 0.019625 0.040375 1.6 0.999573603042 -0.0291995223013
0 0.4846484375 0.5825234375 0.020125 0.052500000000000005 1.62 0.998789743471 -0.0491838219142
1 0.7978984375 0.5863984375 0.022625 0.05550000000000001 1.59 0.999815615134 -0.0192024929017
0 0.48264843749999997 0.6565234375 0.017 0.043875 2.14 0.842330431637 -0.5389614494
