0 0.9133984375 0.5403984375 0.020499999999999997 0.052625 1.57 0.999999682932 0.000796326710733
0 0.8408984374999999 0.4545234375 0.020499999999999997 0.04625 -1.58 -0.999957646499 -0.00920354326881
0 0.7062734375 0.47989843749999994 0.022625 0.05675 1.49 0.996737752043 0.0807084484548
0 0.7562734375 0.5513984375 0.01925 0.03775 1.15 0.912763940261 0.408487440884
0 0.7006484374999999 0.44264843750000005 0.01975 0.051000000000000004 -1.58 -0.999957646499 -0.00920354326881
0 0.6966484374999999 0.5896484375 0.019 0.051500000000000004 0.71 0.651833771022 0.758361875991
