5 0.9507734375 0.46852343750000003 0.011625 0.021124999999999998 -1.34 -0.973484541695 0.228752807808
3 0.8757734375 0.5446484375 0.010249999999999999 0.014249999999999999 1.53 0.999167945271 0.0407850112416
3 0.8267734375 0.4943984375 0.01175 0.011625 1.06 0.872355482345 0.488872081861
3 0.8398984375 0.4501484375 0.008375 0.010374999999999999 -2.88 -0.258619349661 -0.965979312398
3 0.8128984375 0.4741484375 0.01 0.01075 -1.63 -0.998247974378 -0.0591690937141
3 0.8260234375 0.5351484375 0.00975 0.012875000000000001 -1.55 -0.999783764189 0.0207948278031
5 0.7668984375 0.47789843750000005 0.00825 0.021875 -1.54 -0.999525830605 0.0307914590825
3 0.6622734375 0.4763984375 0.009125 0.010499999999999999 1.64 0.997606381319 -0.0691484486541
