0 0.48789843749999995 0.4880234375 0.022 0.048 1.59 0.999815615134 -0.0192024929017
1 0.9061484375 0.4451484375 0.026125 0.0745 1.59 0.999815615134 -0.0192024929017
7 0.7922734375 0.4457734375 0.016 0.016 1.58 0.999957646499 -0.00920354326881
0 0.7472734375 0.44527343750000004 0.01975 0.049875 1.58 0.999957646499 -0.00920354326881
0 0.6333984375 0.3908984375 0.020624999999999998 0.045625 1.59 0.999815615134 -0.0192024929017
0 0.6083984375 0.43927343750000003 0.020125 0.0445 1.56 0.99994172023 0.0107961170583
7 0.1725234375000001 0.4288984375 0.0235 0.03175 1.6 0.999573603042 -0.0291995223013
