7 0.7762734375 0.32627343750000004 0.01525 0.077 -2.79 -0.344393467258 -0.938825404274
0 0.4132734374999999 0.36489843749999995 0.019125 0.0475 0.82 0.731145829727 0.682221207288
0 0.31002343749999994 0.46027343749999994 0.0195 0.045625 0.81 0.72428717437 0.689498432952
