0 0.9076484375 0.4417734375 0.020499999999999997 0.057125 -1.48 -0.995880844538 0.0906716244643
1 0.5613984375 0.4707734375 0.025374999999999998 0.0675 2.08 0.873132979508 -0.487482102334
0 0.5487734375 0.3750234375 0.022625 0.038125 1.95 0.928959715004 -0.370180831351
