0 0.9446484375 0.4661484375 0.019875 0.050375 1.58 0.999957646499 -0.00920354326881
0 0.8102734375 0.46202343749999997 0.01925 0.041999999999999996 1.58 0.999957646499 -0.00920354326881
0 0.6385234375 0.5013984375 0.020874999999999998 0.05475 1.55 0.999783764189 0.0207948278031
0 0.5393984374999999 0.47252343750000003 0.019875 0.045625 1.54 0.999525830605 0.0307914590825
0 0.8208984375 0.4165234375 0.019125 0.047625 -1.58 -0.999957646499 -0.00920354326881
0 0.3530234375 0.4331484375000001 0.01975 0.03925 -1.63 -0.998247974378 -0.0591690937141
