0 0.5711484375 0.5261484375000001 0.022 0.048 1.59 0.999815615134 -0.0192024929017
0 0.3550234375 0.5001484375 0.0195 0.043125000000000004 1.66 0.996023989917 -0.0890854169365
0 0.08302343749999996 0.44402343750000006 0.020749999999999998 0.047 2.0 0.909297426826 -0.416146836547
