0 0.9555234375 0.4655234375 0.019375 0.052625 1.61 0.999231634421 -0.039193631773
0 0.9568984375 0.5288984375 0.020624999999999998 0.045875 1.58 0.999957646499 -0.00920354326881
0 0.8946484375 0.5323984375 0.018875 0.053500000000000006 1.58 0.999957646499 -0.00920354326881
7 0.8441484375 0.45889843750000003 0.017875 0.0315 1.61 0.999231634421 -0.039193631773
0 0.7857734375000001 0.4593984375 0.019625 0.05125 -1.57 -0.999999682932 0.000796326710733
0 0.8295234375 0.5277734374999999 0.020499999999999997 0.05175 1.63 0.998247974378 -0.0591690937141
