0 0.6771484375 0.4933984375 0.022 0.048 1.59 0.999815615134 -0.0192024929017
7 0.9468984375 0.4535234375 0.025374999999999998 0.064125 1.59 0.999815615134 -0.0192024929017
0 0.8752734375 0.4521484375 0.02025 0.049875 1.59 0.999815615134 -0.0192024929017
0 0.6646484375 0.3982734375 0.01825 0.048 1.57 0.999999682932 0.000796326710733
2 0.6511484375000001 0.4505234375 0.03125 0.20550000000000002 1.59 0.999815615134 -0.0192024929017
0 0.5433984374999999 0.34489843750000004 0.019625 0.045375 1.58 0.999957646499 -0.00920354326881
0 0.4401484375 0.4533984375 0.020125 0.05487499999999999 1.61 0.999231634421 -0.039193631773
