0 0.6190234375 0.34489843750000004 0.01825 0.048 -2.76 -0.372399039425 -0.928072710209
3 0.4437734375 0.5678984375 0.007124999999999999 0.013500000000000002 -2.97 -0.170751828951 -0.985314068158
0 0.39652343749999996 0.5412734375 0.022 0.051375000000000004 -1.34 -0.973484541695 0.228752807808
0 0.3757734374999999 0.5707734375 0.019625 0.050875000000000004 1.9 0.946300087687 -0.323289566864
0 0.3706484375 0.6088984375 0.021374999999999998 0.062875 1.89 0.949485614865 -0.313810559359
1 0.3581484374999999 0.7333984375 0.022125 0.05550000000000001 -1.3 -0.963558185417 0.267498828625
0 0.33964843749999996 0.7658984375 0.017625 0.042499999999999996 1.82 0.96910912888 -0.246632309969
0 0.32764843749999994 0.8105234375 0.020125 0.041999999999999996 1.93 0.936177052316 -0.351528841941
