0 0.8943984375 0.4615234375 0.01925 0.041999999999999996 1.54 0.999525830605 0.0307914590825
0 0.7901484375 0.48164843749999997 0.020874999999999998 0.05475 1.61 0.999231634421 -0.039193631773
0 0.7176484375000001 0.47189843749999993 0.019875 0.045625 1.55 0.999783764189 0.0207948278031
0 0.6585234375 0.5075234375 0.018375 0.027875 1.57 0.999999682932 0.000796326710733
0 0.8740234375 0.4105234375 0.02025 0.047875 -1.57 -0.999999682932 0.000796326710733
0 0.5486484375 0.4235234375 0.02 0.05625 -1.59 -0.999815615134 -0.0192024929017
0 0.5642734375 0.49427343749999997 0.018625 0.052375000000000005 1.48 0.995880844538 0.0906716244643
