0 0.9537734375 0.4595234375 0.02225 0.046125 1.57 0.999999682932 0.000796326710733
5 0.7658984375 0.6302734375 0.00975 0.021374999999999998 1.08 0.881957806885 0.471328364174
0 0.25914843749999994 0.36789843749999995 0.021875 0.055625 -1.54 -0.999525830605 0.0307914590825
