0 0.8936484375 0.4565234375 0.018875 0.04375 -1.64 -0.997606381319 -0.0691484486541
0 0.5405234375 0.5500234374999999 0.021875 0.058374999999999996 1.28 0.958015860289 0.286715209632
0 0.7412734375 0.6440234375 0.020374999999999997 0.04975 -0.2 -0.198669330795 0.980066577841
0 0.7002734375 0.6348984375 0.019 0.055374999999999994 -0.27 -0.266731436689 0.963770896366
0 0.41214843749999996 0.5921484375 0.020999999999999998 0.04925 -1.86 -0.958471283079 -0.285189059245
