0 0.9023984375 0.4008984375 0.022125 0.057374999999999995 -1.27 -0.955100855585 0.296280872925
0 0.8961484375 0.5835234375 0.020749999999999998 0.05775 0.41 0.398609327984 0.917120822817
7 0.8681484375 0.5618984375 0.029875000000000002 0.07275000000000001 -2.69 -0.43639908216 -0.899753211214
0 0.8323984375 0.5552734375 0.020125 0.059125000000000004 0.44 0.425939465066 0.90475166322
5 0.9043984375 0.4262734375 0.0072499999999999995 0.02475 -1.19 -0.928368967249 0.371659872261
0 0.7788984375 0.5332734375 0.0195 0.0435 0.49 0.470625888171 0.88233285861
7 0.8060234374999999 0.5357734375 0.02 0.0335 -2.68 -0.445374644542 -0.895344305839
7 0.6458984375 0.6201484374999999 0.016375 0.028125 -2.67 -0.45430566983 -0.890845866781
0 0.7108984375 0.42439843750000006 0.020749999999999998 0.050749999999999997 2.03 0.896405741152 -0.443234415666
