0 0.7970234375 0.4707734375 0.02025 0.047875 -1.62 -0.998789743471 -0.0491838219142
0 0.5890234375 0.49252343749999994 0.020749999999999998 0.045875 -1.63 -0.998247974378 -0.0591690937141
3 0.5982734375 0.6310234375 0.005875 0.006875000000000001 -1.36 -0.977864602435 0.209238665891
