0 0.8743984375 0.5052734375 0.020624999999999998 0.046125 1.56 0.99994172023 0.0107961170583
0 0.9477734375 0.5535234375 0.020374999999999997 0.052000000000000005 0.79 0.710353272418 0.703845315652
0 0.7292734375000001 0.5631484375 0.0215 0.0485 0.77 0.696135238627 0.717910669611
0 0.5922734374999999 0.5643984375000001 0.018625 0.04325 0.78 0.7032794192 0.710913538012
0 0.5090234375 0.5612734375 0.020125 0.045625 0.76 0.688921445111 0.724836010741
0 0.6353984375 0.4178984375 0.01975 0.042749999999999996 -1.64 -0.997606381319 -0.0691484486541
0 0.7978984375 0.37052343749999994 0.019625 0.050124999999999996 -1.58 -0.999957646499 -0.00920354326881
0 0.28514843749999996 0.4483984375000001 0.020624999999999998 0.05125 -1.66 -0.996023989917 -0.0890854169365
0 0.10177343750000001 0.48889843749999995 0.02 0.047125 -1.76 -0.982154317138 -0.188076838893
0 0.5922734374999999 0.3762734375 0.020624999999999998 0.057874999999999996 -1.63 -0.998247974378 -0.0591690937141
0 0.38677343749999993 0.38889843749999997 0.02025 0.052375000000000005 -1.72 -0.988889766005 -0.148650700271
0 0.22652343749999992 0.41877343749999996 0.020874999999999998 0.056625 -1.89 -0.949485614865 -0.313810559359
0 0.6118984375000001 0.31964843749999994 0.0185 0.040125 -1.71 -0.990326804156 -0.138754534952
0 0.47227343749999995 0.2460234375000001 0.02225 0.05425 -1.9 -0.946300087687 -0.323289566864
