0 0.6685234375 0.4720234375000001 0.02025 0.047875 -1.64 -0.997606381319 -0.0691484486541
0 0.4701484375 0.49227343749999997 0.020749999999999998 0.045875 -1.61 -0.999231634421 -0.039193631773
3 0.5317734375 0.6236484375 0.005875 0.006875000000000001 -1.3 -0.963558185417 0.267498828625
