0 0.8973984375 0.4116484375 0.02025 0.040749999999999995 3.13 0.0115923939362 -0.999932805944
0 0.8690234375 0.41939843750000005 0.020749999999999998 0.046625 -3.08 -0.0615537174299 -0.998103772095
0 0.8375234375 0.4131484375000001 0.019625 0.054625 3.12 0.0215909757261 -0.999766887713
0 0.7808984375 0.41402343750000004 0.020999999999999998 0.0485 -3.06 -0.0815021517603 -0.996673165716
0 0.9608984375 0.5332734375 0.018625 0.042249999999999996 1.57 0.999999682932 0.000796326710733
0 0.8962734375 0.5772734374999999 0.02 0.04925 -0.05 -0.0499791692707 0.998750260395
0 0.8655234375 0.5746484374999999 0.021875 0.041999999999999996 -0.05 -0.0499791692707 0.998750260395
0 0.8301484375 0.5723984375 0.019 0.041625 -0.02 -0.0199986666933 0.999800006667
0 0.7977734375 0.5745234375 0.01975 0.035125 0.07 0.0699428473375 0.997551000253
0 0.7665234375000001 0.5726484375 0.020999999999999998 0.049625 -3.08 -0.0615537174299 -0.998103772095
0 0.7297734375 0.5710234375 0.020624999999999998 0.05325 0.06 0.0599640064794 0.998200539935
