3 0.7202734375 0.5308984375 0.006625000000000001 0.008 -0.43 -0.416870802429 0.908965749675
3 0.8503984375 0.43477343749999997 0.00825 0.008375 0.14 0.139543114644 0.990215996213
3 0.9021484375 0.5266484375 0.008749999999999999 0.009125 -1.14 -0.908633496116 0.417594503958
3 0.8891484375 0.5275234375 0.007124999999999999 0.012 -1.27 -0.955100855585 0.296280872925
3 0.9000234375 0.5183984374999999 0.00825 0.012125 -0.9 -0.783326909627 0.621609968271
3 0.9080234375 0.5155234375 0.0075 0.014374999999999999 -1.1 -0.891207360061 0.453596121426
3 0.8055234375 0.48827343749999996 0.00825 0.0125 -1.27 -0.955100855585 0.296280872925
3 0.8027734375 0.49714843750000004 0.00775 0.0125 -1.35 -0.975723357827 0.219006687093
3 0.7808984375 0.48414843750000003 0.009375 0.012 -1.24 -0.94578399945 0.324796284439
3 0.7896484375 0.4753984375 0.010249999999999999 0.011125 -1.32 -0.968715100118 0.248175451652
3 0.7560234375 0.4913984375 0.00575 0.013375000000000001 -1.17 -0.920750597736 0.390151684308
3 0.7917734375000001 0.4518984374999999 0.0072499999999999995 0.0115 -1.21 -0.935616001553 0.353019401219
3 0.7842734375 0.45802343749999996 0.006500000000000001 0.010875 -1.16 -0.916803108772 0.399339529406
3 0.7807734375 0.46427343749999994 0.006875000000000001 0.011875 -1.15 -0.912763940261 0.408487440884
1 0.9495234375 0.4593984375 0.024875 0.064875 1.93 0.936177052316 -0.351528841941
