0 0.8253984375000001 0.4457734375 0.019625 0.044125 -1.49 -0.996737752043 0.0807084484548
3 0.7575234375 0.5472734375 0.008624999999999999 0.010374999999999999 -1.47 -0.994924349778 0.100625733387
0 0.5057734375 0.45039843749999997 0.0215 0.05275 -2.49 -0.606453523378 -0.795118937004
0 0.6910234375 0.40677343749999995 0.021374999999999998 0.05175 -0.95 -0.813415504789 0.581683089464
0 0.4611484375 0.5362734375 0.023375 0.059250000000000004 -2.73 -0.400069477592 -0.916484813349
0 0.6042734375000001 0.26289843749999997 0.021124999999999998 0.052875000000000005 -0.0 -0.0 1.0
