0 0.8242734375 0.5043984375 0.020624999999999998 0.046125 1.56 0.99994172023 0.0107961170583
1 0.9381484375 0.5548984375 0.02275 0.057999999999999996 0.81 0.72428717437 0.689498432952
0 0.8466484375000001 0.5543984375 0.020374999999999997 0.052000000000000005 0.78 0.7032794192 0.710913538012
0 0.6266484375 0.5620234375 0.0215 0.0485 0.76 0.688921445111 0.724836010741
0 0.4883984375 0.5616484374999999 0.018625 0.04325 0.77 0.696135238627 0.717910669611
0 0.4088984375 0.5591484375 0.020125 0.045625 0.75 0.681638760023 0.731688868874
0 0.8625234374999999 0.36527343749999996 0.020999999999999998 0.056125 -1.6 -0.999573603042 -0.0291995223013
0 0.7807734375 0.3656484375 0.01975 0.052500000000000005 -1.58 -0.999957646499 -0.00920354326881
0 0.6966484374999999 0.36927343749999997 0.019625 0.050124999999999996 -1.59 -0.999815615134 -0.0192024929017
0 0.4920234375 0.3746484375 0.020624999999999998 0.057874999999999996 -1.62 -0.998789743471 -0.0491838219142
0 0.41577343749999995 0.37577343750000003 0.019875 0.049125 -1.59 -0.999815615134 -0.0192024929017
0 0.2800234374999999 0.3857734374999999 0.02025 0.052375000000000005 -1.72 -0.988889766005 -0.148650700271
0 0.12652343750000006 0.41439843750000005 0.020874999999999998 0.056625 -1.87 -0.955571516853 -0.294759352997
0 0.5100234374999999 0.3178984375 0.0185 0.040125 -1.74 -0.985719178836 -0.168397447949
0 0.7626484375 0.3155234375 0.016125 0.036875000000000005 -1.56 -0.99994172023 0.0107961170583
