0 0.4088984375 0.4640234375000001 0.0195 0.04525 1.65 0.996865028454 -0.0791208888067
0 0.6222734375 0.46027343749999994 0.020499999999999997 0.054000000000000006 1.2 0.932039085967 0.362357754477
0 0.7578984375 0.32239843749999997 0.02025 0.0485 0.37 0.361615431965 0.932327345606
0 0.5151484375 0.3407734375 0.020874999999999998 0.053625 -1.73 -0.987353839701 -0.158532000644
