0 0.7078984375 0.49627343749999997 0.021124999999999998 0.042249999999999996 1.56 0.99994172023 0.0107961170583
0 0.9118984375 0.4262734375 0.020374999999999997 0.047875 2.83 0.306574986384 -0.95184650954
0 0.7697734375 0.4245234375 0.020125 0.0495 2.53 0.574172148355 -0.818734599277
0 0.7326484375 0.4292734375 0.019625 0.046625 2.49 0.606453523378 -0.795118937004
0 0.6636484375 0.46689843750000004 0.02175 0.04575 1.57 0.999999682932 0.000796326710733
1 0.8112734375 0.5350234375 0.025374999999999998 0.068625 1.6 0.999573603042 -0.0291995223013
0 0.7160234375 0.5328984375 0.0215 0.049375 1.59 0.999815615134 -0.0192024929017
0 0.35527343749999996 0.5271484375 0.019375 0.045 1.61 0.999231634421 -0.039193631773
0 0.7741484375000001 0.38089843749999996 0.019875 0.042625 -1.55 -0.999783764189 0.0207948278031
1 0.7141484375 0.3817734374999999 0.0245 0.057874999999999996 -1.57 -0.999999682932 0.000796326710733
0 0.5856484375 0.49752343750000005 0.020874999999999998 0.045125 1.59 0.999815615134 -0.0192024929017
0 0.6885234375 0.3127734375 0.017875 0.040625 -1.53 -0.999167945271 0.0407850112416
5 0.6901484375 0.27614843750000007 0.0075 0.019875 -1.55 -0.999783764189 0.0207948278031
