0 0.7505234375000001 0.5205234375 0.0195 0.03275 1.54 0.999525830605 0.0307914590825
0 0.9043984375 0.4518984374999999 0.02025 0.050749999999999997 -1.59 -0.999815615134 -0.0192024929017
0 0.7166484375 0.4531484375 0.019125 0.0485 -1.7 -0.991664810452 -0.128844494296
