0 0.7913984375 0.35889843749999994 0.01975 0.048 -1.69 -0.992903651094 -0.118921569297
0 0.9248984375 0.5415234375 0.020374999999999997 0.044625 1.57 0.999999682932 0.000796326710733
0 0.8511484375 0.5412734375 0.019875 0.0455 1.52 0.998710143976 0.0507744849336
0 0.7830234375 0.5418984375 0.02175 0.051125 1.53 0.999167945271 0.0407850112416
0 0.7020234375000001 0.5453984375 0.021374999999999998 0.050624999999999996 1.52 0.998710143976 0.0507744849336
0 0.6420234375 0.5405234375 0.01975 0.040999999999999995 1.55 0.999783764189 0.0207948278031
0 0.29039843749999994 0.4575234375 0.01925 0.05625 -1.61 -0.999231634421 -0.039193631773
