0 0.8656484375 0.39152343749999996 0.019875 0.04925 -3.07 -0.0715315111408 -0.997438340407
0 0.8350234375000001 0.39277343750000004 0.022125 0.043875 3.13 0.0115923939362 -0.999932805944
0 0.7993984375000001 0.3958984375 0.020749999999999998 0.04825 -3.12 -0.0215909757261 -0.999766887713
0 0.7416484375 0.3942734375 0.021374999999999998 0.04875 -2.58 -0.532534907556 -0.846408041216
0 0.6430234375 0.39077343750000004 0.019625 0.030375000000000003 -2.68 -0.445374644542 -0.895344305839
0 0.6077734375 0.3972734375 0.02175 0.047125 -2.79 -0.344393467258 -0.938825404274
