0 0.9547734375 0.46864843749999996 0.02025 0.047875 -1.56 -0.99994172023 0.0107961170583
0 0.7408984375000001 0.4800234375 0.020749999999999998 0.045875 -1.66 -0.996023989917 -0.0890854169365
3 0.6747734375 0.6303984375 0.005875 0.006875000000000001 -1.43 -0.990104560337 0.140331605847
