0 0.9078984375 0.5001484375 0.020374999999999997 0.041499999999999995 1.57 0.999999682932 0.000796326710733
0 0.6502734375 0.6921484375 0.021625 0.05325 3.11 0.0315873984365 -0.999500993626
0 0.7635234375 0.6073984375 0.021124999999999998 0.042749999999999996 -0.11 -0.109778300837 0.993956097957
0 0.5563984375 0.6192734375 0.0215 0.049375 2.88 0.258619349661 -0.965979312398
0 0.7437734375 0.4078984375 0.021249999999999998 0.051625 -0.12 -0.119712207289 0.992808635854
