0 0.9086484375 0.4687734375 0.02025 0.047875 -1.57 -0.999999682932 0.000796326710733
0 0.6958984375 0.4837734375 0.020749999999999998 0.045875 -1.67 -0.99508334981 -0.0990410365987
3 0.6520234375 0.6313984375 0.005875 0.006875000000000001 -1.41 -0.987100101014 0.160104311555
