0 0.9562734375 0.5320234375 0.019875 0.052375000000000005 -1.55 -0.999783764189 0.0207948278031
0 0.9482734375 0.4567734375 0.020499999999999997 0.045375 -1.55 -0.999783764189 0.0207948278031
0 0.8823984375 0.5307734375 0.01975 0.04575 1.58 0.999957646499 -0.00920354326881
0 0.8242734375 0.5292734375 0.02 0.04725 -1.55 -0.999783764189 0.0207948278031
0 0.6832734375 0.5361484375 0.020624999999999998 0.05125 -2.56 -0.549355436427 -0.835588777131
