0 0.9267734375 0.5333984375 0.02 0.04825 1.56 0.99994172023 0.0107961170583
0 0.8603984375 0.5343984374999999 0.021124999999999998 0.05550000000000001 1.55 0.999783764189 0.0207948278031
0 0.7906484375 0.5370234375 0.02025 0.04725 1.53 0.999167945271 0.0407850112416
3 0.6161484375 0.5401484375 0.0052499999999999995 0.013000000000000001 -0.65 -0.605186405736 0.796083798549
3 0.6086484375 0.5452734375 0.00625 0.01125 -0.84 -0.744643119971 0.667462825841
0 0.4603984375 0.4481484375 0.019625 0.047875 -1.58 -0.999957646499 -0.00920354326881
3 0.3962734374999999 0.5113984375 0.006625000000000001 0.011875 0.05 0.0499791692707 0.998750260395
0 0.7443984375 0.43727343750000003 0.01825 0.04625 -1.61 -0.999231634421 -0.039193631773
0 0.9010234375 0.4361484375 0.02 0.053000000000000005 -1.57 -0.999999682932 0.000796326710733
0 0.8338984375 0.4352734375 0.020125 0.046625 -1.59 -0.999815615134 -0.0192024929017
3 0.5608984374999999 0.4098984375 0.007124999999999999 0.005124999999999999 -1.57 -0.999999682932 0.000796326710733
