0 0.4515234374999999 0.23564843749999997 0.017125 0.049625 -1.61 -0.999231634421 -0.039193631773
0 0.3543984375 0.23027343749999996 0.02175 0.047 1.57 0.999999682932 0.000796326710733
0 0.26577343749999993 0.22889843750000005 0.017374999999999998 0.044375 1.57 0.999999682932 0.000796326710733
0 0.6982734375 0.49889843750000007 0.020374999999999997 0.05625 1.59 0.999815615134 -0.0192024929017
5 0.3168984375 0.6200234375 0.00425 0.01975 1.66 0.996023989917 -0.0890854169365
