3 0.7157734375 0.5311484375 0.006625000000000001 0.008 2.65 0.47203054129 -0.881582195878
3 0.8503984375 0.43139843750000006 0.00825 0.008375 -0.59 -0.556361022913 0.8309406791
3 0.9267734375 0.5211484375000001 0.00825 0.0125 -1.38 -0.981853530372 0.189640831298
3 0.9241484375 0.5313984375 0.00775 0.0125 -1.43 -0.990104560337 0.140331605847
3 0.8771484375 0.5163984375 0.009375 0.012 -1.29 -0.960835064206 0.277120875057
3 0.8718984375000001 0.5093984375 0.010249999999999999 0.011125 -0.87 -0.764328937026 0.64482654724
3 0.8735234375 0.5310234375 0.007124999999999999 0.012 -1.12 -0.900100442177 0.435682446277
3 0.8733984375 0.5412734375 0.00575 0.013375000000000001 -1.17 -0.920750597736 0.390151684308
3 0.7762734375 0.6371484375 0.006500000000000001 0.013500000000000002 3.0 0.14112000806 -0.9899924966
3 0.8722734375000001 0.48227343749999996 0.0072499999999999995 0.0115 -1.26 -0.952090341591 0.305816908378
3 0.8651484375 0.4856484375 0.006500000000000001 0.010875 -1.0 -0.841470984808 0.540302305868
3 0.8611484375 0.4911484374999999 0.006875000000000001 0.011875 -1.35 -0.975723357827 0.219006687093
3 0.8577734375 0.5002734375 0.007000000000000001 0.009625 -1.4 -0.985449729988 0.1699671429
3 0.8487734375 0.5023984375 0.008 0.011125 -1.34 -0.973484541695 0.228752807808
3 0.8033984375000001 0.46427343749999994 0.007625 0.011 -1.24 -0.94578399945 0.324796284439
3 0.7992734375 0.48514843750000003 0.008 0.011125 -1.34 -0.973484541695 0.228752807808
3 0.7970234375 0.4940234375 0.008375 0.012375 -1.32 -0.968715100118 0.248175451652
3 0.7952734375 0.5086484375 0.0072499999999999995 0.012 -1.28 -0.958015860289 0.286715209632
1 0.9495234375 0.4593984375 0.024875 0.064875 1.93 0.936177052316 -0.351528841941
