3 0.7196484375000001 0.5233984375 0.006625000000000001 0.008 0.16 0.159318206614 0.987227283376
3 0.8505234375 0.43602343750000006 0.00825 0.008375 1.95 0.928959715004 -0.370180831351
3 0.9517734375 0.5292734375 0.006625000000000001 0.0085 -1.13 -0.904412189379 0.42665980793
3 0.9486484375 0.5378984375 0.0085 0.0125 -1.1 -0.891207360061 0.453596121426
3 0.7577734375 0.49689843749999996 0.007375 0.01125 1.91 0.94301993129 -0.332736245681
3 0.8698984375000001 0.5120234375 0.008749999999999999 0.009125 -1.21 -0.935616001553 0.353019401219
3 0.8553984375 0.5113984375 0.007124999999999999 0.012 -1.21 -0.935616001553 0.353019401219
3 0.8703984375 0.5032734375000001 0.00825 0.012125 -0.96 -0.819191568301 0.573519986072
3 0.8757734375 0.4986484375 0.0075 0.014374999999999999 -1.1 -0.891207360061 0.453596121426
3 0.7692734375 0.4777734375 0.00825 0.0125 -1.29 -0.960835064206 0.277120875057
3 0.7668984375 0.4850234375 0.00775 0.0125 -1.35 -0.975723357827 0.219006687093
3 0.7508984375000001 0.4710234375 0.009375 0.012 -1.18 -0.924606012408 0.380924824367
3 0.7646484375 0.4641484375 0.010249999999999999 0.011125 -1.3 -0.963558185417 0.267498828625
3 0.7652734375 0.4375234375 0.0072499999999999995 0.0115 -1.1 -0.891207360061 0.453596121426
3 0.7602734375 0.4461484375 0.006500000000000001 0.010875 -1.16 -0.916803108772 0.399339529406
3 0.7578984375 0.45502343749999996 0.006875000000000001 0.011875 -1.15 -0.912763940261 0.408487440884
1 0.9495234375 0.4593984375 0.024875 0.064875 1.93 0.936177052316 -0.351528841941
