0 0.3297734374999999 0.46864843749999996 0.0195 0.04525 1.51 0.998152472498 0.0607588812194
0 0.4856484375 0.4793984375 0.020499999999999997 0.054000000000000006 1.49 0.996737752043 0.0807084484548
0 0.7000234375000001 0.4162734375 0.02025 0.0485 0.71 0.651833771022 0.758361875991
0 0.7596484375 0.3228984374999999 0.021249999999999998 0.05625 0.42 0.40776045306 0.913088940312
0 0.5151484375 0.3407734375 0.020874999999999998 0.053625 -1.73 -0.987353839701 -0.158532000644
