0 0.8117734375 0.5677734375 0.02175 0.058875 -3.07 -0.0715315111408 -0.997438340407
0 0.6346484375 0.7723984375 0.020499999999999997 0.052125 0.06 0.0599640064794 0.998200539935
0 0.6051484375 0.7740234375 0.02 0.05525 0.04 0.0399893341866 0.999200106661
0 0.5745234375 0.7757734375 0.022125 0.057999999999999996 -0.0 -0.0 1.0
0 0.6928984375 0.4318984375 0.022 0.05225 -1.47 -0.994924349778 0.100625733387
0 0.6151484375 0.4601484375 0.0235 0.055625 -1.56 -0.99994172023 0.0107961170583
0 0.5810234375 0.6215234375 0.02225 0.059 -0.0 -0.0 1.0
0 0.46164843749999995 0.7367734375 0.020624999999999998 0.044375 1.59 0.999815615134 -0.0192024929017
1 0.45402343749999996 0.8200234375 0.021875 0.05387499999999999 1.45 0.992712991038 0.120502769367
0 0.45602343749999996 0.7675234375 0.021249999999999998 0.048875 1.6 0.999573603042 -0.0291995223013
0 0.6141484375 0.42902343749999994 0.021374999999999998 0.05625 -1.55 -0.999783764189 0.0207948278031
0 0.46589843749999993 0.5361484375 0.021374999999999998 0.05550000000000001 -1.5 -0.997494986604 0.0707372016677
