0 0.7988984375 0.4515234375 0.02 0.051375000000000004 -1.59 -0.999815615134 -0.0192024929017
0 0.5366484375 0.4535234375 0.019375 0.047375 -1.56 -0.99994172023 0.0107961170583
0 0.6242734375 0.4993984375 0.020374999999999997 0.05625 1.57 0.999999682932 0.000796326710733
