1 0.7811484375 0.5355234375 0.02275 0.055125 1.56 0.99994172023 0.0107961170583
0 0.4755234374999999 0.4657734375 0.020624999999999998 0.048875 1.54 0.999525830605 0.0307914590825
7 0.14077343750000004 0.5453984375 0.026625 0.0725 1.55 0.999783764189 0.0207948278031
