0 0.9282734375 0.4655234375 0.020499999999999997 0.051000000000000004 -1.69 -0.992903651094 -0.118921569297
0 0.9907734375 0.5292734375 0.019625 0.04475 1.55 0.999783764189 0.0207948278031
0 0.9348984375 0.5346484375 0.020874999999999998 0.042875 1.55 0.999783764189 0.0207948278031
0 0.8287734375 0.6735234375 0.02425 0.046 1.86 0.958471283079 -0.285189059245
1 0.8277734375 0.6377734375 0.0215 0.047375 1.84 0.963982996152 -0.265963875609
1 0.8228984375 0.6031484375 0.021875 0.051375000000000004 1.75 0.983985946874 -0.178246055649
0 0.8160234375 0.45427343750000004 0.020125 0.044625 -1.56 -0.99994172023 0.0107961170583
0 0.7516484375 0.4567734375 0.02 0.052125 -1.64 -0.997606381319 -0.0691484486541
0 0.7018984375 0.6447734375 0.02025 0.0445 -2.49 -0.606453523378 -0.795118937004
0 0.6848984375 0.6195234375 0.01975 0.040999999999999995 -2.5 -0.598472144104 -0.801143615547
0 0.6518984375 0.6140234375 0.018375 0.037125000000000005 -2.53 -0.574172148355 -0.818734599277
0 0.6113984375 0.6188984375 0.017875 0.043625000000000004 -2.61 -0.506906852248 -0.86200083709
0 0.6703984375 0.5420234374999999 0.020999999999999998 0.049125 1.56 0.99994172023 0.0107961170583
0 0.6120234375 0.46302343749999997 0.01925 0.04975 -1.69 -0.992903651094 -0.118921569297
1 0.5396484375 0.46689843750000004 0.022375 0.05487499999999999 -1.64 -0.997606381319 -0.0691484486541
0 0.4315234374999999 0.6141484375 0.020874999999999998 0.04625 3.08 0.0615537174299 -0.998103772095
2 0.27077343749999994 0.5415234375 0.036125000000000004 0.135125 1.44 0.991458348192 0.130423708738
