3 0.9323984375 0.5606484375 0.008749999999999999 0.016875 1.57 0.999999682932 0.000796326710733
0 0.8417734375 0.4487734375000001 0.021625 0.055125 -1.66 -0.996023989917 -0.0890854169365
0 0.8195234375 0.5485234375 0.023 0.05125 1.42 0.988651762852 0.150225469912
0 0.6925234375 0.5715234375 0.020749999999999998 0.050249999999999996 1.38 0.981853530372 0.189640831298
0 0.3385234374999999 0.5585234375 0.022125 0.055125 -1.94 -0.932615014022 -0.36087288014
0 0.2430234375 0.5943984375 0.020624999999999998 0.05500000000000001 -1.91 -0.94301993129 -0.332736245681
