0 0.5756484374999999 0.48264843749999997 0.022 0.048 1.62 0.998789743471 -0.0491838219142
0 0.9596484375 0.4587734375 0.020999999999999998 0.049375 1.61 0.999231634421 -0.039193631773
0 0.8633984375 0.44939843749999997 0.01875 0.042499999999999996 1.58 0.999957646499 -0.00920354326881
0 0.8617734375 0.3988984375 0.02025 0.051000000000000004 1.59 0.999815615134 -0.0192024929017
0 0.8117734375 0.33664843749999995 0.01875 0.0505 1.59 0.999815615134 -0.0192024929017
0 0.7790234375 0.3892734375 0.01925 0.044875 1.59 0.999815615134 -0.0192024929017
1 0.6756484375 0.3970234375 0.023875 0.081625 1.63 0.998247974378 -0.0591690937141
0 0.7028984375 0.33827343750000005 0.0225 0.046625 1.61 0.999231634421 -0.039193631773
0 0.5802734375 0.3882734375 0.020499999999999997 0.04775 1.6 0.999573603042 -0.0291995223013
7 0.4683984375 0.43377343749999997 0.025374999999999998 0.064125 1.59 0.999815615134 -0.0192024929017
7 0.6531484375000001 0.44239843749999996 0.027750000000000004 0.06899999999999999 1.61 0.999231634421 -0.039193631773
2 0.14377343749999993 0.4185234375 0.03125 0.20550000000000002 1.63 0.998247974378 -0.0591690937141
0 0.6011484375 0.3373984375 0.018875 0.042749999999999996 1.58 0.999957646499 -0.00920354326881
