0 0.8677734375 0.45164843750000006 0.02 0.051375000000000004 -1.59 -0.999815615134 -0.0192024929017
0 0.6050234375 0.45389843750000003 0.019375 0.047375 -1.56 -0.99994172023 0.0107961170583
0 0.30277343749999996 0.4535234375 0.02025 0.040125 -1.58 -0.999957646499 -0.00920354326881
0 0.6215234375 0.49927343750000003 0.020374999999999997 0.05625 1.58 0.999957646499 -0.00920354326881
