0 0.8913984375 0.4531484375 0.020499999999999997 0.052625 -1.5 -0.997494986604 0.0707372016677
0 0.7593984375 0.5266484375 0.01975 0.048625 -1.51 -0.998152472498 0.0607588812194
0 0.6776484375 0.4505234375 0.020874999999999998 0.055374999999999994 -1.56 -0.99994172023 0.0107961170583
0 0.6743984375000001 0.5236484375 0.019875 0.04525 1.66 0.996023989917 -0.0890854169365
