0 0.7183984375 0.5241484375 0.019125 0.042249999999999996 1.79 0.976070921983 -0.217452420681
0 0.5351484375 0.4837734375 0.01925 0.042749999999999996 1.9 0.946300087687 -0.323289566864
0 0.8122734375 0.5807734375 0.01925 0.04425 2.95 0.190422647361 -0.981702202998
0 0.8217734375 0.6411484375 0.021249999999999998 0.0465 2.98 0.160890314967 -0.986972292696
0 0.38714843749999994 0.5186484375 0.020874999999999998 0.04725 0.79 0.710353272418 0.703845315652
0 0.3081484375 0.6016484375 0.016 0.0395 0.79 0.710353272418 0.703845315652
