0 0.8721484374999999 0.5552734375 0.0195 0.051500000000000004 1.41 0.987100101014 0.160104311555
1 0.7111484375 0.5853984375 0.02475 0.066625 1.2 0.932039085967 0.362357754477
7 0.9438984375 0.5456484374999999 0.006875000000000001 0.021875 0.95 0.813415504789 0.581683089464
4 0.7320234375 0.5836484375 0.007124999999999999 0.007124999999999999 2.78 0.353764345301 -0.935334586121
