0 0.9537734375 0.4593984375 0.02225 0.046125 1.57 0.999999682932 0.000796326710733
5 0.7652734375 0.6305234375 0.00975 0.021374999999999998 1.08 0.881957806885 0.471328364174
3 0.8405234375 0.6231484375 0.006875000000000001 0.011625 0.14 0.139543114644 0.990215996213
3 0.8491484375 0.6247734375 0.006 0.012 0.12 0.119712207289 0.992808635854
0 0.7048984375 0.5391484375 0.021875 0.052875000000000005 -0.41 -0.398609327984 0.917120822817
