0 0.6952734375 0.4930234375 0.020749999999999998 0.04 1.58 0.999957646499 -0.00920354326881
0 0.7312734375000001 0.42102343749999993 0.020125 0.04325 -1.56 -0.99994172023 0.0107961170583
0 0.3527734375 0.42302343750000004 0.020874999999999998 0.05475 -1.57 -0.999999682932 0.000796326710733
0 0.6715234375 0.7352734375 0.01875 0.052625 1.57 0.999999682932 0.000796326710733
1 0.7447734375 0.7375234374999999 0.023375 0.06225000000000001 1.53 0.999167945271 0.0407850112416
