0 0.8816484375 0.44264843750000005 0.022 0.05225 -1.51 -0.998152472498 0.0607588812194
0 0.7797734375 0.6363984375 0.02225 0.059 -0.04 -0.0399893341866 0.999200106661
0 0.6670234375 0.7581484375 0.020624999999999998 0.044375 1.57 0.999999682932 0.000796326710733
0 0.7311484375 0.44502343749999995 0.020874999999999998 0.0475 -1.59 -0.999815615134 -0.0192024929017
0 0.8032734375 0.44339843749999996 0.021374999999999998 0.05625 -1.58 -0.999957646499 -0.00920354326881
0 0.6597734375 0.5570234375 0.021374999999999998 0.05550000000000001 -1.58 -0.999957646499 -0.00920354326881
0 0.6532734375 0.4465234375 0.020374999999999997 0.044875 -1.6 -0.999573603042 -0.0291995223013
0 0.5731484375 0.45027343750000004 0.01825 0.045375 -1.58 -0.999957646499 -0.00920354326881
0 0.5176484374999999 0.5258984375 0.021374999999999998 0.046875 1.4 0.985449729988 0.1699671429
0 0.6092734375 0.5731484375 0.019625 0.05325 -0.06 -0.0599640064794 0.998200539935
0 0.41414843749999997 0.5657734375000001 0.02 0.038875 0.86 0.757842562895 0.652437468164
0 0.042773437499999956 0.5743984375 0.020624999999999998 0.055625 0.48 0.461779175541 0.886994922779
0 0.03764843750000002 0.43402343749999994 0.02 0.056125 0.37 0.361615431965 0.932327345606
