0 0.7537734375 0.4523984375000001 0.020874999999999998 0.056125 -1.56 -0.99994172023 0.0107961170583
0 0.4890234375 0.2470234375 0.0215 0.038625 1.57 0.999999682932 0.000796326710733
0 0.5082734375 0.44764843750000005 0.019875 0.051500000000000004 -1.58 -0.999957646499 -0.00920354326881
0 0.2632734374999999 0.24627343749999997 0.019625 0.041499999999999995 1.53 0.999167945271 0.0407850112416
0 0.19964843749999994 0.2500234375 0.015 0.0655 -1.59 -0.999815615134 -0.0192024929017
0 0.2716484374999999 0.44664843750000005 0.020749999999999998 0.054000000000000006 -1.56 -0.99994172023 0.0107961170583
0 0.5697734375 0.4960234375 0.020374999999999997 0.05625 1.56 0.99994172023 0.0107961170583
