0 0.6908984375 0.4543984375 0.019 0.0445 -1.58 -0.999957646499 -0.00920354326881
0 0.9346484375 0.4553984375 0.019875 0.041875 -1.55 -0.999783764189 0.0207948278031
0 0.7780234375 0.38277343750000004 0.01925 0.05437499999999999 -2.67 -0.45430566983 -0.890845866781
0 0.40614843749999996 0.3978984375 0.017625 0.05275 -2.73 -0.400069477592 -0.916484813349
