0 0.6272734375 0.48889843749999995 0.020874999999999998 0.0455 1.6 0.999573603042 -0.0291995223013
0 0.8778984375 0.3942734375 0.020999999999999998 0.055625 -1.55 -0.999783764189 0.0207948278031
0 0.7478984375 0.39677343750000005 0.02025 0.047125 -1.56 -0.99994172023 0.0107961170583
