0 0.7353984375 0.49977343750000003 0.022 0.048 1.56 0.99994172023 0.0107961170583
1 0.9143984375 0.4451484375 0.02525 0.077125 1.57 0.999999682932 0.000796326710733
0 0.8107734375 0.3948984375 0.021249999999999998 0.049625 1.58 0.999957646499 -0.00920354326881
0 0.7282734375 0.3952734375 0.020749999999999998 0.042125 1.58 0.999957646499 -0.00920354326881
0 0.7707734375 0.44939843749999997 0.020874999999999998 0.049 1.57 0.999999682932 0.000796326710733
0 0.6183984375 0.3898984375 0.020125 0.050624999999999996 1.59 0.999815615134 -0.0192024929017
0 0.6225234374999999 0.4403984375000001 0.021124999999999998 0.045375 1.57 0.999999682932 0.000796326710733
0 0.48527343749999996 0.4328984375 0.01975 0.043625000000000004 1.58 0.999957646499 -0.00920354326881
0 0.3743984374999999 0.43539843749999996 0.020499999999999997 0.054125 1.58 0.999957646499 -0.00920354326881
7 0.21289843750000004 0.42939843749999995 0.032125 0.146 1.58 0.999957646499 -0.00920354326881
