5 0.8918984375 0.5747734375 0.006500000000000001 0.021875 1.45 0.992712991038 0.120502769367
3 0.8722734375000001 0.5983984375 0.008624999999999999 0.0085 1.7 0.991664810452 -0.128844494296
3 0.8735234375 0.6063984375 0.006 0.010875 1.52 0.998710143976 0.0507744849336
7 0.8650234375 0.6068984375 0.00625 0.009625 1.51 0.998152472498 0.0607588812194
5 0.6777734375 0.5912734375 0.0055 0.0195 1.48 0.995880844538 0.0906716244643
