0 0.9540234375 0.5432734375 0.020624999999999998 0.047125 1.55 0.999783764189 0.0207948278031
0 0.8436484375 0.46952343750000003 0.020374999999999997 0.052500000000000005 -1.59 -0.999815615134 -0.0192024929017
4 0.9528984375 0.5315234375 0.009375 0.010374999999999999 -1.85 -0.961275202975 -0.275590246825
0 0.7962734375 0.5478984375 0.020125 0.05325 1.58 0.999957646499 -0.00920354326881
0 0.8705234374999999 0.5495234375 0.018 0.056625 -1.6 -0.999573603042 -0.0291995223013
0 0.5727734375 0.4770234375 0.019375 0.049 -1.57 -0.999999682932 0.000796326710733
0 0.7741484375000001 0.4703984375 0.019375 0.046375 -1.58 -0.999957646499 -0.00920354326881
0 0.7343984375 0.5540234374999999 0.019125 0.042125 1.56 0.99994172023 0.0107961170583
0 0.6507734375 0.5566484375 0.0195 0.0395 1.61 0.999231634421 -0.039193631773
0 0.5901484375 0.5551484375 0.0195 0.04525 1.59 0.999815615134 -0.0192024929017
