0 0.9715234375 0.5353984374999999 0.019625 0.04725 1.57 0.999999682932 0.000796326710733
0 0.8953984375 0.4437734375 0.020624999999999998 0.04625 -1.56 -0.99994172023 0.0107961170583
0 0.8643984375 0.5362734375 0.020749999999999998 0.047375 1.57 0.999999682932 0.000796326710733
0 0.8265234375 0.4451484375 0.020374999999999997 0.04925 -1.56 -0.99994172023 0.0107961170583
0 0.7880234375 0.5371484375 0.020499999999999997 0.051875000000000004 1.63 0.998247974378 -0.0591690937141
1 0.6868984375 0.5355234375 0.03075 0.073125 1.57 0.999999682932 0.000796326710733
0 0.5993984375 0.5348984375 0.019875 0.054125 1.57 0.999999682932 0.000796326710733
0 0.5866484375 0.5323984375 0.019625 0.048375 -1.53 -0.999167945271 0.0407850112416
