0 0.5860234375 0.24052343750000005 0.01875 0.043875 1.57 0.999999682932 0.000796326710733
0 0.2001484375 0.22952343749999993 0.02275 0.037875 -1.59 -0.999815615134 -0.0192024929017
0 0.5913984374999999 0.49027343749999996 0.020374999999999997 0.05625 1.59 0.999815615134 -0.0192024929017
