0 0.8781484375 0.5321484375 0.0195 0.03275 1.47 0.994924349778 0.100625733387
0 0.8830234375 0.46464843749999996 0.019125 0.0485 -1.7 -0.991664810452 -0.128844494296
0 0.3313984375 0.5376484375 0.021249999999999998 0.047125 -1.83 -0.966594391833 -0.256310908228
