0 0.8771484375 0.46627343750000005 0.019375 0.0455 -1.62 -0.998789743471 -0.0491838219142
0 0.8082734375 0.47252343750000003 0.020749999999999998 0.05275 -1.59 -0.999815615134 -0.0192024929017
0 0.7331484375 0.4817734375 0.021124999999999998 0.053500000000000006 -1.64 -0.997606381319 -0.0691484486541
