0 0.6728984375 0.4870234375 0.022 0.048 1.61 0.999231634421 -0.039193631773
0 0.9665234375 0.45927343750000005 0.021249999999999998 0.04875 1.58 0.999957646499 -0.00920354326881
0 0.7987734375 0.40077343750000005 0.02025 0.049375 1.57 0.999999682932 0.000796326710733
0 0.7706484375 0.45702343749999996 0.0215 0.053000000000000005 1.58 0.999957646499 -0.00920354326881
0 0.6526484375 0.3946484375 0.020125 0.0465 1.59 0.999815615134 -0.0192024929017
0 0.6020234375 0.4457734375 0.020499999999999997 0.047625 1.57 0.999999682932 0.000796326710733
0 0.4457734375 0.4442734374999999 0.020125 0.052625 1.58 0.999957646499 -0.00920354326881
1 0.03914843750000008 0.4238984375 0.026125 0.0745 1.62 0.998789743471 -0.0491838219142
0 0.5522734375 0.3395234375 0.019375 0.049875 1.58 0.999957646499 -0.00920354326881
0 0.8373984375 0.34589843750000004 0.0195 0.042375 1.61 0.999231634421 -0.039193631773
