0 0.41202343750000003 0.49152343749999994 0.020874999999999998 0.0455 1.59 0.999815615134 -0.0192024929017
0 0.8088984375 0.4633984375 0.018875 0.05625 1.57 0.999999682932 0.000796326710733
5 0.7365234375 0.5300234374999999 0.005875 0.020624999999999998 2.35 0.711473352791 -0.702713076774
3 0.7158984375 0.5275234375 0.004875 0.005 -3.03 -0.111361188687 -0.993779998619
3 0.7240234375 0.4261484375 0.00475 0.00375 0.03 0.0299955002025 0.999550033749
