0 0.4266484374999999 0.6721484375 0.022 0.05125 -3.09 -0.0515697683985 -0.998669394238
0 0.24952343749999994 0.45502343749999996 0.02225 0.046125 1.58 0.999957646499 -0.00920354326881
3 0.1678984375000001 0.5267734374999999 0.0085 0.018 3.14 0.00159265291649 -0.999998731728
