0 0.8850234375 0.6025234375 0.021875 0.055874999999999994 0.01 0.00999983333417 0.999950000417
0 0.8333984375 0.4535234375 0.01875 0.0485 -1.6 -0.999573603042 -0.0291995223013
0 0.8381484375 0.5370234375 0.019375 0.039875 1.58 0.999957646499 -0.00920354326881
1 0.7671484375 0.4515234375 0.022375 0.055874999999999994 -1.56 -0.99994172023 0.0107961170583
0 0.7772734375 0.5360234375 0.021124999999999998 0.055625 1.58 0.999957646499 -0.00920354326881
0 0.6966484374999999 0.5422734375 0.020749999999999998 0.046375 1.41 0.987100101014 0.160104311555
1 0.6628984375 0.35552343749999993 0.027625 0.084375 3.11 0.0315873984365 -0.999500993626
1 0.38677343749999993 0.5105234375000001 0.0225 0.05675 1.57 0.999999682932 0.000796326710733
1 0.45702343749999996 0.6566484375 0.026625 0.08299999999999999 0.0 0.0 1.0
