0 0.8935234375 0.4178984375 0.01925 0.05125 -0.07 -0.0699428473375 0.997551000253
0 0.8332734374999999 0.4192734375 0.019875 0.048375 3.14 0.00159265291649 -0.999998731728
0 0.8748984375 0.5322734375 0.019875 0.044875 1.62 0.998789743471 -0.0491838219142
0 0.7392734375 0.5313984375 0.02175 0.045625 1.58 0.999957646499 -0.00920354326881
0 0.8013984375000001 0.42077343750000007 0.018625 0.04375 -0.04 -0.0399893341866 0.999200106661
0 0.7372734375 0.4171484375000001 0.020374999999999997 0.05375 -3.1 -0.0415806624333 -0.999135150273
0 0.6627734375000001 0.5303984374999999 0.019375 0.048375 1.62 0.998789743471 -0.0491838219142
0 0.5505234375 0.5297734375 0.0185 0.041999999999999996 1.62 0.998789743471 -0.0491838219142
