0 0.8295234375 0.47027343750000006 0.02025 0.047875 -1.6 -0.999573603042 -0.0291995223013
0 0.6202734375 0.49027343749999996 0.020749999999999998 0.045875 -1.64 -0.997606381319 -0.0691484486541
3 0.6143984375 0.6312734375 0.005875 0.006875000000000001 -1.38 -0.981853530372 0.189640831298
