0 0.7470234375 0.41977343749999996 0.0215 0.05275 -1.9 -0.946300087687 -0.323289566864
0 0.6676484375 0.5000234375 0.023375 0.059250000000000004 -2.54 -0.565956230449 -0.824435288677
0 0.7692734375 0.5866484375 0.021124999999999998 0.052875000000000005 0.05 0.0499791692707 0.998750260395
