0 0.9525234375 0.5351484375 0.019875 0.046 1.6 0.999573603042 -0.0291995223013
0 0.8702734375000001 0.45402343749999996 0.019875 0.051500000000000004 -1.55 -0.999783764189 0.0207948278031
0 0.7680234375 0.4545234375 0.020125 0.044875 -1.5 -0.997494986604 0.0707372016677
0 0.7627734375 0.5305234375000001 0.020624999999999998 0.053500000000000006 -1.53 -0.999167945271 0.0407850112416
0 0.6547734375 0.45489843750000003 0.020499999999999997 0.049375 -1.55 -0.999783764189 0.0207948278031
0 0.6503984375 0.5312734375 0.020499999999999997 0.048 1.59 0.999815615134 -0.0192024929017
0 0.5117734374999999 0.4533984375 0.020499999999999997 0.045375 -1.53 -0.999167945271 0.0407850112416
