0 0.9505234375 0.4560234375000001 0.02025 0.047375 -1.58 -0.999957646499 -0.00920354326881
0 0.7517734375 0.4571484375 0.019125 0.04775 -1.59 -0.999815615134 -0.0192024929017
0 0.43364843749999993 0.4720234375000001 0.0195 0.045 -1.85 -0.961275202975 -0.275590246825
