0 0.8340234375 0.5782734375 0.020874999999999998 0.05525 1.37 0.979908061399 0.199449720998
0 0.7552734375 0.5218984375 0.0195 0.048 -1.78 -0.978196606808 -0.207681001609
0 0.5526484375 0.5728984374999999 0.019375 0.052625 1.4 0.985449729988 0.1699671429
0 0.5651484375 0.6362734375 0.020624999999999998 0.045875 1.3 0.963558185417 0.267498828625
