0 0.9367734375 0.45502343749999996 0.019875 0.051500000000000004 -1.56 -0.99994172023 0.0107961170583
0 0.8343984375 0.4547734375 0.020125 0.044875 -1.52 -0.998710143976 0.0507744849336
0 0.8276484375 0.5311484375 0.020624999999999998 0.053500000000000006 -1.53 -0.999167945271 0.0407850112416
0 0.7205234375 0.45502343749999996 0.020499999999999997 0.049375 -1.54 -0.999525830605 0.0307914590825
0 0.7166484375 0.5315234375 0.020499999999999997 0.048 1.58 0.999957646499 -0.00920354326881
0 0.5841484374999999 0.5297734375 0.019875 0.052375000000000005 -1.57 -0.999999682932 0.000796326710733
0 0.5778984374999999 0.4533984375 0.020499999999999997 0.045375 -1.53 -0.999167945271 0.0407850112416
