0 0.8452734375 0.4425234375 0.01975 0.041875 -1.57 -0.999999682932 0.000796326710733
0 0.7913984375 0.4417734375 0.021374999999999998 0.055125 -1.55 -0.999783764189 0.0207948278031
0 0.6840234375 0.43577343749999997 0.0215 0.055125 -1.48 -0.995880844538 0.0906716244643
0 0.5721484374999999 0.42602343749999994 0.021875 0.05375 -1.52 -0.998710143976 0.0507744849336
