0 0.8821484375 0.44002343750000006 0.020749999999999998 0.047 -1.58 -0.999957646499 -0.00920354326881
0 0.9437734375 0.5456484374999999 0.02 0.04625 1.56 0.99994172023 0.0107961170583
0 0.8122734375 0.4407734375000001 0.020999999999999998 0.047 -1.58 -0.999957646499 -0.00920354326881
0 0.8743984375 0.5457734375000001 0.020499999999999997 0.044 1.55 0.999783764189 0.0207948278031
0 0.7445234375 0.44102343749999995 0.020999999999999998 0.05425 -1.62 -0.998789743471 -0.0491838219142
0 0.8091484375 0.5441484375 0.020499999999999997 0.05175 1.57 0.999999682932 0.000796326710733
0 0.5468984375 0.4477734375 0.02 0.04 -1.61 -0.999231634421 -0.039193631773
0 0.7463984375 0.5458984375 0.020749999999999998 0.04375 1.55 0.999783764189 0.0207948278031
0 0.6775234375 0.5500234374999999 0.020125 0.043875 1.54 0.999525830605 0.0307914590825
0 0.6083984375 0.5522734375 0.020999999999999998 0.0475 1.56 0.99994172023 0.0107961170583
