2 0.8133984375000001 0.44702343750000006 0.026875 0.088125 -1.57 -0.999999682932 0.000796326710733
0 0.7867734375 0.5107734374999999 0.019125 0.039625 1.59 0.999815615134 -0.0192024929017
3 0.7855234375 0.49889843750000007 0.00625 0.0052499999999999995 2.22 0.796565472236 -0.604552271058
