0 0.8438984375 0.5493984375000001 0.022125 0.06375 1.53 0.999167945271 0.0407850112416
0 0.9008984375 0.44202343749999995 0.020374999999999997 0.049 -1.59 -0.999815615134 -0.0192024929017
0 0.5672734374999999 0.4558984374999999 0.020749999999999998 0.047 -1.64 -0.997606381319 -0.0691484486541
0 0.7668984375 0.5521484375 0.020749999999999998 0.04825 1.51 0.998152472498 0.0607588812194
0 0.6960234375000001 0.5556484375 0.019875 0.041749999999999995 1.57 0.999999682932 0.000796326710733
0 0.6312734375 0.5586484374999999 0.02 0.04625 1.51 0.998152472498 0.0607588812194
0 0.5635234375 0.5625234375 0.020499999999999997 0.044 1.52 0.998710143976 0.0507744849336
0 0.23027343749999996 0.4853984375 0.02 0.04 -1.68 -0.994043202198 -0.10898675224
