0 0.8956484375 0.40252343749999997 0.021875 0.046625 -3.08 -0.0615537174299 -0.998103772095
0 0.8551484375 0.3976484375 0.020499999999999997 0.046125 -3.07 -0.0715315111408 -0.997438340407
0 0.8165234375 0.3956484375 0.02 0.047375 0.17 0.169182349067 0.98558476691
