0 0.5736484374999999 0.5358984375 0.022 0.048 1.56 0.99994172023 0.0107961170583
0 0.35227343749999995 0.5162734375 0.0195 0.043125000000000004 1.62 0.998789743471 -0.0491838219142
0 0.07552343750000001 0.47252343750000003 0.020749999999999998 0.047 1.93 0.936177052316 -0.351528841941
