0 0.6407734375 0.5030234375 0.019375 0.048875 1.37 0.979908061399 0.199449720998
0 0.6157734375 0.44764843750000005 0.01975 0.041875 -1.65 -0.996865028454 -0.0791208888067
0 0.5613984375 0.4487734375000001 0.021374999999999998 0.055125 -1.58 -0.999957646499 -0.00920354326881
