0 0.9060234375 0.4388984375 0.022125 0.055125 -1.59 -0.999815615134 -0.0192024929017
0 0.8128984375 0.4467734375 0.020624999999999998 0.05500000000000001 -1.65 -0.996865028454 -0.0791208888067
5 0.7532734375 0.5280234375 0.008624999999999999 0.022625 1.51 0.998152472498 0.0607588812194
