0 0.9078984375 0.5477734375 0.022125 0.06375 1.55 0.999783764189 0.0207948278031
0 0.8307734375 0.5496484374999999 0.020749999999999998 0.04825 1.52 0.998710143976 0.0507744849336
0 0.7591484374999999 0.5521484375 0.019875 0.041749999999999995 1.59 0.999815615134 -0.0192024929017
0 0.6950234375 0.5542734375 0.02 0.04625 1.52 0.998710143976 0.0507744849336
