0 0.7412734375 0.5016484375 0.020749999999999998 0.04 1.54 0.999525830605 0.0307914590825
6 0.8211484375 0.5855234375 0.027125 0.18575 -1.57 -0.999999682932 0.000796326710733
6 0.6645234375 0.5878984375 0.028499999999999998 0.12662500000000002 -1.6 -0.999573603042 -0.0291995223013
6 0.5212734374999999 0.5930234375 0.028499999999999998 0.15975 -1.62 -0.998789743471 -0.0491838219142
6 0.3355234374999999 0.6065234375 0.028999999999999998 0.184125 -1.66 -0.996023989917 -0.0890854169365
3 0.7975234375 0.36052343750000004 0.0063750000000000005 0.010875 -1.62 -0.998789743471 -0.0491838219142
