0 0.6555234375 0.5151484375 0.019375 0.048875 1.23 0.942488801932 0.334237727125
0 0.7861484375 0.4451484375 0.018375 0.04375 -1.63 -0.998247974378 -0.0591690937141
0 0.6565234375 0.45264843749999994 0.01975 0.041875 -1.65 -0.996865028454 -0.0791208888067
0 0.6017734375 0.4547734375 0.021374999999999998 0.055125 -1.59 -0.999815615134 -0.0192024929017
0 0.4921484374999999 0.4541484375 0.0215 0.055125 -1.51 -0.998152472498 0.0607588812194
