0 0.9078984375 0.5001484375 0.020374999999999997 0.041499999999999995 1.57 0.999999682932 0.000796326710733
2 0.6592734375 0.5142734375 0.031125000000000003 0.092875 -2.83 -0.306574986384 -0.95184650954
0 0.6573984375 0.7962734375 0.021625 0.05325 3.06 0.0815021517603 -0.996673165716
