0 0.7568984375 0.5068984375000001 0.021124999999999998 0.042249999999999996 1.57 0.999999682932 0.000796326710733
3 0.7820234375 0.6041484375 0.007124999999999999 0.011125 -1.55 -0.999783764189 0.0207948278031
0 0.6666484375 0.7297734375 0.020874999999999998 0.054000000000000006 -3.09 -0.0515697683985 -0.998669394238
0 0.49789843749999996 0.3551484375 0.0215 0.04825 -1.58 -0.999957646499 -0.00920354326881
5 0.6135234375 0.5891484375 0.01075 0.025124999999999998 3.08 0.0615537174299 -0.998103772095
1 0.5085234375 0.5397734375 0.02325 0.055125 1.54 0.999525830605 0.0307914590825
3 0.5901484375 0.45864843750000006 0.008 0.008125 0.13 0.12963414262 0.991561893715
1 0.22839843749999988 0.35889843749999994 0.0195 0.051500000000000004 -1.56 -0.99994172023 0.0107961170583
0 0.6240234375 0.49627343749999997 0.020874999999999998 0.045125 1.58 0.999957646499 -0.00920354326881
