0 0.8422734375 0.5028984375000001 0.019125 0.0475 -2.9 -0.239249329214 -0.97095816515
0 0.8528984374999999 0.4458984375 0.017499999999999998 0.04925 -2.92 -0.219783612225 -0.975548647581
0 0.8690234375 0.3770234375 0.019375 0.041125 -2.93 -0.210017299251 -0.977697670047
5 0.9360234375 0.4711484375 0.006500000000000001 0.020749999999999998 -2.35 -0.711473352791 -0.702713076774
