0 0.08002343750000007 0.4733984375 0.02 0.0445 1.6 0.999573603042 -0.0291995223013
0 0.6240234375 0.3990234375 0.018875 0.051875000000000004 -1.6 -0.999573603042 -0.0291995223013
0 0.34627343749999995 0.3940234375 0.021374999999999998 0.04925 -1.53 -0.999167945271 0.0407850112416
