1 0.8190234375000001 0.40702343750000003 0.02275 0.057125 -1.9 -0.946300087687 -0.323289566864
0 0.8448984374999999 0.5820234375 0.01875 0.0465 1.28 0.958015860289 0.286715209632
0 0.7766484375 0.6076484375 0.020499999999999997 0.055125 1.28 0.958015860289 0.286715209632
0 0.4070234374999999 0.5382734375 0.020999999999999998 0.051375000000000004 -2.01 -0.905090563325 -0.425218852098
0 0.6301484375 0.6511484375000001 0.019625 0.044 1.16 0.916803108772 0.399339529406
