0 0.9713984375 0.5442734375 0.020499999999999997 0.055125 1.59 0.999815615134 -0.0192024929017
0 0.5062734375 0.37614843750000004 0.01975 0.048 -1.71 -0.990326804156 -0.138754534952
0 0.8206484375 0.5403984375 0.019625 0.044 1.44 0.991458348192 0.130423708738
0 0.7582734375 0.5430234375 0.020374999999999997 0.044625 1.56 0.99994172023 0.0107961170583
0 0.6847734375 0.5431484375 0.019875 0.0455 1.52 0.998710143976 0.0507744849336
0 0.6190234375 0.5442734375 0.02175 0.051125 1.53 0.999167945271 0.0407850112416
0 0.4760234375 0.5458984375 0.01975 0.040999999999999995 1.53 0.999167945271 0.0407850112416
