0 0.5400234374999999 0.4225234375 0.019125 0.052625 -3.09 -0.0515697683985 -0.998669394238
0 0.5791484375 0.5381484375000001 0.02025 0.052500000000000005 1.59 0.999815615134 -0.0192024929017
0 0.6248984375 0.47227343749999995 0.018375 0.042875 -1.61 -0.999231634421 -0.039193631773
0 0.7351484375 0.4211484375 0.020125 0.053000000000000005 -3.07 -0.0715315111408 -0.997438340407
0 0.8125234375 0.42777343749999996 0.019375 0.0465 -0.07 -0.0699428473375 0.997551000253
0 0.8471484375 0.4272734375 0.020749999999999998 0.052625 0.02 0.0199986666933 0.999800006667
0 0.8797734375 0.41577343750000006 0.01875 0.042499999999999996 3.14 0.00159265291649 -0.999998731728
0 0.9125234375 0.4238984375 0.0215 0.05125 0.01 0.00999983333417 0.999950000417
0 0.8117734375 0.5365234375 0.01975 0.050375 1.56 0.99994172023 0.0107961170583
0 0.9260234375 0.5338984375 0.020374999999999997 0.05125 1.58 0.999957646499 -0.00920354326881
