0 0.8597734375 0.4560234375000001 0.019125 0.04775 -1.57 -0.999999682932 0.000796326710733
0 0.7268984375 0.4581484375 0.019125 0.042249999999999996 -1.54 -0.999525830605 0.0307914590825
0 0.5466484374999999 0.46602343749999997 0.0195 0.045 -1.82 -0.96910912888 -0.246632309969
7 0.7428984375000001 0.5312734375 0.005 0.0225 1.56 0.99994172023 0.0107961170583
