0 0.8156484374999999 0.5042734375 0.020624999999999998 0.046125 1.56 0.99994172023 0.0107961170583
1 0.9241484375 0.5552734375 0.02275 0.057999999999999996 0.8 0.7173560909 0.696706709347
0 0.8326484375000001 0.5543984375 0.020374999999999997 0.052000000000000005 0.79 0.710353272418 0.703845315652
0 0.6123984375 0.5623984375 0.0215 0.0485 0.76 0.688921445111 0.724836010741
0 0.47527343749999995 0.5618984375 0.018625 0.04325 0.77 0.696135238627 0.717910669611
0 0.3950234375 0.5595234375 0.020125 0.045625 0.75 0.681638760023 0.731688868874
0 0.8482734375000001 0.36527343749999996 0.020999999999999998 0.056125 -1.6 -0.999573603042 -0.0291995223013
0 0.7667734375 0.3656484375 0.01975 0.052500000000000005 -1.58 -0.999957646499 -0.00920354326881
0 0.6822734375 0.3690234375 0.019625 0.050124999999999996 -1.59 -0.999815615134 -0.0192024929017
0 0.4777734375 0.37477343750000003 0.020624999999999998 0.057874999999999996 -1.63 -0.998247974378 -0.0591690937141
0 0.4006484374999999 0.3760234375 0.019875 0.049125 -1.59 -0.999815615134 -0.0192024929017
0 0.2648984375 0.38552343750000007 0.02025 0.052375000000000005 -1.72 -0.988889766005 -0.148650700271
0 0.11177343750000013 0.4145234375 0.020874999999999998 0.056625 -1.86 -0.958471283079 -0.285189059245
0 0.7467734375 0.3147734375 0.016125 0.036875000000000005 -1.57 -0.999999682932 0.000796326710733
