3 0.8181484375 0.5197734374999999 0.010499999999999999 0.01075 1.5 0.997494986604 0.0707372016677
3 0.8158984375 0.5292734375 0.01125 0.011875 1.5 0.997494986604 0.0707372016677
3 0.8220234375 0.4607734375 0.0115 0.012625 1.61 0.999231634421 -0.039193631773
5 0.6987734375 0.49589843749999996 0.008125 0.021249999999999998 -1.67 -0.99508334981 -0.0990410365987
5 0.6051484375 0.5090234375 0.010125 0.0215 -1.42 -0.988651762852 0.150225469912
3 0.6595234375 0.5726484375 0.007625 0.010249999999999999 1.28 0.958015860289 0.286715209632
