0 0.7540234375 0.4261484375 0.019375 0.048125 -1.6 -0.999573603042 -0.0291995223013
0 0.6181484375 0.42602343749999994 0.020624999999999998 0.050249999999999996 -1.57 -0.999999682932 0.000796326710733
0 0.6720234375 0.6138984375 0.019875 0.049875 3.14 0.00159265291649 -0.999998731728
0 0.6402734375 0.6140234375 0.020999999999999998 0.034749999999999996 -3.12 -0.0215909757261 -0.999766887713
0 0.6106484375 0.6102734375 0.020874999999999998 0.042875 -3.12 -0.0215909757261 -0.999766887713
0 0.6810234374999999 0.7855234375 0.023125 0.05337499999999999 -0.0 -0.0 1.0
0 0.6471484375000001 0.7865234375 0.023125 0.056125 -0.01 -0.00999983333417 0.999950000417
0 0.6112734375 0.7940234375 0.023125 0.061750000000000006 0.0 0.0 1.0
0 0.5807734375 0.7956484375 0.023125 0.0615 0.01 0.00999983333417 0.999950000417
0 0.5952734375 0.5420234374999999 0.02 0.048375 1.57 0.999999682932 0.000796326710733
