0 0.5088984375 0.4883984375 0.019375 0.048875 1.67 0.99508334981 -0.0990410365987
0 0.7905234375 0.5638984375 0.020624999999999998 0.052625 -3.09 -0.0515697683985 -0.998669394238
0 0.7581484375 0.5651484375 0.018625 0.052000000000000005 -0.01 -0.00999983333417 0.999950000417
0 0.6633984375 0.5663984375 0.021124999999999998 0.05525 -0.12 -0.119712207289 0.992808635854
0 0.7286484375 0.5651484375 0.01875 0.0475 3.11 0.0315873984365 -0.999500993626
