0 0.9413984375 0.5462734375 0.02175 0.05125 1.53 0.999167945271 0.0407850112416
0 0.8648984375 0.4558984374999999 0.019 0.041875 -1.61 -0.999231634421 -0.039193631773
0 0.8560234375 0.5473984375 0.020624999999999998 0.054625 1.56 0.99994172023 0.0107961170583
0 0.7708984375 0.45627343749999993 0.020624999999999998 0.05225 -1.6 -0.999573603042 -0.0291995223013
0 0.6855234375 0.4760234375 0.018125 0.0435 -1.83 -0.966594391833 -0.256310908228
0 0.7628984375 0.5521484375 0.020999999999999998 0.0505 1.45 0.992712991038 0.120502769367
0 0.6968984375 0.5615234375 0.01975 0.053500000000000006 1.36 0.977864602435 0.209238665891
0 0.5556484374999999 0.5413984375 0.020499999999999997 0.051000000000000004 -2.04 -0.891928650953 -0.452176162141
2 0.0963984375000001 0.7726484375 0.036125000000000004 0.135125 1.14 0.908633496116 0.417594503958
