0 0.9617734375 0.5410234375 0.020125 0.045125 -1.52 -0.998710143976 0.0507744849336
0 0.8931484375000001 0.4288984375 0.0195 0.051125 -1.65 -0.996865028454 -0.0791208888067
0 0.8901484375000001 0.5397734375 0.020874999999999998 0.048625 1.62 0.998789743471 -0.0491838219142
0 0.7063984375 0.42777343749999996 0.020374999999999997 0.04525 -1.59 -0.999815615134 -0.0192024929017
0 0.7835234375 0.5372734375 0.02 0.04425 1.64 0.997606381319 -0.0691484486541
0 0.7153984375 0.5385234375 0.01875 0.041749999999999995 1.68 0.994043202198 -0.10898675224
0 0.6437734375 0.42902343749999994 0.017875 0.044 -1.56 -0.99994172023 0.0107961170583
3 0.6135234375 0.5632734375 0.0085 0.01 1.57 0.999999682932 0.000796326710733
3 0.6186484375 0.5711484375 0.008125 0.00925 1.57 0.999999682932 0.000796326710733
