0 0.9253984375 0.45064843750000005 0.019 0.0435 -1.51 -0.998152472498 0.0607588812194
0 0.8662734375000001 0.4521484375 0.02 0.0475 -1.58 -0.999957646499 -0.00920354326881
0 0.9290234375 0.5366484375 0.02 0.056499999999999995 1.59 0.999815615134 -0.0192024929017
0 0.8610234375 0.5368984375 0.0195 0.04325 1.57 0.999999682932 0.000796326710733
0 0.7697734375 0.6582734375 0.0225 0.049375 2.98 0.160890314967 -0.986972292696
0 0.5921484374999999 0.5321484375 0.019125 0.042249999999999996 1.73 0.987353839701 -0.158532000644
0 0.4065234375 0.4976484375 0.01925 0.042749999999999996 1.89 0.949485614865 -0.313810559359
0 0.21964843749999996 0.45764843749999995 0.017374999999999998 0.046625 -2.39 -0.682803221931 -0.730602326934
