3 0.8621484375 0.41939843750000005 0.009 0.00625 -1.55 -0.999783764189 0.0207948278031
5 0.8033984375000001 0.5525234375 0.007000000000000001 0.022375 1.03 0.857298989189 0.51481884497
3 0.7442734375 0.5453984375 0.009 0.00625 -3.12 -0.0215909757261 -0.999766887713
1 0.4216484374999999 0.49327343749999997 0.025374999999999998 0.06687499999999999 1.32 0.968715100118 0.248175451652
