5 0.9485234375 0.5343984374999999 0.005875 0.020624999999999998 2.33 0.725384387467 -0.688344020399
3 0.9287734375 0.5305234375000001 0.004875 0.005 -3.12 -0.0215909757261 -0.999766887713
3 0.9045234375 0.5276484375 0.005 0.0043749999999999995 -2.58 -0.532534907556 -0.846408041216
5 0.9156484375 0.5362734375 0.006 0.01875 2.6 0.515501371821 -0.856888753369
