0 0.8992734375 0.5953984375 0.018625 0.045375 -2.55 -0.557683717391 -0.830053535235
0 0.8632734375 0.5765234375 0.020874999999999998 0.04625 -3.09 -0.0515697683985 -0.998669394238
1 0.8301484375 0.5836484375 0.023125 0.06475 -3.1 -0.0415806624333 -0.999135150273
0 0.9230234375 0.4437734375 0.020374999999999997 0.056374999999999995 -1.46 -0.993868363412 0.11056977982
0 0.8526484375000001 0.4387734375 0.020749999999999998 0.054125 -1.51 -0.998152472498 0.0607588812194
2 0.6278984375 0.5090234375 0.036125000000000004 0.135125 1.14 0.908633496116 0.417594503958
