0 0.6692734375 0.22964843750000008 0.020999999999999998 0.049125 1.57 0.999999682932 0.000796326710733
0 0.6046484375 0.22564843749999997 0.022875 0.045625 -1.57 -0.999999682932 0.000796326710733
0 0.2091484374999999 0.22327343749999995 0.017125 0.049625 -1.59 -0.999815615134 -0.0192024929017
0 0.11089843750000006 0.21752343750000003 0.02175 0.047 1.55 0.999783764189 0.0207948278031
0 0.4428984375 0.14614843749999995 0.023 0.048 -1.56 -0.99994172023 0.0107961170583
0 0.6905234375 0.49627343749999997 0.020374999999999997 0.05625 1.58 0.999957646499 -0.00920354326881
