0 0.8212734375 0.4926484375 0.020374999999999997 0.045875 1.58 0.999957646499 -0.00920354326881
0 0.7500234375 0.49652343749999994 0.021124999999999998 0.054000000000000006 1.57 0.999999682932 0.000796326710733
0 0.8338984375 0.5342734375 0.0195 0.043125000000000004 1.57 0.999999682932 0.000796326710733
0 0.7600234375 0.5295234375 0.019125 0.050875000000000004 1.61 0.999231634421 -0.039193631773
0 0.6880234375000001 0.5241484375 0.019125 0.052000000000000005 1.58 0.999957646499 -0.00920354326881
0 0.3870234375 0.30239843749999995 0.023125 0.04375 0.3 0.295520206661 0.955336489126
