1 0.7177734375 0.5427734375 0.027500000000000004 0.066625 1.51 0.998152472498 0.0607588812194
0 0.8003984375 0.5937734375 0.0195 0.052375000000000005 0.47 0.452886285379 0.891568288195
7 0.4817734375 0.48914843750000003 0.027875 0.03325 1.55 0.999783764189 0.0207948278031
1 0.40014843749999995 0.4893984375 0.024 0.055374999999999994 1.56 0.99994172023 0.0107961170583
