0 0.5406484375 0.5337734375000001 0.01975 0.049375 1.63 0.998247974378 -0.0591690937141
0 0.6616484375 0.5397734375 0.019625 0.040375 1.59 0.999815615134 -0.0192024929017
2 0.22902343749999998 0.5685234375 0.032 0.09962499999999999 1.63 0.998247974378 -0.0591690937141
0 0.6718984375 0.5893984375000001 0.020125 0.052500000000000005 1.61 0.999231634421 -0.039193631773
0 0.4833984375 0.6573984375 0.017 0.043875 2.16 0.831383460779 -0.555699146251
