0 0.7483984375 0.5028984375000001 0.020624999999999998 0.046125 1.56 0.99994172023 0.0107961170583
0 0.9248984375 0.5550234375 0.01975 0.048375 0.79 0.710353272418 0.703845315652
0 0.8752734375 0.5603984375 0.020874999999999998 0.045625 0.77 0.696135238627 0.717910669611
1 0.7892734375 0.5557734375 0.02275 0.057999999999999996 0.8 0.7173560909 0.696706709347
0 0.6993984375 0.5536484374999999 0.020374999999999997 0.052000000000000005 0.81 0.72428717437 0.689498432952
0 0.47827343749999995 0.5596484375 0.0215 0.0485 0.73 0.666869635004 0.745174402345
0 0.3447734375 0.5612734375 0.018625 0.04325 0.77 0.696135238627 0.717910669611
0 0.7151484375 0.3640234375 0.020999999999999998 0.056125 -1.59 -0.999815615134 -0.0192024929017
1 0.6007734375 0.40977343749999995 0.027250000000000003 0.08637500000000001 -1.59 -0.999815615134 -0.0192024929017
0 0.6357734375 0.3640234375 0.01975 0.052500000000000005 -1.6 -0.999573603042 -0.0291995223013
0 0.5487734375 0.3660234375 0.019625 0.050124999999999996 -1.6 -0.999573603042 -0.0291995223013
0 0.34489843749999993 0.3717734375 0.020624999999999998 0.057874999999999996 -1.64 -0.997606381319 -0.0691484486541
0 0.6150234375 0.31327343750000003 0.016125 0.036875000000000005 -1.6 -0.999573603042 -0.0291995223013
