5 0.8008984375 0.5723984375 0.008125 0.020374999999999997 0.82 0.731145829727 0.682221207288
5 0.9565234375 0.4756484375000001 0.0075 0.021249999999999998 -1.87 -0.955571516853 -0.294759352997
5 0.8032734375 0.5186484375 0.0075 0.021249999999999998 -1.92 -0.939645473685 -0.342149651151
3 0.6577734375 0.3353984375 0.008624999999999999 0.00625 -1.0 -0.841470984808 0.540302305868
3 0.6651484375 0.3471484375 0.0072499999999999995 0.01 2.36 0.70441076577 -0.709792556362
5 0.5582734374999999 0.5271484375 0.008624999999999999 0.021374999999999998 0.76 0.688921445111 0.724836010741
3 0.6461484375 0.4098984375 0.00925 0.010249999999999999 -2.62 -0.498261642412 -0.867026721446
3 0.6340234375 0.40014843750000006 0.009125 0.010499999999999999 -2.52 -0.582330649524 -0.8129520371
3 0.5996484375 0.5302734375 0.009125 0.008749999999999999 -0.03 -0.0299955002025 0.999550033749
3 0.5995234375 0.5465234375 0.009625 0.010875 -3.12 -0.0215909757261 -0.999766887713
