0 0.8435234375 0.4361484375 0.020749999999999998 0.05475 -0.09 -0.089878549198 0.995952733012
0 0.9003984375 0.5572734374999999 0.02325 0.05225 -0.06 -0.0599640064794 0.998200539935
0 0.8588984375 0.5582734375 0.020749999999999998 0.054625 0.03 0.0299955002025 0.999550033749
0 0.7121484375 0.4338984375 0.020874999999999998 0.053500000000000006 3.05 0.0914646422324 -0.995808324539
0 0.6461484375 0.43539843749999996 0.020874999999999998 0.054625 -3.05 -0.0914646422324 -0.995808324539
