0 0.4957734374999999 0.5270234375 0.018625 0.041499999999999995 1.6 0.999573603042 -0.0291995223013
0 0.6686484375 0.5383984374999999 0.02025 0.048625 1.6 0.999573603042 -0.0291995223013
0 0.8861484375 0.5437734375 0.01975 0.049375 1.6 0.999573603042 -0.0291995223013
2 0.6398984375 0.5852734374999999 0.032 0.09962499999999999 1.61 0.999231634421 -0.039193631773
0 0.5451484375 0.7012734375 0.017 0.043875 2.27 0.765354952529 -0.643608418714
