0 0.9483984375 0.4541484375 0.019375 0.041499999999999995 1.6 0.999573603042 -0.0291995223013
0 0.8668984375 0.4557734375 0.020999999999999998 0.048875 -1.57 -0.999999682932 0.000796326710733
0 0.6597734375 0.44564843750000005 0.021875 0.055874999999999994 -1.58 -0.999957646499 -0.00920354326881
1 0.5526484375 0.4381484375 0.020874999999999998 0.04925 -1.55 -0.999783764189 0.0207948278031
0 0.34127343749999994 0.4371484375 0.0185 0.047 -1.54 -0.999525830605 0.0307914590825
