0 0.7383984375 0.5425234375 0.018125 0.04 1.6 0.999573603042 -0.0291995223013
0 0.9668984375 0.5408984375 0.018625 0.041499999999999995 1.6 0.999573603042 -0.0291995223013
0 0.7508984375000001 0.5927734375 0.0185 0.040625 1.59 0.999815615134 -0.0192024929017
0 0.8873984375 0.5952734375000001 0.0195 0.0495 1.6 0.999573603042 -0.0291995223013
