0 0.8890234375 0.5326484375 0.02175 0.045625 1.54 0.999525830605 0.0307914590825
0 0.9190234375 0.4251484375000001 0.02 0.0405 -0.03 -0.0299955002025 0.999550033749
0 0.8872734375 0.4185234375 0.020374999999999997 0.05375 -3.11 -0.0315873984365 -0.999500993626
0 0.8553984375 0.41802343749999993 0.02 0.047 3.09 0.0515697683985 -0.998669394238
0 0.8138984375 0.5331484375 0.019375 0.048375 1.61 0.999231634421 -0.039193631773
0 0.7017734375 0.5321484375 0.0185 0.041999999999999996 1.61 0.999231634421 -0.039193631773
0 0.7193984375 0.4222734375 0.021249999999999998 0.051125 -0.06 -0.0599640064794 0.998200539935
0 0.6561484375 0.41339843749999994 0.020874999999999998 0.041875 -3.13 -0.0115923939362 -0.999932805944
0 0.5882734374999999 0.4232734375 0.018625 0.0445 -0.01 -0.00999983333417 0.999950000417
0 0.5293984375 0.5317734375 0.018625 0.042249999999999996 1.59 0.999815615134 -0.0192024929017
