0 0.3637734375 0.4667734375 0.0195 0.04525 1.57 0.999999682932 0.000796326710733
0 0.5487734375 0.4733984375 0.020499999999999997 0.054000000000000006 1.46 0.993868363412 0.11056977982
0 0.7292734375000001 0.3790234375 0.02025 0.0485 0.54 0.514135991653 0.857708681364
0 0.5151484375 0.3407734375 0.020874999999999998 0.053625 -1.73 -0.987353839701 -0.158532000644
