0 0.9203984375 0.46202343749999997 0.02025 0.0505 -1.54 -0.999525830605 0.0307914590825
0 0.9306484375 0.4311484375 0.01975 0.0465 -1.56 -0.99994172023 0.0107961170583
0 0.7463984375 0.46489843750000004 0.02 0.049875 -1.55 -0.999783764189 0.0207948278031
0 0.6833984375 0.5525234375 0.020624999999999998 0.05175 -0.0 -0.0 1.0
1 0.8328984375 0.46302343749999997 0.021875 0.057874999999999996 -1.58 -0.999957646499 -0.00920354326881
5 0.8272734374999999 0.5983984375 0.006625000000000001 0.0245 -1.57 -0.999999682932 0.000796326710733
