0 0.8858984375 0.5003984375 0.020374999999999997 0.041499999999999995 1.57 0.999999682932 0.000796326710733
0 0.6530234375 0.6922734375 0.021625 0.05325 3.09 0.0515697683985 -0.998669394238
0 0.6548984375 0.7818984375 0.022 0.044875 3.06 0.0815021517603 -0.996673165716
0 0.9381484375 0.5545234375 0.020499999999999997 0.046375 1.26 0.952090341591 0.305816908378
