0 0.5027734374999999 0.4886484375 0.019375 0.048875 1.68 0.994043202198 -0.10898675224
0 0.9283984375 0.5837734375 0.018875 0.04625 -1.59 -0.999815615134 -0.0192024929017
0 0.7668984375 0.5633984375 0.020624999999999998 0.052625 -3.09 -0.0515697683985 -0.998669394238
0 0.7340234375 0.5642734375 0.018625 0.052000000000000005 -0.0 -0.0 1.0
0 0.6403984375 0.5650234375000001 0.021124999999999998 0.05525 -0.12 -0.119712207289 0.992808635854
0 0.7047734375 0.5637734375 0.01875 0.0475 3.11 0.0315873984365 -0.999500993626
