0 0.7865234375 0.45464843750000006 0.019 0.0445 -1.59 -0.999815615134 -0.0192024929017
0 0.39614843749999995 0.44064843749999993 0.020499999999999997 0.057125 -1.52 -0.998710143976 0.0507744849336
1 0.051773437499999964 0.4703984375 0.025374999999999998 0.0675 2.07 0.877964062999 -0.478726544159
0 0.8732734375 0.3826484375 0.01925 0.05437499999999999 -2.67 -0.45430566983 -0.890845866781
