3 0.7406484375 0.4202734375 0.006500000000000001 0.00625 -0.03 -0.0299955002025 0.999550033749
3 0.6661484375 0.3637734375 0.008749999999999999 0.008624999999999999 -1.61 -0.999231634421 -0.039193631773
7 0.7967734375 0.5625234375 0.006625000000000001 0.021374999999999998 1.55 0.999783764189 0.0207948278031
