0 0.13027343749999998 0.47664843749999997 0.02 0.0445 1.6 0.999573603042 -0.0291995223013
0 0.6868984375 0.4015234375000001 0.021625 0.052625 -1.55 -0.999783764189 0.0207948278031
0 0.2642734375 0.40214843749999996 0.020499999999999997 0.044875 -1.55 -0.999783764189 0.0207948278031
