0 0.6957734375 0.5107734374999999 0.020749999999999998 0.04 1.49 0.996737752043 0.0807084484548
0 0.5612734374999999 0.46227343750000005 0.020125 0.04575 -1.67 -0.99508334981 -0.0990410365987
0 0.5157734374999999 0.43064843750000004 0.019125 0.042125 -1.71 -0.990326804156 -0.138754534952
