0 0.8722734375000001 0.44002343750000006 0.02225 0.058125 -1.61 -0.999231634421 -0.039193631773
3 0.8451484375 0.4560234375000001 0.00825 0.01175 1.99 0.913413361341 -0.407033206659
3 0.8130234375000001 0.4651484375 0.006875000000000001 0.009875 -0.57 -0.539632048734 0.841900975162
3 0.8035234375 0.4677734375 0.008 0.010499999999999999 -0.95 -0.813415504789 0.581683089464
0 0.7151484375 0.7438984375 0.018875 0.05437499999999999 -2.91 -0.229527947021 -0.973302071063
