0 0.9631484375 0.5321484375 0.01925 0.04525 1.58 0.999957646499 -0.00920354326881
0 0.7497734375 0.4653984375 0.019625 0.05525 -1.54 -0.999525830605 0.0307914590825
0 0.7997734375000001 0.5301484375000001 0.01975 0.049 -1.55 -0.999783764189 0.0207948278031
0 0.5575234375 0.4653984375 0.02 0.041625 -1.53 -0.999167945271 0.0407850112416
