0 0.9293984375 0.4252734375 0.020624999999999998 0.050249999999999996 -1.57 -0.999999682932 0.000796326710733
0 0.8885234375 0.6020234375 0.02025 0.046125 -3.13 -0.0115923939362 -0.999932805944
0 0.8365234375 0.4271484375 0.020125 0.051625 -1.63 -0.998247974378 -0.0591690937141
0 0.9100234375 0.5398984375 0.02 0.048375 1.58 0.999957646499 -0.00920354326881
0 0.8401484375 0.5392734375 0.019625 0.0505 1.57 0.999999682932 0.000796326710733
0 0.7641484375 0.42777343749999996 0.01875 0.04475 -1.57 -0.999999682932 0.000796326710733
0 0.7182734375 0.5418984375 0.020125 0.045125 -1.52 -0.998710143976 0.0507744849336
0 0.6461484375 0.5402734375 0.020874999999999998 0.048625 1.63 0.998247974378 -0.0591690937141
0 0.5392734375 0.5381484375000001 0.02 0.04425 1.63 0.998247974378 -0.0591690937141
0 0.16177343750000017 0.4561484375 0.021374999999999998 0.05437499999999999 2.33 0.725384387467 -0.688344020399
