0 0.7093984375 0.4545234375 0.019 0.0445 -1.58 -0.999957646499 -0.00920354326881
0 0.3185234374999999 0.4415234375 0.020499999999999997 0.057125 -1.52 -0.998710143976 0.0507744849336
0 0.7965234375 0.38277343750000004 0.01925 0.05437499999999999 -2.67 -0.45430566983 -0.890845866781
0 0.42402343750000004 0.3973984374999999 0.017625 0.05275 -2.71 -0.418317940676 -0.908300666359
