0 0.8590234375 0.5011484375 0.021625 0.038125 1.57 0.999999682932 0.000796326710733
5 0.8766484375 0.5710234375 0.006625000000000001 0.025 1.53 0.999167945271 0.0407850112416
6 0.9652734375 0.4451484375 0.03425 0.14975 1.59 0.999815615134 -0.0192024929017
