0 0.8875234375 0.44364843750000005 0.020874999999999998 0.047875 -1.55 -0.999783764189 0.0207948278031
0 0.7436484375 0.5307734375 0.019875 0.053500000000000006 1.58 0.999957646499 -0.00920354326881
0 0.7163984375 0.3830234375 0.019 0.045625 -0.04 -0.0399893341866 0.999200106661
0 0.8363984375 0.5373984375 0.018875 0.041625 1.57 0.999999682932 0.000796326710733
0 0.6635234375 0.5326484375 0.019625 0.04725 1.57 0.999999682932 0.000796326710733
0 0.6588984375 0.4403984375000001 0.021374999999999998 0.048125 -1.53 -0.999167945271 0.0407850112416
0 0.5891484374999999 0.4405234375 0.020624999999999998 0.04625 -1.56 -0.99994172023 0.0107961170583
0 0.8906484375 0.5350234375 0.020125 0.043875 1.57 0.999999682932 0.000796326710733
0 0.5162734375 0.4438984375 0.020374999999999997 0.04925 -1.56 -0.99994172023 0.0107961170583
1 0.3806484374999999 0.5330234375 0.03075 0.073125 1.57 0.999999682932 0.000796326710733
