0 0.9741484375 0.5392734375 0.01875 0.0465 1.6 0.999573603042 -0.0291995223013
0 0.8991484375 0.5448984375 0.020499999999999997 0.055125 1.59 0.999815615134 -0.0192024929017
0 0.7427734375 0.3465234374999999 0.020999999999999998 0.051375000000000004 -1.67 -0.99508334981 -0.0990410365987
0 0.35789843749999994 0.38852343749999996 0.01975 0.048 -1.72 -0.988889766005 -0.148650700271
0 0.7487734375 0.5412734375 0.019625 0.044 1.44 0.991458348192 0.130423708738
0 0.6871484375 0.5451484375 0.020374999999999997 0.044625 1.55 0.999783764189 0.0207948278031
0 0.6126484375 0.5458984375 0.019875 0.0455 1.51 0.998152472498 0.0607588812194
0 0.5476484374999999 0.5476484375 0.02175 0.051125 1.52 0.998710143976 0.0507744849336
0 0.40539843749999993 0.5495234375 0.01975 0.040999999999999995 1.52 0.998710143976 0.0507744849336
