0 0.6798984375 0.5080234375 0.0195 0.03275 1.54 0.999525830605 0.0307914590825
0 0.9011484375 0.44939843749999997 0.019875 0.05337499999999999 -1.51 -0.998152472498 0.0607588812194
0 0.7546484375 0.4461484375 0.02025 0.050749999999999997 -1.58 -0.999957646499 -0.00920354326881
0 0.5631484375 0.4421484375 0.019125 0.0485 -1.63 -0.998247974378 -0.0591690937141
