0 0.9302734375 0.4415234375 0.02175 0.050749999999999997 -1.54 -0.999525830605 0.0307914590825
0 0.7557734375 0.5531484375 0.022125 0.06375 1.52 0.998710143976 0.0507744849336
0 0.8680234375 0.44264843750000005 0.019375 0.045625 -1.59 -0.999815615134 -0.0192024929017
0 0.8115234375 0.44364843750000005 0.020374999999999997 0.049 -1.6 -0.999573603042 -0.0291995223013
0 0.6776484375 0.5580234374999999 0.020749999999999998 0.04825 1.52 0.998710143976 0.0507744849336
0 0.6075234375 0.5620234375 0.019875 0.041749999999999995 1.53 0.999167945271 0.0407850112416
0 0.5422734374999999 0.5666484374999999 0.02 0.04625 1.51 0.998152472498 0.0607588812194
