0 0.6797734375 0.4907734375 0.020749999999999998 0.04 1.58 0.999957646499 -0.00920354326881
0 0.5533984375 0.40877343750000006 0.018875 0.04625 -1.56 -0.99994172023 0.0107961170583
0 0.41139843749999994 0.44402343750000006 0.020749999999999998 0.050624999999999996 -1.56 -0.99994172023 0.0107961170583
