0 0.6235234375 0.47464843749999996 0.020624999999999998 0.05500000000000001 1.7 0.991664810452 -0.128844494296
3 0.8518984375 0.45102343749999996 0.0072499999999999995 0.010499999999999999 -1.77 -0.980224472788 -0.197888814609
3 0.8573984375 0.44539843749999997 0.008 0.011 -1.61 -0.999231634421 -0.039193631773
3 0.7083984375 0.40352343749999997 0.0085 0.010499999999999999 -1.54 -0.999525830605 0.0307914590825
