0 0.9433984375 0.5356484375 0.021875 0.04725 1.57 0.999999682932 0.000796326710733
0 0.9153984375 0.42302343750000004 0.018875 0.050249999999999996 -1.58 -0.999957646499 -0.00920354326881
0 0.8140234375 0.42302343750000004 0.020624999999999998 0.051375000000000004 -1.57 -0.999999682932 0.000796326710733
0 0.4910234375 0.4518984374999999 0.022 0.05500000000000001 -1.59 -0.999815615134 -0.0192024929017
0 0.7328984375 0.41977343749999996 0.020499999999999997 0.05 -1.58 -0.999957646499 -0.00920354326881
0 0.5963984375 0.4168984375 0.021249999999999998 0.04675 -1.56 -0.99994172023 0.0107961170583
0 0.3247734375 0.5315234375 0.020749999999999998 0.051875000000000004 1.57 0.999999682932 0.000796326710733
0 0.41414843749999997 0.6001484375 0.021249999999999998 0.058125 -3.13 -0.0115923939362 -0.999932805944
1 0.2956484374999999 0.7762734375 0.025875 0.061750000000000006 0.03 0.0299955002025 0.999550033749
