0 0.9318984375 0.4361484375 0.020749999999999998 0.047625 -1.54 -0.999525830605 0.0307914590825
5 0.8350234375000001 0.45327343750000004 0.007875 0.025875 -1.6 -0.999573603042 -0.0291995223013
5 0.8288984375 0.46202343749999997 0.00825 0.022875 -1.54 -0.999525830605 0.0307914590825
0 0.7287734375 0.4288984375 0.020874999999999998 0.0615 -1.57 -0.999999682932 0.000796326710733
5 0.6571484375000001 0.45402343749999996 0.00825 0.02375 -1.55 -0.999783764189 0.0207948278031
0 0.4936484375 0.4328984375 0.021625 0.055125 -1.66 -0.996023989917 -0.0890854169365
0 0.4697734375 0.5323984375 0.023 0.05125 1.49 0.996737752043 0.0807084484548
0 0.9758984375 0.5313984375 0.020874999999999998 0.04525 1.57 0.999999682932 0.000796326710733
