0 0.8986484375 0.4547734375 0.019375 0.049 -1.57 -0.999999682932 0.000796326710733
0 0.9140234375 0.5320234375 0.0195 0.04525 1.61 0.999231634421 -0.039193631773
0 0.8406484375000001 0.5317734375 0.01925 0.057499999999999996 1.62 0.998789743471 -0.0491838219142
0 0.8265234375 0.45302343749999996 0.02025 0.05325 -1.59 -0.999815615134 -0.0192024929017
0 0.7575234375 0.44902343749999996 0.019 0.0435 -1.54 -0.999525830605 0.0307914590825
0 0.7001484375 0.4517734375 0.02 0.0475 -1.56 -0.99994172023 0.0107961170583
0 0.7603984375 0.5353984374999999 0.02 0.056499999999999995 1.6 0.999573603042 -0.0291995223013
0 0.6946484375 0.5365234375 0.0195 0.04325 1.59 0.999815615134 -0.0192024929017
0 0.6031484375 0.6572734375 0.0225 0.049375 2.98 0.160890314967 -0.986972292696
0 0.42539843749999995 0.5313984375 0.019125 0.042249999999999996 1.74 0.985719178836 -0.168397447949
0 0.2423984375 0.49614843750000004 0.01925 0.042749999999999996 1.85 0.961275202975 -0.275590246825
0 0.051648437500000144 0.4571484375 0.017374999999999998 0.046625 -2.42 -0.660581201279 -0.750754604725
5 0.12914843750000016 0.4165234375 0.008 0.018875 -2.17 -0.825784993106 -0.563985057569
