0 0.9007734375 0.5341484375000001 0.021374999999999998 0.04475 1.61 0.999231634421 -0.039193631773
0 0.8220234375 0.4458984375 0.022625 0.04325 1.61 0.999231634421 -0.039193631773
0 0.7711484375 0.5310234375 0.019375 0.042125 1.6 0.999573603042 -0.0291995223013
0 0.5743984375 0.5313984375 0.020874999999999998 0.04525 1.6 0.999573603042 -0.0291995223013
