3 0.8990234375 0.46089843750000004 0.00825 0.006625000000000001 3.05 0.0914646422324 -0.995808324539
3 0.8963984375 0.45302343749999996 0.007625 0.0063750000000000005 -0.31 -0.305058636443 0.952333569886
3 0.8458984375 0.5263984374999999 0.007875 0.0063750000000000005 -0.62 -0.581035160537 0.813878456663
5 0.7533984375 0.45289843750000003 0.007124999999999999 0.025 -1.58 -0.999957646499 -0.00920354326881
5 0.6621484375 0.45164843750000006 0.0075 0.023125 -1.55 -0.999783764189 0.0207948278031
3 0.6093984375 0.4681484375 0.007625 0.009125 2.15 0.836898790798 -0.54735766548
3 0.6123984375 0.4621484375 0.006750000000000001 0.010875 2.13 0.847677840134 -0.530511337623
