3 0.9467734375 0.5461484375000001 0.010249999999999999 0.014249999999999999 1.53 0.999167945271 0.0407850112416
3 0.9045234375 0.5172734375 0.01175 0.011625 0.94 0.807558100405 0.589788025031
5 0.9700234375 0.47889843750000005 0.00825 0.021875 -1.56 -0.99994172023 0.0107961170583
3 0.8801484375 0.5580234374999999 0.013000000000000001 0.0115 2.64 0.480822614989 -0.876817890394
3 0.8778984375 0.5716484375 0.006750000000000001 0.006875000000000001 1.66 0.996023989917 -0.0890854169365
4 0.9168984375 0.46427343749999994 0.00625 0.008624999999999999 3.03 0.111361188687 -0.993779998619
4 0.9090234375 0.46589843750000004 0.006125 0.007124999999999999 3.01 0.13121319215 -0.991354173949
4 0.8438984375 0.4593984375 0.006750000000000001 0.011875 2.95 0.190422647361 -0.981702202998
4 0.9007734375 0.4647734375 0.007375 0.008624999999999999 3.11 0.0315873984365 -0.999500993626
3 0.7595234375 0.4663984375 0.00825 0.01125 -1.42 -0.988651762852 0.150225469912
3 0.7592734375 0.45927343750000005 0.009125 0.009625 -1.37 -0.979908061399 0.199449720998
3 0.7496484375 0.48689843750000006 0.0095 0.012750000000000001 1.62 0.998789743471 -0.0491838219142
3 0.6506484375 0.49427343749999997 0.012 0.011875 1.67 0.99508334981 -0.0990410365987
3 0.7518984375 0.5025234375000001 0.008 0.011375 1.55 0.999783764189 0.0207948278031
0 0.3427734375 0.4397734375 0.020874999999999998 0.05175 -1.58 -0.999957646499 -0.00920354326881
3 0.7322734375 0.4640234375000001 0.009125 0.010499999999999999 2.44 0.645434998334 -0.763815202078
