0 0.9168984375 0.43564843750000004 0.02175 0.045375 -1.5 -0.997494986604 0.0707372016677
0 0.7336484375 0.5317734375 0.021625 0.049625 1.58 0.999957646499 -0.00920354326881
0 0.7456484375 0.6347734375 0.01975 0.04875 2.5 0.598472144104 -0.801143615547
0 0.6615234375 0.5301484375000001 0.02025 0.051375000000000004 1.58 0.999957646499 -0.00920354326881
0 0.6676484375 0.6265234375 0.019125 0.05475 2.49 0.606453523378 -0.795118937004
0 0.7066484375 0.6340234375 0.0225 0.04975 2.53 0.574172148355 -0.818734599277
0 0.9266484375 0.5407734375000001 0.020499999999999997 0.047 1.61 0.999231634421 -0.039193631773
