0 0.6875234375 0.3543984375 0.02 0.04825 1.03 0.857298989189 0.51481884497
1 0.5546484374999999 0.34064843749999996 0.022125 0.060750000000000005 -2.1 -0.863209366649 -0.5048461046
3 0.8197734375 0.5715234375 0.00625 0.00625 1.41 0.987100101014 0.160104311555
0 0.5757734374999999 0.4206484375 0.019125 0.0475 1.01 0.846831844618 0.531860721374
0 0.36852343749999994 0.4442734374999999 0.01675 0.053125 -1.94 -0.932615014022 -0.36087288014
0 0.1955234375 0.5253984375 0.019125 0.056874999999999995 -1.92 -0.939645473685 -0.342149651151
0 0.4527734375 0.4900234375 0.0195 0.045625 1.04 0.862404227243 0.506220257233
