0 0.8898984375 0.4395234375 0.020874999999999998 0.05175 -1.46 -0.993868363412 0.11056977982
5 0.9145234375 0.46227343750000005 0.009875 0.02325 -1.46 -0.993868363412 0.11056977982
3 0.8080234374999999 0.5153984375 0.013250000000000001 0.009125 -1.13 -0.904412189379 0.42665980793
3 0.6710234375 0.4425234375 0.010499999999999999 0.01075 1.68 0.994043202198 -0.10898675224
3 0.6690234375 0.4501484375 0.01125 0.011875 1.7 0.991664810452 -0.128844494296
3 0.7008984375 0.3948984375 0.0115 0.012625 1.64 0.997606381319 -0.0691484486541
