0 0.8921484375000001 0.45289843750000003 0.020874999999999998 0.056125 -1.56 -0.99994172023 0.0107961170583
0 0.5676484374999999 0.2463984375 0.0215 0.038625 1.57 0.999999682932 0.000796326710733
0 0.6463984375 0.4481484375 0.019875 0.051500000000000004 -1.58 -0.999957646499 -0.00920354326881
0 0.3413984374999999 0.24552343749999994 0.019625 0.041499999999999995 1.54 0.999525830605 0.0307914590825
0 0.2828984374999999 0.2500234375 0.015 0.0655 -1.61 -0.999231634421 -0.039193631773
0 0.12189843749999996 0.4458984375 0.021124999999999998 0.05450000000000001 -1.56 -0.99994172023 0.0107961170583
0 0.41277343749999995 0.4471484375 0.020749999999999998 0.054000000000000006 -1.56 -0.99994172023 0.0107961170583
0 0.5700234375 0.49552343749999994 0.020374999999999997 0.05625 1.55 0.999783764189 0.0207948278031
