0 0.6968984375 0.4987734374999999 0.021124999999999998 0.042249999999999996 1.59 0.999815615134 -0.0192024929017
0 0.8891484375 0.43727343750000003 0.02175 0.052000000000000005 2.48 0.614374257806 -0.78901474723
0 0.8476484375 0.43827343750000003 0.020499999999999997 0.046375 2.34 0.718464793069 -0.695563326463
0 0.7535234375 0.43377343749999997 0.01975 0.044625 2.47 0.622233555319 -0.782831656638
0 0.7168984375 0.4395234375 0.020374999999999997 0.047375 2.43 0.653040751572 -0.757322769225
0 0.6305234375 0.43739843749999996 0.02025 0.052375000000000005 2.42 0.660581201279 -0.750754604725
1 0.6755234375 0.5407734375000001 0.026000000000000002 0.071875 1.59 0.999815615134 -0.0192024929017
0 0.5306484374999999 0.49489843750000007 0.020874999999999998 0.045125 1.57 0.999999682932 0.000796326710733
2 0.8057734375000001 0.3151484375 0.03075 0.09375 -1.57 -0.999999682932 0.000796326710733
