0 0.5430234374999999 0.5286484375 0.018625 0.041499999999999995 1.6 0.999573603042 -0.0291995223013
0 0.7158984375 0.5395234375 0.02025 0.048625 1.6 0.999573603042 -0.0291995223013
0 0.9173984375 0.5442734375 0.01975 0.049375 1.59 0.999815615134 -0.0192024929017
2 0.6828984375 0.5867734375 0.032 0.09962499999999999 1.61 0.999231634421 -0.039193631773
0 0.5582734374999999 0.7120234375 0.017 0.043875 2.27 0.765354952529 -0.643608418714
