0 0.32802343749999996 0.5001484375 0.020749999999999998 0.051875000000000004 1.42 0.988651762852 0.150225469912
0 0.5703984375 0.4661484375 0.0195 0.04525 1.36 0.977864602435 0.209238665891
0 0.7576484375 0.3208984375 0.020499999999999997 0.054000000000000006 0.37 0.361615431965 0.932327345606
0 0.5152734375 0.34089843750000004 0.020874999999999998 0.053625 -1.73 -0.987353839701 -0.158532000644
