0 0.014898437500000083 0.44739843749999997 0.021625 0.038125 1.57 0.999999682932 0.000796326710733
2 0.04777343750000007 0.49314843750000004 0.032875 0.15425 1.59 0.999815615134 -0.0192024929017
6 0.7407734375 0.3780234375 0.034499999999999996 0.1605 1.58 0.999957646499 -0.00920354326881
