0 0.9520234375 0.45502343749999996 0.020374999999999997 0.044875 -1.61 -0.999231634421 -0.039193631773
0 0.8747734375 0.46189843750000004 0.01825 0.045375 -1.63 -0.998247974378 -0.0591690937141
0 0.8156484374999999 0.46427343749999994 0.020749999999999998 0.052375000000000005 -1.6 -0.999573603042 -0.0291995223013
0 0.8206484375 0.5392734375 0.021374999999999998 0.046875 1.4 0.985449729988 0.1699671429
0 0.9136484375 0.5837734375 0.019625 0.05325 -0.08 -0.0799146939692 0.996801706303
0 0.6891484375 0.4621484375 0.01875 0.041749999999999995 -1.62 -0.998789743471 -0.0491838219142
0 0.3011484375 0.43139843750000006 0.021875 0.057874999999999996 0.31 0.305058636443 0.952333569886
0 0.7667734375 0.5562734375 0.01975 0.041375 1.08 0.881957806885 0.471328364174
0 0.7193984375 0.5862734375 0.02 0.038875 0.8 0.7173560909 0.696706709347
0 0.5746484374999999 0.5988984375 0.021124999999999998 0.059 2.83 0.306574986384 -0.95184650954
0 0.6647734375000001 0.7012734375 0.020624999999999998 0.041875 0.36 0.352274233275 0.935896823678
0 0.5478984375 0.7308984375 0.021249999999999998 0.049375 -2.79 -0.344393467258 -0.938825404274
