0 0.9135234375 0.4415234375 0.01975 0.041875 -1.57 -0.999999682932 0.000796326710733
0 0.8597734375 0.4405234375 0.021374999999999998 0.055125 -1.54 -0.999525830605 0.0307914590825
0 0.7515234375 0.43339843749999996 0.0215 0.055125 -1.48 -0.995880844538 0.0906716244643
0 0.6396484375 0.42302343750000004 0.021875 0.05375 -1.51 -0.998152472498 0.0607588812194
1 0.8071484375 0.6140234375 0.024375 0.0665 3.14 0.00159265291649 -0.999998731728
