0 0.5423984374999999 0.5405234375 0.020624999999999998 0.053500000000000006 1.56 0.99994172023 0.0107961170583
1 0.5835234375 0.4292734375 0.0225 0.062 0.03 0.0299955002025 0.999550033749
0 0.6130234375 0.4311484375 0.0225 0.05550000000000001 -0.0 -0.0 1.0
0 0.7060234375 0.4281484375 0.0225 0.05275 -0.09 -0.089878549198 0.995952733012
0 0.7362734375 0.4295234375 0.01825 0.049375 -0.1 -0.0998334166468 0.995004165278
0 0.7666484375 0.42639843749999995 0.020499999999999997 0.045 -0.01 -0.00999983333417 0.999950000417
0 0.8317734375 0.4171484375000001 0.018875 0.042249999999999996 3.13 0.0115923939362 -0.999932805944
0 0.8621484375 0.42202343750000004 0.020374999999999997 0.046875 -3.12 -0.0215909757261 -0.999766887713
0 0.9216484375 0.4176484375 0.019125 0.052625 -3.11 -0.0315873984365 -0.999500993626
0 0.9640234375 0.5318984375 0.02025 0.052500000000000005 1.57 0.999999682932 0.000796326710733
2 0.33902343749999997 0.5435234375 0.03125 0.08175 1.57 0.999999682932 0.000796326710733
