0 0.2566484375 0.4755234374999999 0.0195 0.04525 1.43 0.990104560337 0.140331605847
0 0.4301484375 0.4993984375 0.02025 0.0485 1.56 0.99994172023 0.0107961170583
0 0.5200234375 0.4647734375 0.021249999999999998 0.05625 1.57 0.999999682932 0.000796326710733
0 0.5156484375 0.3413984375 0.020874999999999998 0.053625 -1.73 -0.987353839701 -0.158532000644
