0 0.40577343749999994 0.5131484375 0.020624999999999998 0.053500000000000006 1.61 0.999231634421 -0.039193631773
1 0.45364843749999995 0.4040234375 0.0225 0.062 0.08 0.0799146939692 0.996801706303
0 0.7925234375 0.40839843750000004 0.019125 0.052625 -3.06 -0.0815021517603 -0.996673165716
0 0.8283984375 0.5253984375 0.02025 0.052500000000000005 1.65 0.996865028454 -0.0791208888067
0 0.8770234375 0.46264843750000006 0.018375 0.042875 -1.57 -0.999999682932 0.000796326710733
2 0.2037734375 0.5056484375 0.03125 0.08175 1.6 0.999573603042 -0.0291995223013
