0 0.6826484375 0.5772734374999999 0.02175 0.058875 -3.13 -0.0115923939362 -0.999932805944
0 0.6383984375 0.7970234375 0.020499999999999997 0.056999999999999995 -0.02 -0.0199986666933 0.999800006667
0 0.6881484375 0.7960234375 0.020874999999999998 0.052125 -0.0 -0.0 1.0
0 0.5145234375 0.7921484375 0.020499999999999997 0.052125 0.01 0.00999983333417 0.999950000417
0 0.48352343749999993 0.7935234375 0.02 0.05525 0.03 0.0299955002025 0.999550033749
0 0.5603984375 0.44864843749999994 0.022 0.05225 -1.53 -0.999167945271 0.0407850112416
0 0.31964843749999994 0.48327343750000007 0.0235 0.055625 -1.62 -0.998789743471 -0.0491838219142
0 0.45489843750000003 0.6435234375000001 0.02225 0.059 -0.04 -0.0399893341866 0.999200106661
0 0.34064843749999996 0.7625234375 0.020624999999999998 0.044375 1.56 0.99994172023 0.0107961170583
0 0.3375234375 0.7951484375 0.021249999999999998 0.048875 1.57 0.999999682932 0.000796326710733
0 0.3363984375 0.5613984375000001 0.021374999999999998 0.05550000000000001 -1.54 -0.999525830605 0.0307914590825
