0 0.8863984375 0.5012734375 0.021625 0.038125 1.57 0.999999682932 0.000796326710733
6 0.44802343749999995 0.5627734375 0.027125 0.156125 -0.99 -0.836025978601 0.548689860582
0 0.6377734375 0.35789843750000006 0.021875 0.05 -1.58 -0.999957646499 -0.00920354326881
0 0.4553984375 0.3551484375 0.020374999999999997 0.05387499999999999 -1.58 -0.999957646499 -0.00920354326881
6 0.5693984375 0.6488984375 0.025625 0.15137499999999998 -0.91 -0.78950373969 0.613745749489
