0 0.43539843749999996 0.5018984375 0.020374999999999997 0.045875 1.57 0.999999682932 0.000796326710733
0 0.8405234375 0.5356484375 0.019625 0.050875000000000004 1.56 0.99994172023 0.0107961170583
0 0.9705234375 0.5356484375 0.019875 0.046875 1.57 0.999999682932 0.000796326710733
0 0.7808984375 0.5376484375 0.018875 0.04475 1.57 0.999999682932 0.000796326710733
3 0.6163984375 0.5563984375000001 0.007000000000000001 0.00975 -1.58 -0.999957646499 -0.00920354326881
0 0.6105234375 0.5381484375000001 0.019375 0.049125 1.58 0.999957646499 -0.00920354326881
0 0.3152734374999999 0.5420234374999999 0.02025 0.051625 1.56 0.99994172023 0.0107961170583
