0 0.7575234375 0.5352734375 0.020624999999999998 0.046125 1.44 0.991458348192 0.130423708738
0 0.7870234375 0.45302343749999996 0.01975 0.046 -1.76 -0.982154317138 -0.188076838893
0 0.8351484375 0.39239843750000003 0.02025 0.052375000000000005 -1.76 -0.982154317138 -0.188076838893
0 0.6771484375 0.42939843749999995 0.020874999999999998 0.056625 -1.88 -0.952576194272 -0.30430017106
0 0.48089843749999994 0.6640234375 0.020374999999999997 0.04675 0.4 0.389418342309 0.921060994003
