0 0.6185234374999999 0.4468984375 0.020499999999999997 0.057125 -1.52 -0.998710143976 0.0507744849336
1 0.26877343749999993 0.47764843749999997 0.025374999999999998 0.0675 2.07 0.877964062999 -0.478726544159
0 0.7185234375 0.40177343749999994 0.017625 0.05275 -2.75 -0.381660992052 -0.924302378632
