3 0.8456484375 0.5042734375 0.010499999999999999 0.01075 2.06 0.882707350816 -0.469923113728
3 0.8426484375000001 0.5177734375 0.01125 0.011875 1.7 0.991664810452 -0.128844494296
3 0.8118984375 0.4175234375000001 0.01075 0.012750000000000001 1.7 0.991664810452 -0.128844494296
3 0.8290234375000001 0.5128984375 0.008875 0.012875000000000001 2.36 0.70441076577 -0.709792556362
3 0.9110234375 0.5361484375 0.010624999999999999 0.014374999999999999 2.99 0.151012712086 -0.988531820827
3 0.9017734375 0.5752734375 0.008624999999999999 0.007000000000000001 -2.35 -0.711473352791 -0.702713076774
3 0.9176484375 0.4495234375 0.0085 0.013875000000000002 -1.61 -0.999231634421 -0.039193631773
7 0.9270234375 0.44939843749999997 0.00775 0.012625 -1.57 -0.999999682932 0.000796326710733
3 0.9183984375 0.4418984375 0.0085 0.013750000000000002 -1.53 -0.999167945271 0.0407850112416
3 0.8508984374999999 0.5386484375 0.010875 0.013250000000000001 2.21 0.802571066247 -0.596556521734
3 0.9086484375 0.5550234375 0.00775 0.012 2.5 0.598472144104 -0.801143615547
0 0.7681484375000001 0.4717734375 0.0225 0.05500000000000001 -1.62 -0.998789743471 -0.0491838219142
0 0.7305234375 0.4351484375 0.025500000000000002 0.05775 -1.51 -0.998152472498 0.0607588812194
1 0.6490234375 0.43364843749999993 0.022375 0.062375 -1.49 -0.996737752043 0.0807084484548
