0 0.7443984375 0.5032734375000001 0.020624999999999998 0.046125 1.58 0.999957646499 -0.00920354326881
0 0.9412734375 0.5571484375 0.0215 0.0485 0.8 0.7173560909 0.696706709347
0 0.8045234375 0.5560234375 0.018625 0.04325 0.8 0.7173560909 0.696706709347
0 0.7226484375 0.5523984375 0.020125 0.045625 0.77 0.696135238627 0.717910669611
0 0.9036484375 0.4178984375 0.02 0.047125 -1.58 -0.999957646499 -0.00920354326881
0 0.6906484375 0.4205234375 0.021249999999999998 0.049625 -1.66 -0.996023989917 -0.0890854169365
0 0.8082734375 0.3653984375 0.020624999999999998 0.057874999999999996 -1.6 -0.999573603042 -0.0291995223013
0 0.4617734375 0.4411484375 0.023 0.057374999999999995 -1.67 -0.99508334981 -0.0990410365987
0 0.16377343750000006 0.49589843749999996 0.01975 0.046 -1.79 -0.976070921983 -0.217452420681
0 0.6003984375 0.3762734375 0.02025 0.052375000000000005 -1.71 -0.990326804156 -0.138754534952
0 0.7038984375 0.23264843749999997 0.02225 0.05425 -1.88 -0.952576194272 -0.30430017106
0 0.23364843749999997 0.5510234374999999 0.01825 0.0395 1.26 0.952090341591 0.305816908378
0 0.6132734375 0.3241484375 0.01875 0.056625 -1.68 -0.994043202198 -0.10898675224
