3 0.7433984375 0.5645234375 0.007375 0.010374999999999999 -1.57 -0.999999682932 0.000796326710733
3 0.7491484375 0.5726484375 0.0063750000000000005 0.0075 -1.54 -0.999525830605 0.0307914590825
3 0.6982734375 0.32789843750000003 0.007000000000000001 0.00925 -2.41 -0.668055593416 -0.744111365392
