0 0.0997734375 0.4408984375 0.021625 0.038125 1.56 0.99994172023 0.0107961170583
2 0.0468984375 0.4857734375 0.032875 0.15425 1.59 0.999815615134 -0.0192024929017
6 0.5115234375 0.3736484375 0.033375 0.213 1.57 0.999999682932 0.000796326710733
