0 0.8296484375 0.38777343750000004 0.02 0.051375000000000004 -1.61 -0.999231634421 -0.039193631773
0 0.7113984375 0.39114843749999995 0.020374999999999997 0.051375000000000004 -1.61 -0.999231634421 -0.039193631773
0 0.6267734375 0.3962734375 0.020125 0.047875 -1.62 -0.998789743471 -0.0491838219142
