0 0.8988984375 0.5320234375 0.0195 0.03275 1.48 0.995880844538 0.0906716244643
0 0.9046484375 0.4651484375 0.019125 0.0485 -1.69 -0.992903651094 -0.118921569297
0 0.3541484374999999 0.5401484375 0.021249999999999998 0.047125 -1.83 -0.966594391833 -0.256310908228
