0 0.9078984375 0.5001484375 0.020374999999999997 0.041499999999999995 1.57 0.999999682932 0.000796326710733
2 0.6962734375 0.4407734375000001 0.031125000000000003 0.092875 -2.55 -0.557683717391 -0.830053535235
0 0.6512734375 0.7320234375 0.021625 0.05325 3.08 0.0615537174299 -0.998103772095
