0 0.7438984375 0.5027734374999999 0.020749999999999998 0.04 1.54 0.999525830605 0.0307914590825
6 0.7051484375 0.5887734375 0.027125 0.18575 -1.6 -0.999573603042 -0.0291995223013
6 0.5483984375 0.5940234375 0.028499999999999998 0.12662500000000002 -1.61 -0.999231634421 -0.039193631773
6 0.4058984375 0.6031484375 0.028499999999999998 0.15975 -1.64 -0.997606381319 -0.0691484486541
6 0.22039843749999988 0.6196484375 0.028999999999999998 0.184125 -1.68 -0.994043202198 -0.10898675224
3 0.7407734375 0.3626484375000001 0.0063750000000000005 0.010875 -1.63 -0.998247974378 -0.0591690937141
