0 0.9277734375 0.44264843750000005 0.020499999999999997 0.057125 -1.49 -0.996737752043 0.0807084484548
1 0.5821484375 0.4750234375 0.025374999999999998 0.0675 2.06 0.882707350816 -0.469923113728
0 0.5683984375 0.38014843750000005 0.022625 0.038125 1.94 0.932615014022 -0.36087288014
