5 0.9706484375 0.5330234375 0.006625000000000001 0.023625 1.56 0.99994172023 0.0107961170583
0 0.8573984375 0.4585234375 0.020499999999999997 0.04725 -1.66 -0.996023989917 -0.0890854169365
0 0.8030234375 0.4645234375 0.021374999999999998 0.053500000000000006 -1.66 -0.996023989917 -0.0890854169365
1 0.7540234375 0.6306484375 0.026500000000000003 0.07075000000000001 0.02 0.0199986666933 0.999800006667
0 0.6972734375 0.5580234374999999 0.021374999999999998 0.049125 1.55 0.999783764189 0.0207948278031
0 0.6880234375000001 0.4731484375 0.020624999999999998 0.0495 -1.66 -0.996023989917 -0.0890854169365
0 0.6208984375 0.5615234375 0.023625 0.054625 1.54 0.999525830605 0.0307914590825
0 0.6260234375 0.47752343750000004 0.018875 0.041125 -1.63 -0.998247974378 -0.0591690937141
