0 0.7156484375000001 0.49352343750000005 0.021124999999999998 0.042249999999999996 1.62 0.998789743471 -0.0491838219142
0 0.8653984375 0.41977343749999996 0.019625 0.0435 -0.7 -0.644217687238 0.764842187284
0 0.8930234375 0.4671484375 0.02175 0.04575 1.58 0.999957646499 -0.00920354326881
0 0.8257734375 0.4643984375 0.019875 0.045625 1.63 0.998247974378 -0.0591690937141
0 0.7651484375 0.46064843749999995 0.02 0.041875 1.58 0.999957646499 -0.00920354326881
0 0.7428984375000001 0.42102343749999993 0.019 0.041249999999999995 -0.67 -0.620985987037 0.783821665881
0 0.9466484375 0.5337734375000001 0.0215 0.049375 1.58 0.999957646499 -0.00920354326881
0 0.8861484375 0.5312734375 0.021249999999999998 0.0505 1.57 0.999999682932 0.000796326710733
0 0.8111484375 0.5316484375 0.0185 0.041999999999999996 1.62 0.998789743471 -0.0491838219142
0 0.5908984374999999 0.30277343749999996 0.020749999999999998 0.051125 -1.57 -0.999999682932 0.000796326710733
0 0.7135234375 0.30477343749999997 0.01925 0.044625 -1.59 -0.999815615134 -0.0192024929017
