0 0.9213984375 0.5328984375 0.018625 0.047375 1.59 0.999815615134 -0.0192024929017
0 0.8471484375 0.5313984375 0.019125 0.051625 1.6 0.999573603042 -0.0291995223013
0 0.7568984375 0.4577734375 0.020624999999999998 0.048875 1.57 0.999999682932 0.000796326710733
0 0.7452734375 0.5330234375 0.019625 0.051125 1.56 0.99994172023 0.0107961170583
0 0.6306484375 0.4507734375 0.020374999999999997 0.05487499999999999 -1.55 -0.999783764189 0.0207948278031
0 0.6453984375 0.5305234375000001 0.01975 0.044125 1.56 0.99994172023 0.0107961170583
0 0.5073984374999999 0.5282734375 0.020874999999999998 0.05500000000000001 1.56 0.99994172023 0.0107961170583
7 0.4195234374999999 0.5282734375 0.026625 0.0725 1.58 0.999957646499 -0.00920354326881
