0 0.8890234375 0.43902343750000006 0.020999999999999998 0.047 -1.58 -0.999957646499 -0.00920354326881
0 0.9516484375 0.5447734375 0.020499999999999997 0.044 1.55 0.999783764189 0.0207948278031
0 0.8217734375 0.43827343750000003 0.020999999999999998 0.05425 -1.59 -0.999815615134 -0.0192024929017
0 0.8863984375 0.5425234375 0.020499999999999997 0.05175 1.59 0.999815615134 -0.0192024929017
0 0.6246484375 0.44264843750000005 0.02 0.04 -1.61 -0.999231634421 -0.039193631773
0 0.8236484374999999 0.5431484375 0.020749999999999998 0.04375 1.57 0.999999682932 0.000796326710733
0 0.7545234375000001 0.5460234374999999 0.020125 0.043875 1.56 0.99994172023 0.0107961170583
0 0.6846484375 0.5480234375 0.020999999999999998 0.0475 1.58 0.999957646499 -0.00920354326881
0 0.5661484375 0.44527343750000004 0.020374999999999997 0.046 -1.63 -0.998247974378 -0.0591690937141
0 0.6162734375 0.5535234375 0.020125 0.044375 1.56 0.99994172023 0.0107961170583
