0 0.9052734375 0.45327343750000004 0.021875 0.055874999999999994 -1.58 -0.999957646499 -0.00920354326881
1 0.8031484375 0.44864843749999994 0.020874999999999998 0.04925 -1.59 -0.999815615134 -0.0192024929017
0 0.5891484374999999 0.45327343750000004 0.0185 0.047 -1.56 -0.99994172023 0.0107961170583
1 0.5113984374999999 0.45264843749999994 0.020749999999999998 0.050624999999999996 -1.57 -0.999999682932 0.000796326710733
