3 0.8293984375 0.4342734375 0.00925 0.007000000000000001 0.03 0.0299955002025 0.999550033749
0 0.8528984374999999 0.38477343750000004 0.020499999999999997 0.057874999999999996 -1.81 -0.971526955822 -0.236929048685
1 0.6986484374999999 0.45727343749999994 0.021374999999999998 0.049 -2.34 -0.718464793069 -0.695563326463
2 0.6028984374999999 0.6622734375 0.0325 0.148 2.97 0.170751828951 -0.985314068158
0 0.09414843750000002 0.6457734375 0.019875 0.04325 1.45 0.992712991038 0.120502769367
0 0.47689843749999994 0.29102343750000004 0.02025 0.045875 2.77 0.363099847204 -0.931750235289
0 0.2842734375 0.4647734375 0.01625 0.0505 -1.76 -0.982154317138 -0.188076838893
0 0.27739843749999993 0.4205234375 0.018 0.046125 -1.81 -0.971526955822 -0.236929048685
0 0.21064843749999995 0.4771484375 0.014249999999999999 0.04325 -1.8 -0.973847630878 -0.227202094693
