0 0.6950234375 0.48627343749999996 0.02 0.0445 1.62 0.998789743471 -0.0491838219142
0 0.5665234375 0.44602343749999995 0.020374999999999997 0.044625 1.56 0.99994172023 0.0107961170583
0 0.8113984375000001 0.32964843750000006 0.024125 0.044 -1.45 -0.992712991038 0.120502769367
1 0.37027343749999997 0.4680234375000001 0.020499999999999997 0.065 1.65 0.996865028454 -0.0791208888067
