0 0.5573984375 0.4933984375 0.022 0.048 1.6 0.999573603042 -0.0291995223013
1 0.8926484375 0.40702343750000003 0.023875 0.081625 1.59 0.999815615134 -0.0192024929017
0 0.7986484375 0.4012734375 0.020499999999999997 0.04775 1.58 0.999957646499 -0.00920354326881
7 0.6203984375 0.4505234375 0.025374999999999998 0.064125 1.57 0.999999682932 0.000796326710733
7 0.8082734375 0.45264843749999994 0.027750000000000004 0.06899999999999999 1.58 0.999957646499 -0.00920354326881
2 0.3028984374999999 0.44664843750000005 0.03125 0.20550000000000002 1.6 0.999573603042 -0.0291995223013
