0 0.9003984375 0.4002734375 0.02025 0.050124999999999996 -3.02 -0.121293255031 -0.992616716706
0 0.8691484375 0.40477343750000006 0.018875 0.043625000000000004 0.08 0.0799146939692 0.996801706303
0 0.7907734375 0.3836484375 0.020624999999999998 0.046875 -2.94 -0.200229984722 -0.979748923561
0 0.7555234375 0.3773984374999999 0.021875 0.046625 -2.91 -0.229527947021 -0.973302071063
0 0.7145234375 0.36852343750000005 0.020499999999999997 0.046125 -2.94 -0.200229984722 -0.979748923561
0 0.4900234374999999 0.41477343749999995 0.020749999999999998 0.04975 1.96 0.925211520788 -0.379451764788
