0 0.7743984375 0.49327343749999997 0.020374999999999997 0.045875 1.58 0.999957646499 -0.00920354326881
0 0.6981484375 0.4976484375 0.021124999999999998 0.054000000000000006 1.57 0.999999682932 0.000796326710733
0 0.7807734375 0.5351484375 0.0195 0.043125000000000004 1.57 0.999999682932 0.000796326710733
0 0.7075234375 0.5310234375 0.019125 0.050875000000000004 1.61 0.999231634421 -0.039193631773
0 0.6351484375 0.5262734375 0.019125 0.052000000000000005 1.55 0.999783764189 0.0207948278031
