0 0.5660234375 0.48952343750000005 0.022 0.048 1.59 0.999815615134 -0.0192024929017
0 0.9135234375 0.44139843749999996 0.020499999999999997 0.049875 1.56 0.99994172023 0.0107961170583
0 0.8208984375 0.39277343750000004 0.020749999999999998 0.050875000000000004 1.57 0.999999682932 0.000796326710733
0 0.7983984375 0.44264843750000005 0.019625 0.0465 1.57 0.999999682932 0.000796326710733
0 0.6993984375 0.3866484375 0.01975 0.04575 1.58 0.999957646499 -0.00920354326881
0 0.6971484375 0.43202343750000005 0.020499999999999997 0.049375 1.58 0.999957646499 -0.00920354326881
7 0.6102734375000001 0.4417734375 0.0235 0.03175 1.58 0.999957646499 -0.00920354326881
1 0.5465234375 0.4405234375 0.02475 0.058125 1.58 0.999957646499 -0.00920354326881
1 0.05502343750000005 0.42364843750000003 0.02525 0.077125 1.61 0.999231634421 -0.039193631773
0 0.8096484374999999 0.34852343750000003 0.020749999999999998 0.04775 1.58 0.999957646499 -0.00920354326881
