6 0.03777343750000006 0.6151484375 0.029625000000000002 0.29112499999999997 1.57 0.999999682932 0.000796326710733
0 0.8395234375 0.38714843749999994 0.018125 0.042499999999999996 -1.66 -0.996023989917 -0.0890854169365
0 0.7791484375 0.38752343749999996 0.021374999999999998 0.05387499999999999 -1.58 -0.999957646499 -0.00920354326881
0 0.6577734375 0.3918984375 0.020749999999999998 0.050124999999999996 -1.58 -0.999957646499 -0.00920354326881
0 0.5930234375 0.39477343749999994 0.02 0.04875 -1.61 -0.999231634421 -0.039193631773
0 0.3453984374999999 0.4028984375 0.020874999999999998 0.056999999999999995 -1.61 -0.999231634421 -0.039193631773
5 0.5261484375 0.6510234375 0.0055 0.021249999999999998 1.57 0.999999682932 0.000796326710733
