0 0.9007734375 0.4172734375 0.019625 0.04325 3.13 0.0115923939362 -0.999932805944
1 0.8707734375 0.4222734375 0.021875 0.05337499999999999 3.14 0.00159265291649 -0.999998731728
0 0.8185234375 0.5808984374999999 0.0195 0.0435 2.06 0.882707350816 -0.469923113728
0 0.6662734375 0.5291484375 0.018875 0.043125000000000004 1.69 0.992903651094 -0.118921569297
0 0.8073984375000001 0.4132734375 0.019625 0.042375 -3.11 -0.0315873984365 -0.999500993626
0 0.7781484375000001 0.41114843749999996 0.02025 0.045375 -3.14 -0.00159265291649 -0.999998731728
0 0.7186484375 0.41539843750000005 0.020499999999999997 0.050124999999999996 3.13 0.0115923939362 -0.999932805944
0 0.5432734375 0.5223984374999999 0.020374999999999997 0.051875000000000004 1.65 0.996865028454 -0.0791208888067
