3 0.9366484375 0.5388984375 0.006500000000000001 0.011875 -1.3 -0.963558185417 0.267498828625
3 0.8866484375 0.5358984375 0.00575 0.01125 -1.42 -0.988651762852 0.150225469912
3 0.8855234375 0.5403984375 0.00575 0.010249999999999999 -1.39 -0.983700814811 0.179812977673
3 0.7347734375 0.5192734375 0.006625000000000001 0.008 1.9 0.946300087687 -0.323289566864
3 0.8506484375000001 0.4365234375 0.00825 0.008375 1.95 0.928959715004 -0.370180831351
3 0.7820234375 0.4677734375 0.006625000000000001 0.0085 -1.34 -0.973484541695 0.228752807808
3 0.7773984375 0.4741484375 0.0085 0.0125 -1.16 -0.916803108772 0.399339529406
3 0.9085234375 0.5597734375 0.007375 0.01125 1.94 0.932615014022 -0.36087288014
3 0.7797734375 0.4531484375 0.008749999999999999 0.009125 1.53 0.999167945271 0.0407850112416
3 0.7618984375 0.44264843750000005 0.00825 0.012125 -0.79 -0.710353272418 0.703845315652
3 0.7710234375 0.4397734375 0.0075 0.014374999999999999 0.09 0.089878549198 0.995952733012
3 0.6793984375 0.5083984375 0.007625 0.007875 0.9 0.783326909627 0.621609968271
1 0.9495234375 0.4595234375 0.024875 0.064875 1.93 0.936177052316 -0.351528841941
