0 0.9536484375000001 0.4595234375 0.02225 0.046125 1.56 0.99994172023 0.0107961170583
5 0.7665234375000001 0.6298984375 0.00975 0.021374999999999998 1.08 0.881957806885 0.471328364174
0 0.6181484375 0.45527343750000004 0.020499999999999997 0.046 -0.87 -0.764328937026 0.64482654724
7 0.7213984375 0.36989843750000007 0.01075 0.026500000000000003 -1.49 -0.996737752043 0.0807084484548
0 0.7782734375 0.3388984374999999 0.02225 0.05675 -1.46 -0.993868363412 0.11056977982
