0 0.6918984375 0.43639843750000007 0.019625 0.044125 -1.36 -0.977864602435 0.209238665891
3 0.6795234375 0.5411484375 0.008624999999999999 0.010374999999999999 -1.24 -0.94578399945 0.324796284439
0 0.43339843749999996 0.4523984375000001 0.0215 0.05275 -2.46 -0.630030629996 -0.776570283533
0 0.5811484375 0.36727343749999997 0.021374999999999998 0.05175 -0.64 -0.597195441362 0.802095757884
0 0.7480234375 0.3076484374999999 0.023375 0.046125 -1.35 -0.975723357827 0.219006687093
0 0.38889843749999997 0.5441484375 0.023375 0.059250000000000004 -2.75 -0.381660992052 -0.924302378632
