0 0.5380234374999999 0.4900234375 0.02 0.0445 1.6 0.999573603042 -0.0291995223013
0 0.42139843749999994 0.44964843749999994 0.020374999999999997 0.044625 1.58 0.999957646499 -0.00920354326881
1 0.25889843749999997 0.4923984375 0.020499999999999997 0.065 1.57 0.999999682932 0.000796326710733
