0 0.6895234375 0.7392734375 0.021374999999999998 0.04925 -1.54 -0.999525830605 0.0307914590825
0 0.6987734375 0.7026484375 0.02025 0.041999999999999996 1.68 0.994043202198 -0.10898675224
0 0.6927734375 0.6707734375000001 0.0215 0.04475 1.64 0.997606381319 -0.0691484486541
0 0.5352734375 0.5080234375 0.019125 0.03975 1.62 0.998789743471 -0.0491838219142
3 0.6181484375 0.28477343749999995 0.009125 0.006625000000000001 1.96 0.925211520788 -0.379451764788
3 0.6820234375 0.36327343749999996 0.008875 0.016 -1.59 -0.999815615134 -0.0192024929017
5 0.6647734375000001 0.47689843749999994 0.00925 0.022625 -1.2 -0.932039085967 0.362357754477
3 0.6053984375 0.31139843750000007 0.009125 0.012 -1.53 -0.999167945271 0.0407850112416
3 0.8137734375 0.43939843750000007 0.010875 0.013625000000000002 -0.83 -0.73793137111 0.674875760071
3 0.8068984375 0.44727343750000004 0.011 0.0125 -0.8 -0.7173560909 0.696706709347
3 0.8201484375 0.45964843750000006 0.011 0.014124999999999999 -0.84 -0.744643119971 0.667462825841
3 0.8638984375000001 0.5015234375000001 0.010499999999999999 0.013250000000000001 -0.72 -0.659384671971 0.751805729141
3 0.8545234375 0.5096484375 0.01125 0.013875000000000002 -0.76 -0.688921445111 0.724836010741
3 0.8582734375000001 0.4675234374999999 0.00975 0.014000000000000002 -0.66 -0.613116851973 0.789992231497
3 0.8515234375 0.4753984375 0.00925 0.014499999999999999 -0.71 -0.651833771022 0.758361875991
3 0.8440234375 0.48164843749999997 0.00825 0.013750000000000002 -0.75 -0.681638760023 0.731688868874
3 0.8327734375 0.4491484375 0.009875 0.012875000000000001 -0.83 -0.73793137111 0.674875760071
