0 0.19639843750000008 0.4787734375 0.02 0.0445 1.6 0.999573603042 -0.0291995223013
0 0.9073984375 0.41177343749999995 0.020499999999999997 0.044875 -1.57 -0.999999682932 0.000796326710733
0 0.03177343750000006 0.44339843749999996 0.020374999999999997 0.044625 1.6 0.999573603042 -0.0291995223013
