0 0.7390234375 0.42302343750000004 0.020749999999999998 0.05475 -0.01 -0.00999983333417 0.999950000417
0 0.7880234375 0.5471484375 0.02325 0.05225 -0.04 -0.0399893341866 0.999200106661
0 0.7463984375 0.5456484374999999 0.020749999999999998 0.054625 0.03 0.0299955002025 0.999550033749
0 0.6120234375 0.4115234375 0.020874999999999998 0.053500000000000006 3.09 0.0515697683985 -0.998669394238
0 0.5330234375 0.4112734375 0.020874999999999998 0.054625 -3.03 -0.111361188687 -0.993779998619
