3 0.7043984375 0.37477343750000003 0.00975 0.01175 1.77 0.980224472788 -0.197888814609
3 0.5868984374999999 0.38414843750000005 0.008624999999999999 0.015125 1.57 0.999999682932 0.000796326710733
3 0.8293984375 0.37614843750000004 0.00825 0.01 -1.63 -0.998247974378 -0.0591690937141
3 0.5638984375 0.3101484375 0.007375 0.008749999999999999 1.6 0.999573603042 -0.0291995223013
0 0.2648984375 0.4680234375000001 0.022375 0.0495 1.57 0.999999682932 0.000796326710733
0 0.6960234375000001 0.6708984375 0.0195 0.041625 1.64 0.997606381319 -0.0691484486541
0 0.6973984375 0.7035234375 0.019875 0.041875 1.65 0.996865028454 -0.0791208888067
0 0.6895234375 0.7383984375 0.01875 0.0475 -1.54 -0.999525830605 0.0307914590825
3 0.8290234375000001 0.36552343750000005 0.006125 0.009125 -1.46 -0.993868363412 0.11056977982
3 0.5740234375 0.33564843749999995 0.0095 0.010499999999999999 1.57 0.999999682932 0.000796326710733
3 0.5761484374999999 0.3275234375 0.008125 0.013375000000000001 1.55 0.999783764189 0.0207948278031
3 0.8148984375 0.3813984375 0.007124999999999999 0.00625 -1.57 -0.999999682932 0.000796326710733
3 0.8042734375 0.36314843750000003 0.007375 0.007625 -1.56 -0.99994172023 0.0107961170583
3 0.8906484375 0.5192734375 0.006875000000000001 0.016 2.38 0.690074983557 -0.723737878703
3 0.8792734375 0.5511484375 0.009375 0.013000000000000001 2.46 0.630030629996 -0.776570283533
5 0.6062734375000001 0.42764843750000003 0.0063750000000000005 0.021625 -1.54 -0.999525830605 0.0307914590825
3 0.8043984375 0.3517734375 0.00575 0.005375 -1.45 -0.992712991038 0.120502769367
3 0.8076484375 0.3401484375 0.006500000000000001 0.008624999999999999 -1.54 -0.999525830605 0.0307914590825
0 0.5243984374999999 0.5080234375 0.020499999999999997 0.056374999999999995 1.61 0.999231634421 -0.039193631773
3 0.5155234375 0.2806484375 0.01 0.00625 -0.19 -0.188858894977 0.982004235117
3 0.6090234375 0.29339843749999994 0.006625000000000001 0.0043749999999999995 -3.12 -0.0215909757261 -0.999766887713
3 0.5471484375 0.8341484375 0.01 0.0095 -3.13 -0.0115923939362 -0.999932805944
