0 0.6891484375 0.5010234375 0.021124999999999998 0.042249999999999996 1.57 0.999999682932 0.000796326710733
0 0.9227734375 0.44202343749999995 0.02025 0.043375000000000004 2.4 0.675463180551 -0.737393715541
0 0.8267734375 0.4401484375 0.019375 0.0495 2.42 0.660581201279 -0.750754604725
0 0.7893984375 0.44102343749999995 0.019875 0.044625 2.36 0.70441076577 -0.709792556362
0 0.6941484375 0.43564843750000004 0.019625 0.047875 2.36 0.70441076577 -0.709792556362
1 0.6630234375 0.44464843749999994 0.02275 0.058625000000000003 2.39 0.682803221931 -0.730602326934
3 0.8082734375 0.5447734375 0.00925 0.013500000000000002 1.58 0.999957646499 -0.00920354326881
0 0.8327734375 0.6151484375 0.022125 0.050749999999999997 0.12 0.119712207289 0.992808635854
0 0.5256484374999999 0.5008984375 0.020874999999999998 0.045125 1.55 0.999783764189 0.0207948278031
1 0.5295234375 0.4407734375000001 0.020874999999999998 0.05525 2.57 0.540972220377 -0.841040460846
1 0.8286484375000001 0.6868984375 0.03075 0.073125 0.03 0.0299955002025 0.999550033749
0 0.7018984375 0.32002343749999995 0.021625 0.05275 -1.56 -0.99994172023 0.0107961170583
0 0.6315234375000001 0.31902343750000006 0.01825 0.041499999999999995 -1.63 -0.998247974378 -0.0591690937141
3 0.5911484375 0.3135234375 0.01 0.00625 2.12 0.852940481553 -0.522008175155
