3 0.8621484375 0.5318984375 0.011375 0.011375 1.64 0.997606381319 -0.0691484486541
5 0.7960234374999999 0.4607734375 0.010624999999999999 0.022375 -1.59 -0.999815615134 -0.0192024929017
3 0.7510234375 0.5230234375 0.011 0.006125 1.61 0.999231634421 -0.039193631773
5 0.8310234375000001 0.4515234375 0.00825 0.024375 -1.55 -0.999783764189 0.0207948278031
1 0.5650234375 0.4920234375 0.025750000000000002 0.073375 1.61 0.999231634421 -0.039193631773
