0 0.8090234375 0.5061484375 0.018875 0.05437499999999999 -1.93 -0.936177052316 -0.351528841941
0 0.8063984375 0.5411484375 0.020999999999999998 0.0485 -1.97 -0.921370806191 -0.388684753365
0 0.8991484375 0.4900234375 0.02175 0.049875 -2.1 -0.863209366649 -0.5048461046
0 0.7432734375 0.5325234375 0.020999999999999998 0.053625 -1.95 -0.928959715004 -0.370180831351
0 0.6572734375 0.5683984375 0.017499999999999998 0.0475 -1.96 -0.925211520788 -0.379451764788
1 0.3958984375 0.6737734375 0.026250000000000002 0.0705 -1.88 -0.952576194272 -0.30430017106
0 0.5005234375 0.6316484375 0.020624999999999998 0.037 -1.87 -0.955571516853 -0.294759352997
