0 0.9318984375 0.46202343749999997 0.02 0.04575 1.58 0.999957646499 -0.00920354326881
0 0.6847734375 0.4600234375000001 0.020374999999999997 0.051000000000000004 -1.65 -0.996865028454 -0.0791208888067
0 0.8381484375 0.5282734375 0.019875 0.030875000000000003 1.55 0.999783764189 0.0207948278031
5 0.5922734374999999 0.49189843749999995 0.006875000000000001 0.014875 -1.58 -0.999957646499 -0.00920354326881
0 0.7777734375 0.5288984375 0.019875 0.04025 1.5 0.997494986604 0.0707372016677
0 0.5870234375 0.46302343749999997 0.020874999999999998 0.0465 1.53 0.999167945271 0.0407850112416
0 0.3742734375 0.5283984375 0.020125 0.04675 -1.59 -0.999815615134 -0.0192024929017
0 0.7630234375 0.4085234375 0.020374999999999997 0.055374999999999994 3.14 0.00159265291649 -0.999998731728
