0 0.6846484375 0.49052343750000005 0.020749999999999998 0.04 1.59 0.999815615134 -0.0192024929017
0 0.3255234375 0.4050234375 0.018875 0.04625 -1.56 -0.99994172023 0.0107961170583
0 0.15339843750000015 0.4378984375 0.020749999999999998 0.050624999999999996 -1.57 -0.999999682932 0.000796326710733
5 0.5212734374999999 0.3401484375 0.00625 0.024375 -1.54 -0.999525830605 0.0307914590825
