0 0.6690234375 0.47989843749999994 0.02 0.0445 1.64 0.997606381319 -0.0691484486541
0 0.5320234374999999 0.43539843749999996 0.020374999999999997 0.044625 1.64 0.997606381319 -0.0691484486541
1 0.3517734375 0.4575234375 0.020499999999999997 0.065 1.67 0.99508334981 -0.0990410365987
