0 0.8312734374999999 0.5497734375000001 0.022125 0.06375 1.53 0.999167945271 0.0407850112416
0 0.9457734375 0.44139843749999996 0.019375 0.045625 -1.59 -0.999815615134 -0.0192024929017
0 0.8880234375 0.44227343750000003 0.020374999999999997 0.049 -1.59 -0.999815615134 -0.0192024929017
0 0.5548984375 0.45727343749999994 0.020749999999999998 0.047 -1.64 -0.997606381319 -0.0691484486541
0 0.7542734375 0.5526484375 0.020749999999999998 0.04825 1.51 0.998152472498 0.0607588812194
0 0.6835234375 0.5563984375000001 0.019875 0.041749999999999995 1.57 0.999999682932 0.000796326710733
0 0.6187734375 0.5596484375 0.02 0.04625 1.51 0.998152472498 0.0607588812194
0 0.5508984375 0.5637734375 0.020499999999999997 0.044 1.52 0.998710143976 0.0507744849336
0 0.21739843749999999 0.4873984375 0.02 0.04 -1.68 -0.994043202198 -0.10898675224
