3 0.8105234375 0.6178984375 0.007625 0.01175 -1.56 -0.99994172023 0.0107961170583
0 0.3098984375 0.6732734375 0.022 0.05125 -3.09 -0.0515697683985 -0.998669394238
0 0.12952343749999995 0.4587734375 0.02225 0.046125 1.57 0.999999682932 0.000796326710733
