0 0.8796484375 0.3952734375 0.02225 0.053125 3.14 0.00159265291649 -0.999998731728
0 0.6471484375000001 0.3956484375 0.020499999999999997 0.04625 0.02 0.0199986666933 0.999800006667
5 0.8041484375 0.6123984375 0.0063750000000000005 0.023125 1.58 0.999957646499 -0.00920354326881
5 0.7595234375 0.6031484375 0.005375 0.021249999999999998 1.49 0.996737752043 0.0807084484548
5 0.6931484375 0.6152734375 0.0055 0.022375 1.35 0.975723357827 0.219006687093
0 0.2502734375 0.7606484375 0.021249999999999998 0.055625 -1.94 -0.932615014022 -0.36087288014
