0 0.6553984375 0.4867734375 0.022 0.048 1.6 0.999573603042 -0.0291995223013
0 0.8456484375 0.4018984375000001 0.02025 0.049375 1.57 0.999999682932 0.000796326710733
0 0.8113984375000001 0.45727343749999994 0.0215 0.053000000000000005 1.58 0.999957646499 -0.00920354326881
0 0.7101484375 0.3958984375 0.020125 0.0465 1.58 0.999957646499 -0.00920354326881
0 0.7006484374999999 0.3377734375 0.020749999999999998 0.051625 1.58 0.999957646499 -0.00920354326881
0 0.6398984375 0.4461484375 0.020499999999999997 0.047625 1.57 0.999999682932 0.000796326710733
0 0.4870234375 0.4457734375 0.020125 0.052625 1.58 0.999957646499 -0.00920354326881
1 0.07652343750000001 0.42364843750000003 0.026125 0.0745 1.62 0.998789743471 -0.0491838219142
0 0.6135234375 0.34089843750000004 0.019375 0.049875 1.58 0.999957646499 -0.00920354326881
