0 0.7030234375 0.49552343749999994 0.021124999999999998 0.042249999999999996 1.53 0.999167945271 0.0407850112416
0 0.8426484375000001 0.4335234375 0.02025 0.0465 2.39 0.682803221931 -0.730602326934
0 0.7681484375000001 0.43727343750000003 0.020749999999999998 0.044375 2.48 0.614374257806 -0.78901474723
0 0.5653984375 0.4322734374999999 0.020374999999999997 0.047875 2.76 0.372399039425 -0.928072710209
0 0.9435234375 0.5447734375 0.021625 0.05275 1.57 0.999999682932 0.000796326710733
0 0.7257734375 0.5423984374999999 0.020749999999999998 0.051000000000000004 1.57 0.999999682932 0.000796326710733
1 0.4647734375 0.5415234375 0.025374999999999998 0.068625 1.6 0.999573603042 -0.0291995223013
0 0.7670234375 0.38377343750000004 0.02025 0.04425 -1.53 -0.999167945271 0.0407850112416
0 0.5785234375 0.5006484375 0.020874999999999998 0.045125 1.56 0.99994172023 0.0107961170583
0 0.7062734375 0.3141484375 0.019 0.046625 -1.63 -0.998247974378 -0.0591690937141
