0 0.9481484375 0.4657734375 0.020874999999999998 0.05375 -1.55 -0.999783764189 0.0207948278031
0 0.8300234375 0.5322734375 0.01925 0.04525 1.57 0.999999682932 0.000796326710733
0 0.6171484375 0.46764843750000007 0.019625 0.05525 -1.57 -0.999999682932 0.000796326710733
0 0.6696484375 0.5326484375 0.01975 0.049 -1.55 -0.999783764189 0.0207948278031
