0 0.8000234374999999 0.5067734374999999 0.020624999999999998 0.046125 1.56 0.99994172023 0.0107961170583
0 0.7566484375 0.5615234375 0.0215 0.0485 0.77 0.696135238627 0.717910669611
0 0.6221484375 0.5620234375 0.018625 0.04325 0.78 0.7032794192 0.710913538012
0 0.5378984375 0.5596484375 0.020125 0.045625 0.76 0.688921445111 0.724836010741
