6 0.6985234375 0.6095234375 0.034999999999999996 0.16275 0.38 0.370920469413 0.928664635577
3 0.9137734375 0.5031484374999999 0.01175 0.013625000000000002 -3.0 -0.14112000806 -0.9899924966
3 0.9213984375 0.47752343750000004 0.01 0.012375 -2.8 -0.334988150156 -0.942222340669
3 0.9270234375 0.5388984375 0.0115 0.0115 0.14 0.139543114644 0.990215996213
0 0.8276484375 0.6185234375 0.023 0.058625000000000003 0.27 0.266731436689 0.963770896366
