0 0.7762734375 0.4168984375 0.020125 0.045125 -1.61 -0.999231634421 -0.039193631773
7 0.6148984375 0.4362734375 0.008875 0.024375 -1.64 -0.997606381319 -0.0691484486541
0 0.30964843749999993 0.5433984374999999 0.020374999999999997 0.045875 2.05 0.887362368633 -0.461072691377
0 0.3606484375 0.43539843749999996 0.019875 0.046125 -1.73 -0.987353839701 -0.158532000644
0 0.2602734375 0.5742734374999999 0.020874999999999998 0.048 1.5 0.997494986604 0.0707372016677
