0 0.5562734375 0.4771484375 0.022 0.048 1.75 0.983985946874 -0.178246055649
0 0.38089843749999996 0.4246484374999999 0.0195 0.043125000000000004 1.91 0.94301993129 -0.332736245681
0 0.1426484375000001 0.30677343749999997 0.020749999999999998 0.047 2.21 0.802571066247 -0.596556521734
