0 0.9516484375 0.5327734375000001 0.019125 0.0445 1.56 0.99994172023 0.0107961170583
0 0.8890234375 0.5345234375000001 0.02 0.047625 1.58 0.999957646499 -0.00920354326881
0 0.4318984374999999 0.46164843749999995 0.019875 0.044875 -1.57 -0.999999682932 0.000796326710733
0 0.7598984375 0.5370234375 0.018375 0.04625 1.59 0.999815615134 -0.0192024929017
0 0.7038984375 0.5342734375 0.020499999999999997 0.048625 1.6 0.999573603042 -0.0291995223013
0 0.5345234375 0.5332734375 0.019875 0.047375 1.61 0.999231634421 -0.039193631773
3 0.6663984375 0.5576484374999999 0.008624999999999999 0.0085 1.57 0.999999682932 0.000796326710733
