3 0.9390234375 0.5291484375 0.011125 0.013250000000000001 1.78 0.978196606808 -0.207681001609
3 0.8746484375 0.4866484375 0.011125 0.013000000000000001 -1.69 -0.992903651094 -0.118921569297
0 0.8561484375 0.46727343750000006 0.025500000000000002 0.05775 -1.65 -0.996865028454 -0.0791208888067
1 0.7723984375 0.4773984375 0.022375 0.062375 -1.63 -0.998247974378 -0.0591690937141
4 0.9221484375 0.5600234375 0.008749999999999999 0.006625000000000001 -3.12 -0.0215909757261 -0.999766887713
4 0.9116484375 0.5541484375 0.008125 0.007625 -1.72 -0.988889766005 -0.148650700271
