0 0.7911484375 0.6706484375 0.022 0.05125 -3.08 -0.0615537174299 -0.998103772095
0 0.6148984375 0.4531484375 0.02225 0.046125 1.58 0.999957646499 -0.00920354326881
5 0.5588984375 0.5725234375 0.0075 0.022375 -0.05 -0.0499791692707 0.998750260395
5 0.5162734375 0.5368984375 0.007875 0.02275 0.06 0.0599640064794 0.998200539935
5 0.6213984375 0.3710234375 0.008 0.02175 1.28 0.958015860289 0.286715209632
0 0.4118984374999999 0.7960234375 0.022625 0.05487499999999999 0.01 0.00999983333417 0.999950000417
