0 0.9640234375 0.5352734375 0.020125 0.041749999999999995 1.59 0.999815615134 -0.0192024929017
0 0.9203984375 0.4377734375 0.021124999999999998 0.045 1.68 0.994043202198 -0.10898675224
0 0.8757734375 0.5292734375 0.019875 0.047125 1.68 0.994043202198 -0.10898675224
0 0.8558984375 0.43102343750000005 0.02175 0.055125 -1.49 -0.996737752043 0.0807084484548
0 0.7250234375 0.5120234375 0.021374999999999998 0.04475 1.68 0.994043202198 -0.10898675224
0 0.5985234375 0.4952734375000001 0.019375 0.042125 1.67 0.99508334981 -0.0990410365987
5 0.9435234375 0.46189843750000004 0.00825 0.025 -1.45 -0.992712991038 0.120502769367
