0 0.6345234375 0.49977343750000003 0.020624999999999998 0.046125 1.55 0.999783764189 0.0207948278031
0 0.8161484375 0.3633984375 0.019625 0.05475 -1.53 -0.999167945271 0.0407850112416
0 0.5456484374999999 0.3636484375 0.01925 0.045875 -1.63 -0.998247974378 -0.0591690937141
0 0.4781484375 0.36252343749999993 0.021249999999999998 0.055125 -1.57 -0.999999682932 0.000796326710733
0 0.5245234375 0.5526484375 0.019625 0.04425 0.75 0.681638760023 0.731688868874
0 0.48064843749999997 0.5560234375 0.020499999999999997 0.049875 0.81 0.72428717437 0.689498432952
0 0.44102343749999995 0.5493984375000001 0.020624999999999998 0.05225 0.77 0.696135238627 0.717910669611
