0 0.9018984375 0.45902343749999996 0.01925 0.041999999999999996 1.58 0.999957646499 -0.00920354326881
0 0.7658984375 0.48252343750000004 0.020874999999999998 0.05475 1.61 0.999231634421 -0.039193631773
0 0.6793984375 0.4681484375 0.019875 0.045625 1.55 0.999783764189 0.0207948278031
1 0.5802734375 0.41377343749999995 0.0235 0.07175000000000001 -1.61 -0.999231634421 -0.039193631773
0 0.6171484375 0.5030234375 0.018375 0.027875 1.57 0.999999682932 0.000796326710733
