3 0.7287734375 0.49189843749999995 0.010499999999999999 0.01075 1.48 0.995880844538 0.0906716244643
3 0.7283984375 0.5007734375 0.01125 0.011875 1.57 0.999999682932 0.000796326710733
3 0.8951484375000001 0.48414843750000003 0.010624999999999999 0.014374999999999999 3.0 0.14112000806 -0.9899924966
3 0.9010234375 0.5758984375 0.008624999999999999 0.007000000000000001 -2.57 -0.540972220377 -0.841040460846
3 0.7791484375 0.47489843750000005 0.010875 0.013250000000000001 -2.94 -0.200229984722 -0.979748923561
3 0.8652734375 0.4867734375 0.00775 0.012 2.81 0.325549334518 -0.945525055615
0 0.9246484375 0.4643984375 0.0225 0.05500000000000001 -1.53 -0.999167945271 0.0407850112416
3 0.8895234375 0.5476484375 0.011125 0.013250000000000001 2.15 0.836898790798 -0.54735766548
0 0.7308984375 0.4351484375 0.025500000000000002 0.05775 -1.51 -0.998152472498 0.0607588812194
1 0.6478984375 0.43402343749999994 0.022375 0.062375 -1.49 -0.996737752043 0.0807084484548
