0 0.9346484375 0.4467734375 0.022625 0.04325 1.63 0.998247974378 -0.0591690937141
0 0.8878984375 0.5318984375 0.019375 0.042125 1.58 0.999957646499 -0.00920354326881
0 0.8210234375000001 0.4427734375 0.0225 0.052000000000000005 1.57 0.999999682932 0.000796326710733
5 0.3740234375 0.4703984375 0.00825 0.022875 -1.57 -0.999999682932 0.000796326710733
0 0.18527343750000003 0.5378984375 0.023 0.05125 1.52 0.998710143976 0.0507744849336
0 0.6898984375 0.5322734375 0.020874999999999998 0.04525 1.59 0.999815615134 -0.0192024929017
