3 0.8317734375 0.4192734375 0.006500000000000001 0.00625 -0.03 -0.0299955002025 0.999550033749
3 0.7697734375 0.3540234375 0.008749999999999999 0.008624999999999999 -1.57 -0.999999682932 0.000796326710733
7 0.8863984375 0.5621484375 0.006625000000000001 0.021374999999999998 1.5 0.997494986604 0.0707372016677
3 0.6985234375 0.4282734375 0.009 0.00625 -1.58 -0.999957646499 -0.00920354326881
