0 0.9678984375 0.5286484375 0.018 0.0385 1.53 0.999167945271 0.0407850112416
0 0.8771484375 0.46764843750000007 0.02 0.04575 1.53 0.999167945271 0.0407850112416
0 0.6307734375 0.4791484374999999 0.020374999999999997 0.051000000000000004 -1.7 -0.991664810452 -0.128844494296
0 0.7875234375 0.5392734375 0.019875 0.030875000000000003 1.48 0.995880844538 0.0906716244643
5 0.46627343749999994 0.5187734374999999 0.006875000000000001 0.014875 -1.63 -0.998247974378 -0.0591690937141
0 0.7270234375 0.5437734375 0.019875 0.04025 1.47 0.994924349778 0.100625733387
