0 0.6901484375 0.4920234375 0.02 0.0445 1.6 0.999573603042 -0.0291995223013
0 0.5885234374999999 0.45427343750000004 0.020374999999999997 0.044625 1.52 0.998710143976 0.0507744849336
0 0.14739843750000003 0.3058984375 0.024125 0.044 -1.52 -0.998710143976 0.0507744849336
0 0.5847734375 0.34127343750000005 0.020499999999999997 0.047125 -1.49 -0.996737752043 0.0807084484548
1 0.34927343749999995 0.49414843750000004 0.020499999999999997 0.065 1.6 0.999573603042 -0.0291995223013
