5 0.8263984375 0.5015234375000001 0.010249999999999999 0.022375 1.75 0.983985946874 -0.178246055649
0 0.8288984375 0.5401484375 0.021124999999999998 0.0505 1.14 0.908633496116 0.417594503958
0 0.7781484375000001 0.5161484375 0.01975 0.049125 1.81 0.971526955822 -0.236929048685
0 0.7600234375 0.4072734375 0.020999999999999998 0.050375 -1.38 -0.981853530372 0.189640831298
1 0.6942734375 0.39452343749999996 0.021374999999999998 0.05387499999999999 -1.37 -0.979908061399 0.199449720998
0 0.6941484375 0.4953984375 0.021249999999999998 0.0445 1.8 0.973847630878 -0.227202094693
0 0.6337734375 0.4795234374999999 0.021625 0.048625 1.85 0.961275202975 -0.275590246825
0 0.5687734375 0.4600234375000001 0.018875 0.043625000000000004 1.83 0.966594391833 -0.256310908228
