0 0.5086484375 0.2257734375 0.020999999999999998 0.049125 1.55 0.999783764189 0.0207948278031
0 0.49052343750000005 0.15164843750000012 0.022625 0.059125000000000004 1.57 0.999999682932 0.000796326710733
0 0.43702343749999994 0.21764843749999996 0.022875 0.045625 -1.59 -0.999815615134 -0.0192024929017
0 0.6700234375 0.4937734375 0.020374999999999997 0.05625 1.58 0.999957646499 -0.00920354326881
