1 0.8686484375 0.4435234375 0.02525 0.08475 -1.57 -0.999999682932 0.000796326710733
0 0.7655234375 0.4545234375 0.02225 0.058125 -1.71 -0.990326804156 -0.138754534952
3 0.7531484375 0.47189843749999993 0.00825 0.01175 -2.64 -0.480822614989 -0.876817890394
3 0.6972734375 0.4737734375 0.006875000000000001 0.009875 -0.52 -0.496880137844 0.867819179678
3 0.6902734375 0.4771484375 0.008 0.010499999999999999 -1.09 -0.886626914449 0.462485366875
5 0.6281484375 0.6257734375 0.008125 0.022375 -3.12 -0.0215909757261 -0.999766887713
0 0.6337734375 0.7713984375 0.018875 0.05437499999999999 -2.99 -0.151012712086 -0.988531820827
