0 0.7712734375 0.4577734375 0.020874999999999998 0.047625 1.59 0.999815615134 -0.0192024929017
0 0.8165234375 0.5382734375 0.018875 0.03875 1.58 0.999957646499 -0.00920354326881
0 0.7585234375000001 0.5343984374999999 0.01975 0.044125 1.6 0.999573603042 -0.0291995223013
2 0.6498984375 0.45627343749999993 0.025750000000000002 0.06775 -1.56 -0.99994172023 0.0107961170583
0 0.5930234375 0.5317734375 0.02 0.046375 1.54 0.999525830605 0.0307914590825
1 0.2742734375 0.5230234375 0.02275 0.055125 1.6 0.999573603042 -0.0291995223013
0 0.8942734375 0.5386484375 0.0215 0.044 1.57 0.999999682932 0.000796326710733
