0 0.6758984375 0.4956484375 0.022 0.048 1.58 0.999957646499 -0.00920354326881
0 0.8986484375 0.4417734375 0.022625 0.054000000000000006 1.57 0.999999682932 0.000796326710733
0 0.7545234375000001 0.39239843750000003 0.020125 0.05375 1.57 0.999999682932 0.000796326710733
0 0.7372734375 0.4378984375 0.020874999999999998 0.0485 1.58 0.999957646499 -0.00920354326881
1 0.5995234375 0.4395234375 0.02525 0.077125 1.58 0.999957646499 -0.00920354326881
0 0.4575234375 0.44302343749999995 0.020874999999999998 0.049 1.58 0.999957646499 -0.00920354326881
0 0.8325234375 0.3417734375 0.019625 0.052875000000000005 1.57 0.999999682932 0.000796326710733
0 0.7213984375 0.3373984375 0.020499999999999997 0.0495 1.57 0.999999682932 0.000796326710733
