0 0.9230234375 0.41739843749999994 0.020125 0.044125 3.14 0.00159265291649 -0.999998731728
0 0.8967734375 0.4225234375 0.0195 0.04375 -0.06 -0.0599640064794 0.998200539935
0 0.8640234375 0.4175234375000001 0.020624999999999998 0.054125 3.1 0.0415806624333 -0.999135150273
0 0.7681484375000001 0.4175234375000001 0.01925 0.05125 -0.07 -0.0699428473375 0.997551000253
0 0.7070234375 0.42014843749999997 0.019875 0.048375 3.13 0.0115923939362 -0.999932805944
0 0.7493984375 0.5340234374999999 0.019875 0.044875 1.59 0.999815615134 -0.0192024929017
0 0.9003984375 0.5361484375 0.020874999999999998 0.0465 1.57 0.999999682932 0.000796326710733
0 0.6141484375 0.5333984375 0.02175 0.045625 1.57 0.999999682932 0.000796326710733
0 0.6111484375 0.4188984375 0.020374999999999997 0.05375 -3.11 -0.0315873984365 -0.999500993626
