0 0.6385234375 0.5061484375 0.0195 0.03275 1.54 0.999525830605 0.0307914590825
0 0.8450234375 0.45064843750000005 0.020999999999999998 0.052375000000000005 -1.62 -0.998789743471 -0.0491838219142
0 0.7596484375 0.4508984375 0.019875 0.05337499999999999 -1.53 -0.999167945271 0.0407850112416
0 0.6167734375 0.44939843749999997 0.02025 0.050749999999999997 -1.6 -0.999573603042 -0.0291995223013
0 0.4198984374999999 0.44602343749999995 0.019125 0.0485 -1.62 -0.998789743471 -0.0491838219142
