0 0.8896484375 0.42964843750000004 0.020499999999999997 0.045625 -0.07 -0.0699428473375 0.997551000253
0 0.8495234375 0.5408984375 0.01975 0.042125 1.54 0.999525830605 0.0307914590825
0 0.8046484375 0.42102343749999993 0.019125 0.051375000000000004 -3.11 -0.0315873984365 -0.999500993626
0 0.7357734375 0.42302343750000004 0.019625 0.045 -3.13 -0.0115923939362 -0.999932805944
0 0.7088984375 0.4288984375 0.01925 0.052375000000000005 0.01 0.00999983333417 0.999950000417
0 0.6781484375 0.4247734375000001 0.019625 0.051000000000000004 3.1 0.0415806624333 -0.999135150273
0 0.7866484375 0.5427734375 0.020125 0.044375 1.55 0.999783764189 0.0207948278031
0 0.6190234375 0.5475234375 0.018875 0.042499999999999996 1.6 0.999573603042 -0.0291995223013
0 0.6473984375 0.43664843749999993 0.018625 0.042249999999999996 -0.05 -0.0499791692707 0.998750260395
1 0.2718984375 0.5547734375 0.0245 0.076375 1.54 0.999525830605 0.0307914590825
0 0.31902343749999995 0.4365234375 0.020125 0.05387499999999999 3.11 0.0315873984365 -0.999500993626
