0 0.9137734375 0.45039843749999997 0.020874999999999998 0.0475 -1.6 -0.999573603042 -0.0291995223013
0 0.8476484375 0.5637734375 0.021374999999999998 0.05550000000000001 -1.61 -0.999231634421 -0.039193631773
0 0.8385234375 0.45289843750000003 0.020374999999999997 0.044875 -1.62 -0.998789743471 -0.0491838219142
0 0.7598984375 0.4583984375 0.01825 0.045375 -1.61 -0.999231634421 -0.039193631773
0 0.6973984375 0.45964843750000006 0.020749999999999998 0.052375000000000005 -1.57 -0.999999682932 0.000796326710733
0 0.7032734375 0.5352734375 0.021374999999999998 0.046875 1.38 0.981853530372 0.189640831298
0 0.7952734375 0.5811484375 0.019625 0.05325 -0.08 -0.0799146939692 0.996801706303
0 0.6492734375 0.5515234375 0.01975 0.041375 1.09 0.886626914449 0.462485366875
0 0.6022734375000001 0.5796484375000001 0.02 0.038875 0.82 0.731145829727 0.682221207288
