0 0.9491484375 0.5426484375 0.020499999999999997 0.043875 1.53 0.999167945271 0.0407850112416
0 0.8841484375 0.5470234375 0.019125 0.051875000000000004 1.53 0.999167945271 0.0407850112416
0 0.8131484375 0.5571484375 0.02175 0.062 1.43 0.990104560337 0.140331605847
0 0.6823984375000001 0.5865234375 0.0195 0.051500000000000004 1.25 0.948984619356 0.315322362395
1 0.5272734375 0.6362734375 0.02475 0.066625 1.1 0.891207360061 0.453596121426
