0 0.9415234375 0.4641484375 0.019125 0.04475 -1.52 -0.998710143976 0.0507744849336
0 0.8728984375 0.5330234375 0.020624999999999998 0.050749999999999997 1.57 0.999999682932 0.000796326710733
0 0.8738984375000001 0.4600234375000001 0.01975 0.04975 1.56 0.99994172023 0.0107961170583
0 0.8060234374999999 0.5332734375 0.0195 0.047 1.62 0.998789743471 -0.0491838219142
