0 0.8561484375 0.45802343749999996 0.02025 0.040125 -1.58 -0.999957646499 -0.00920354326881
0 0.4613984375 0.4575234375 0.018875 0.046875 -1.59 -0.999815615134 -0.0192024929017
0 0.6008984375 0.49977343750000003 0.020374999999999997 0.05625 1.56 0.99994172023 0.0107961170583
