5 0.8410234375000001 0.6196484375 0.00425 0.021124999999999998 -0.15 -0.149438132474 0.988771077936
3 0.7472734375 0.6333984375 0.008375 0.00625 1.57 0.999999682932 0.000796326710733
3 0.9586484375 0.4711484375 0.006875000000000001 0.01225 -1.92 -0.939645473685 -0.342149651151
3 0.9546484375 0.4633984375 0.007625 0.0125 -1.88 -0.952576194272 -0.30430017106
3 0.8258984375 0.5301484375000001 0.008 0.013000000000000001 3.03 0.111361188687 -0.993779998619
5 0.8001484375 0.5801484375 0.006125 0.0215 2.96 0.180596267894 -0.983557313034
5 0.8022734375 0.6598984375 0.0075 0.022625 2.86 0.277885925817 -0.960614080801
3 0.8567734375 0.5877734375 0.008125 0.007375 3.13 0.0115923939362 -0.999932805944
3 0.8731484375 0.5835234375 0.007625 0.009 -2.78 -0.353764345301 -0.935334586121
3 0.8640234375 0.5865234375 0.005 0.0075 -3.14 -0.00159265291649 -0.999998731728
1 0.11277343750000013 0.49414843750000004 0.02275 0.05775 1.57 0.999999682932 0.000796326710733
