0 0.9315234375 0.43477343749999997 0.0195 0.043625000000000004 -1.5 -0.997494986604 0.0707372016677
0 0.8523984375 0.37952343749999995 0.02 0.051125 -1.45 -0.992712991038 0.120502769367
0 0.7662734375 0.3687734375 0.01975 0.04575 -1.75 -0.983985946874 -0.178246055649
0 0.5513984375 0.5355234375 0.0195 0.04425 1.46 0.993868363412 0.11056977982
0 0.4567734375 0.5142734375 0.021124999999999998 0.05325 1.43 0.990104560337 0.140331605847
0 0.42002343750000004 0.5573984375000001 0.020374999999999997 0.05625 1.44 0.991458348192 0.130423708738
0 0.5457734375 0.7183984375 0.02 0.048 0.17 0.169182349067 0.98558476691
0 0.5047734374999999 0.7123984375 0.020125 0.0455 0.16 0.159318206614 0.987227283376
