3 0.7182734375 0.5273984375 0.006625000000000001 0.008 -0.37 -0.361615431965 0.932327345606
3 0.8507734375 0.4352734375 0.00825 0.008375 0.94 0.807558100405 0.589788025031
3 0.8870234375 0.5191484375 0.008749999999999999 0.009125 -1.19 -0.928368967249 0.371659872261
3 0.8733984375 0.5190234375 0.007124999999999999 0.012 -1.25 -0.948984619356 0.315322362395
3 0.8862734375 0.5112734375 0.00825 0.012125 -0.9 -0.783326909627 0.621609968271
3 0.8912734375 0.5072734375 0.0075 0.014374999999999999 -1.1 -0.891207360061 0.453596121426
3 0.7880234375 0.48427343749999996 0.00825 0.0125 -1.29 -0.960835064206 0.277120875057
3 0.7858984375 0.4911484374999999 0.00775 0.0125 -1.35 -0.975723357827 0.219006687093
3 0.7662734375 0.47764843749999997 0.009375 0.012 -1.24 -0.94578399945 0.324796284439
3 0.7777734375 0.46952343750000003 0.010249999999999999 0.011125 -1.32 -0.968715100118 0.248175451652
3 0.7788984375 0.44464843749999994 0.0072499999999999995 0.0115 -1.07 -0.877200504275 0.480124229029
3 0.7737734375 0.4531484375 0.006500000000000001 0.010875 -1.16 -0.916803108772 0.399339529406
3 0.7701484375000001 0.4601484375 0.006875000000000001 0.011875 -1.15 -0.912763940261 0.408487440884
1 0.9495234375 0.4593984375 0.024875 0.064875 1.93 0.936177052316 -0.351528841941
