0 0.6193984375 0.5013984375 0.020624999999999998 0.046125 1.58 0.999957646499 -0.00920354326881
0 0.8535234375 0.3663984375 0.01925 0.045875 -1.61 -0.999231634421 -0.039193631773
0 0.7842734375 0.36689843749999995 0.021249999999999998 0.055125 -1.57 -0.999999682932 0.000796326710733
0 0.8351484375 0.5563984375000001 0.019625 0.04425 0.76 0.688921445111 0.724836010741
0 0.7913984375 0.5601484375 0.020499999999999997 0.049875 0.73 0.666869635004 0.745174402345
0 0.7477734375 0.5520234375 0.020624999999999998 0.05225 0.84 0.744643119971 0.667462825841
0 0.7060234375 0.5503984375 0.020624999999999998 0.04925 0.82 0.731145829727 0.682221207288
0 0.6601484375 0.5548984375 0.021625 0.050749999999999997 0.78 0.7032794192 0.710913538012
0 0.6151484375 0.5535234375 0.020125 0.0495 0.7 0.644217687238 0.764842187284
0 0.30777343749999997 0.5547734375 0.020374999999999997 0.050624999999999996 0.78 0.7032794192 0.710913538012
1 0.1272734375000001 0.5565234375 0.02275 0.057999999999999996 0.82 0.731145829727 0.682221207288
