0 0.8327734375 0.44802343750000007 0.018125 0.041249999999999995 -1.57 -0.999999682932 0.000796326710733
1 0.7298984374999999 0.44902343749999996 0.0245 0.067 -1.55 -0.999783764189 0.0207948278031
0 0.8676484375 0.4747734375 0.020374999999999997 0.048625 -1.72 -0.988889766005 -0.148650700271
5 0.6655234375 0.5581484375000001 0.007875 0.02275 1.61 0.999231634421 -0.039193631773
0 0.5458984375 0.44964843749999994 0.016625 0.054000000000000006 -1.56 -0.99994172023 0.0107961170583
