0 0.8161484375 0.6215234375 0.017875 0.042499999999999996 -3.11 -0.0315873984365 -0.999500993626
2 0.6522734375 0.6310234375 0.037625 0.12450000000000001 -3.1 -0.0415806624333 -0.999135150273
0 0.7072734375 0.31827343750000003 0.019375 0.048875 -0.73 -0.666869635004 0.745174402345
