0 0.8248984375 0.4627734375 0.021875 0.058374999999999996 1.51 0.998152472498 0.0607588812194
0 0.6891484375 0.46964843749999996 0.020999999999999998 0.04925 -1.62 -0.998789743471 -0.0491838219142
0 0.32764843749999994 0.4850234375 0.020749999999999998 0.051375000000000004 -1.61 -0.999231634421 -0.039193631773
0 0.8582734375000001 0.5962734375000001 0.014374999999999999 0.042375 -0.5 -0.479425538604 0.87758256189
