0 0.9070234375 0.4286484374999999 0.02 0.04 -1.57 -0.999999682932 0.000796326710733
0 0.9617734375 0.5378984375 0.020999999999999998 0.0475 1.65 0.996865028454 -0.0791208888067
0 0.8493984375 0.4271484375 0.020374999999999997 0.046 -1.56 -0.99994172023 0.0107961170583
0 0.8927734375 0.5383984374999999 0.020125 0.044375 1.62 0.998789743471 -0.0491838219142
0 0.5010234375 0.4212734375 0.019625 0.044125 -0.93 -0.801619940884 0.597833982287
3 0.5597734375 0.5395234375 0.008624999999999999 0.010374999999999999 -0.86 -0.757842562895 0.652437468164
0 0.3141484374999999 0.4795234374999999 0.0215 0.05275 -2.58 -0.532534907556 -0.846408041216
0 0.4305234375 0.3215234375 0.021374999999999998 0.05175 -0.5 -0.479425538604 0.87758256189
0 0.27152343749999996 0.5837734375 0.023375 0.059250000000000004 -2.9 -0.239249329214 -0.97095816515
2 0.18614843749999999 0.5130234375 0.030375000000000003 0.0875 -3.14 -0.00159265291649 -0.999998731728
