0 0.2187734375 0.5715234375 0.020125 0.052500000000000005 1.62 0.998789743471 -0.0491838219142
1 0.5520234374999999 0.5810234375000001 0.022625 0.05550000000000001 1.6 0.999573603042 -0.0291995223013
0 0.4820234374999999 0.6560234375 0.017 0.043875 2.15 0.836898790798 -0.54735766548
