0 0.8672734375 0.6010234375 0.019625 0.0455 -2.56 -0.549355436427 -0.835588777131
0 0.9665234375 0.5330234375 0.020624999999999998 0.0475 1.59 0.999815615134 -0.0192024929017
1 0.9178984375 0.4485234375 0.022375 0.05487499999999999 -1.54 -0.999525830605 0.0307914590825
0 0.8318984375 0.5992734375 0.018625 0.045375 -2.56 -0.549355436427 -0.835588777131
0 0.7948984375 0.5801484375 0.020874999999999998 0.04625 -3.11 -0.0315873984365 -0.999500993626
1 0.7620234375 0.5878984375 0.023125 0.06475 -3.1 -0.0415806624333 -0.999135150273
0 0.8527734375 0.44702343750000006 0.020374999999999997 0.056374999999999995 -1.49 -0.996737752043 0.0807084484548
0 0.7797734375 0.4425234375 0.020749999999999998 0.054125 -1.55 -0.999783764189 0.0207948278031
2 0.5867734375 0.5057734375 0.036125000000000004 0.135125 1.32 0.968715100118 0.248175451652
