2 0.04839843750000006 0.49552343749999994 0.032875 0.15425 1.58 0.999957646499 -0.00920354326881
6 0.7670234375 0.37852343749999995 0.033375 0.213 1.56 0.99994172023 0.0107961170583
6 0.5720234375 0.3777734374999999 0.034499999999999996 0.1605 1.58 0.999957646499 -0.00920354326881
