1 0.7600234375 0.4710234375 0.023 0.050749999999999997 -1.61 -0.999231634421 -0.039193631773
1 0.7663984375 0.5406484375 0.020374999999999997 0.047 1.54 0.999525830605 0.0307914590825
0 0.6501484375 0.4795234374999999 0.020374999999999997 0.055874999999999994 -1.6 -0.999573603042 -0.0291995223013
1 0.5752734374999999 0.48227343749999996 0.021249999999999998 0.05437499999999999 -1.62 -0.998789743471 -0.0491838219142
0 0.5098984375 0.48989843750000006 0.02275 0.055625 -1.72 -0.988889766005 -0.148650700271
0 0.3766484374999999 0.5148984375000001 0.0195 0.03275 0.25 0.247403959255 0.968912421711
0 0.8108984375 0.4282734375 0.020999999999999998 0.05325 -3.12 -0.0215909757261 -0.999766887713
