0 0.8740234375 0.5425234375 0.020624999999999998 0.047125 1.59 0.999815615134 -0.0192024929017
0 0.7645234375000001 0.46664843749999996 0.020374999999999997 0.052500000000000005 -1.57 -0.999999682932 0.000796326710733
4 0.8697734375 0.5326484375 0.009375 0.010374999999999999 -1.85 -0.961275202975 -0.275590246825
0 0.9052734375 0.46127343749999994 0.01825 0.042625 -1.57 -0.999999682932 0.000796326710733
