0 0.7588984375 0.4930234375 0.022 0.048 1.59 0.999815615134 -0.0192024929017
2 0.9323984375 0.4543984375 0.03125 0.20550000000000002 1.59 0.999815615134 -0.0192024929017
0 0.7577734375 0.4563984375000001 0.020125 0.05487499999999999 1.6 0.999573603042 -0.0291995223013
0 0.6731484375 0.45427343750000004 0.020749999999999998 0.053625 1.58 0.999957646499 -0.00920354326881
0 0.5886484375 0.4533984375 0.021249999999999998 0.04875 1.58 0.999957646499 -0.00920354326881
