0 0.8603984375 0.4607734375 0.020374999999999997 0.051000000000000004 -1.57 -0.999999682932 0.000796326710733
0 0.9536484375000001 0.5293984375 0.019875 0.04025 1.54 0.999525830605 0.0307914590825
0 0.7615234375 0.4625234375 0.020874999999999998 0.0465 1.54 0.999525830605 0.0307914590825
0 0.5507734375 0.5261484375000001 0.020125 0.04675 -1.52 -0.998710143976 0.0507744849336
1 0.3177734375 0.4613984375 0.023 0.050749999999999997 -1.68 -0.994043202198 -0.10898675224
