1 0.7043984375 0.5157734375 0.025374999999999998 0.0675 1.95 0.928959715004 -0.370180831351
0 0.6800234375 0.42239843749999995 0.022625 0.038125 1.82 0.96910912888 -0.246632309969
0 0.11427343749999996 0.35189843750000005 0.0195 0.051875000000000004 -1.72 -0.988889766005 -0.148650700271
2 0.7467734375 0.6080234375 0.0305 0.092625 0.25 0.247403959255 0.968912421711
