0 0.5746484374999999 0.2277734375 0.020999999999999998 0.049125 1.56 0.99994172023 0.0107961170583
0 0.5566484375 0.1546484375 0.022625 0.059125000000000004 1.57 0.999999682932 0.000796326710733
0 0.5095234375 0.2227734375 0.022875 0.045625 -1.58 -0.999957646499 -0.00920354326881
0 0.11727343750000008 0.2187734375 0.017125 0.049625 -1.58 -0.999957646499 -0.00920354326881
0 0.34789843749999994 0.14327343749999988 0.023 0.048 -1.56 -0.99994172023 0.0107961170583
0 0.6782734375 0.4947734374999999 0.020374999999999997 0.05625 1.58 0.999957646499 -0.00920354326881
