0 0.9271484375 0.5337734375000001 0.019875 0.053500000000000006 1.58 0.999957646499 -0.00920354326881
0 0.8498984375 0.5351484375 0.019625 0.04725 1.57 0.999999682932 0.000796326710733
0 0.8437734375 0.4428984375 0.021374999999999998 0.048125 -1.53 -0.999167945271 0.0407850112416
0 0.7765234375 0.4437734375 0.020624999999999998 0.04625 -1.56 -0.99994172023 0.0107961170583
0 0.7437734375 0.5346484375 0.020749999999999998 0.047375 1.57 0.999999682932 0.000796326710733
0 0.6633984375 0.5377734375000001 0.020499999999999997 0.051875000000000004 1.65 0.996865028454 -0.0791208888067
1 0.5696484374999999 0.5367734375000001 0.03075 0.073125 1.57 0.999999682932 0.000796326710733
0 0.3012734375 0.5255234375 0.020125 0.041749999999999995 1.63 0.998247974378 -0.0591690937141
