0 0.6990234375 0.4995234375 0.021124999999999998 0.042249999999999996 1.6 0.999573603042 -0.0291995223013
0 0.9311484375 0.43839843749999996 0.02175 0.052000000000000005 2.47 0.622233555319 -0.782831656638
0 0.8908984375 0.4395234375 0.020499999999999997 0.046375 2.32 0.73223144403 -0.681055880507
0 0.7961484375 0.43464843750000004 0.01975 0.044625 2.48 0.614374257806 -0.78901474723
0 0.7593984375 0.44064843749999993 0.020374999999999997 0.047375 2.43 0.653040751572 -0.757322769225
0 0.6726484375 0.4388984375 0.02025 0.052375000000000005 2.42 0.660581201279 -0.750754604725
0 0.4597734375 0.43564843750000004 0.020749999999999998 0.044375 2.48 0.614374257806 -0.78901474723
1 0.7181484375 0.5423984374999999 0.026000000000000002 0.071875 1.59 0.999815615134 -0.0192024929017
0 0.4156484375 0.5427734375 0.020749999999999998 0.051000000000000004 1.52 0.998710143976 0.0507744849336
0 0.5300234374999999 0.4957734375 0.020874999999999998 0.045125 1.61 0.999231634421 -0.039193631773
1 0.6658984375 0.3858984375000001 0.021374999999999998 0.056499999999999995 -1.55 -0.999783764189 0.0207948278031
