3 0.7732734375 0.4555234375 0.008375 0.010875 2.4 0.675463180551 -0.737393715541
3 0.8685234374999999 0.45427343750000004 0.008749999999999999 0.008624999999999999 -1.44 -0.991458348192 0.130423708738
3 0.8300234375 0.4585234375 0.00775 0.011875 -1.27 -0.955100855585 0.296280872925
3 0.7630234375 0.5347734375 0.008 0.013500000000000002 -1.53 -0.999167945271 0.0407850112416
3 0.7621484375 0.5418984375 0.009625 0.012625 -1.49 -0.996737752043 0.0807084484548
