0 0.8448984374999999 0.4428984375 0.020999999999999998 0.047 -1.64 -0.997606381319 -0.0691484486541
0 0.7796484375 0.4447734375 0.02175 0.050749999999999997 -1.57 -0.999999682932 0.000796326710733
0 0.6075234375 0.5615234375 0.022125 0.06375 1.5 0.997494986604 0.0707372016677
0 0.7192734375000001 0.4481484375 0.019375 0.045625 -1.64 -0.997606381319 -0.0691484486541
0 0.6600234375 0.4511484375 0.020374999999999997 0.049 -1.61 -0.999231634421 -0.039193631773
