0 0.6960234375000001 0.6698984375 0.022 0.05125 -3.08 -0.0615537174299 -0.998103772095
0 0.5217734375 0.45227343749999993 0.02225 0.046125 1.58 0.999957646499 -0.00920354326881
5 0.4598984374999999 0.5450234375 0.0075 0.022375 -0.03 -0.0299955002025 0.999550033749
5 0.42302343749999993 0.5018984375 0.007875 0.02275 0.08 0.0799146939692 0.996801706303
5 0.5622734374999999 0.36789843749999995 0.008 0.02175 1.51 0.998152472498 0.0607588812194
3 0.44927343749999993 0.47052343750000003 0.0085 0.018 2.96 0.180596267894 -0.983557313034
3 0.46502343749999997 0.3896484375 0.007124999999999999 0.0165 -0.12 -0.119712207289 0.992808635854
