0 0.9200234375 0.5450234375 0.02025 0.051375000000000004 1.54 0.999525830605 0.0307914590825
0 0.7972734375 0.44402343750000006 0.020999999999999998 0.047 -1.64 -0.997606381319 -0.0691484486541
0 0.7316484375 0.4467734375 0.02175 0.050749999999999997 -1.57 -0.999999682932 0.000796326710733
0 0.5600234374999999 0.5642734375 0.022125 0.06375 1.5 0.997494986604 0.0707372016677
