0 0.8443984375 0.44702343750000006 0.019625 0.044125 -1.49 -0.996737752043 0.0807084484548
3 0.7678984375 0.5482734375 0.008624999999999999 0.010374999999999999 -1.48 -0.995880844538 0.0906716244643
0 0.5152734375 0.45039843749999997 0.0215 0.05275 -2.49 -0.606453523378 -0.795118937004
0 0.7072734375 0.41177343749999995 0.021374999999999998 0.05175 -1.03 -0.857298989189 0.51481884497
0 0.4707734374999999 0.5358984375 0.023375 0.059250000000000004 -2.73 -0.400069477592 -0.916484813349
0 0.6126484375 0.2726484375 0.021124999999999998 0.052875000000000005 0.0 0.0 1.0
