0 0.8298984375 0.46364843750000007 0.019125 0.04475 -1.56 -0.99994172023 0.0107961170583
0 0.7573984375 0.5330234375 0.020624999999999998 0.050749999999999997 1.57 0.999999682932 0.000796326710733
0 0.7586484375 0.4595234375 0.01975 0.04975 1.58 0.999957646499 -0.00920354326881
0 0.6933984375 0.5335234375 0.0195 0.047 1.62 0.998789743471 -0.0491838219142
