0 0.7591484374999999 0.6082734375000001 0.018875 0.05437499999999999 -2.39 -0.682803221931 -0.730602326934
0 0.7122734374999999 0.6597734375 0.020999999999999998 0.053625 -2.4 -0.675463180551 -0.737393715541
0 0.6457734375 0.7330234375 0.017499999999999998 0.0475 -2.41 -0.668055593416 -0.744111365392
1 0.4608984374999999 0.9382734375 0.026250000000000002 0.0705 -2.33 -0.725384387467 -0.688344020399
0 0.5301484375 0.8611484375 0.020624999999999998 0.037 -2.32 -0.73223144403 -0.681055880507
