0 0.9278984375 0.4505234375 0.0225 0.056374999999999995 -1.56 -0.99994172023 0.0107961170583
0 0.8317734375 0.4477734375 0.020499999999999997 0.05500000000000001 -1.52 -0.998710143976 0.0507744849336
0 0.6552734375 0.4451484375 0.018125 0.041249999999999995 -1.56 -0.99994172023 0.0107961170583
1 0.5555234375 0.4443984375000001 0.0245 0.067 -1.52 -0.998710143976 0.0507744849336
0 0.5330234375 0.47652343750000004 0.020374999999999997 0.048625 -1.54 -0.999525830605 0.0307914590825
5 0.9390234375 0.5483984375000001 0.007375 0.0195 -1.53 -0.999167945271 0.0407850112416
5 0.9023984375 0.5646484375 0.007875 0.02275 1.61 0.999231634421 -0.039193631773
0 0.3713984375 0.4441484375 0.016625 0.054000000000000006 -1.56 -0.99994172023 0.0107961170583
