0 0.6172734375 0.5012734375 0.020624999999999998 0.046125 1.58 0.999957646499 -0.00920354326881
0 0.8126484375 0.3660234375 0.01925 0.045875 -1.61 -0.999231634421 -0.039193631773
0 0.7436484375 0.3670234375 0.021249999999999998 0.055125 -1.57 -0.999999682932 0.000796326710733
0 0.7937734375000001 0.5562734375 0.019625 0.04425 0.76 0.688921445111 0.724836010741
0 0.7511484375 0.5601484375 0.020499999999999997 0.049875 0.73 0.666869635004 0.745174402345
0 0.7076484375000001 0.5522734375 0.020624999999999998 0.05225 0.81 0.72428717437 0.689498432952
0 0.6650234375 0.5507734375 0.020624999999999998 0.04925 0.81 0.72428717437 0.689498432952
0 0.6190234375 0.5551484375 0.021625 0.050749999999999997 0.79 0.710353272418 0.703845315652
0 0.5737734375 0.5532734375 0.020125 0.0495 0.72 0.659384671971 0.751805729141
1 0.0867734375000001 0.5567734375 0.02275 0.057999999999999996 0.82 0.731145829727 0.682221207288
