0 0.9147734375 0.5333984375 0.019375 0.048375 1.6 0.999573603042 -0.0291995223013
0 0.8006484375 0.5326484375 0.0185 0.041999999999999996 1.61 0.999231634421 -0.039193631773
0 0.8177734375 0.42164843750000003 0.021249999999999998 0.051125 -0.06 -0.0599640064794 0.998200539935
0 0.7847734375 0.42277343749999996 0.020374999999999997 0.046875 -0.01 -0.00999983333417 0.999950000417
0 0.7547734375 0.41414843749999997 0.020874999999999998 0.041875 -3.13 -0.0115923939362 -0.999932805944
0 0.6878984375 0.4245234375 0.018625 0.0445 -0.01 -0.00999983333417 0.999950000417
0 0.6595234375 0.42839843750000006 0.02 0.04525 -0.01 -0.00999983333417 0.999950000417
0 0.6298984375 0.42139843749999994 0.019625 0.038875 -0.05 -0.0499791692707 0.998750260395
0 0.4170234374999999 0.4116484375 0.0225 0.054625 0.02 0.0199986666933 0.999800006667
5 0.1396484375 0.4641484375 0.0072499999999999995 0.021124999999999998 -1.54 -0.999525830605 0.0307914590825
0 0.6296484375 0.5321484375 0.018625 0.042249999999999996 1.59 0.999815615134 -0.0192024929017
0 0.20639843749999998 0.5280234375 0.0195 0.051000000000000004 1.62 0.998789743471 -0.0491838219142
