0 0.8898984375 0.4591484375 0.018875 0.0405 -1.56 -0.99994172023 0.0107961170583
0 0.8323984375 0.5370234375 0.019875 0.052375000000000005 -1.58 -0.999957646499 -0.00920354326881
0 0.8021484375 0.46027343749999994 0.021124999999999998 0.04675 -1.53 -0.999167945271 0.0407850112416
0 0.5783984375 0.5396484375 0.0195 0.047625 1.56 0.99994172023 0.0107961170583
1 0.4252734374999999 0.5411484375 0.02475 0.07025 1.57 0.999999682932 0.000796326710733
