0 0.7587734375 0.4930234375 0.022 0.048 1.59 0.999815615134 -0.0192024929017
2 0.9757734375 0.4547734375 0.03125 0.20550000000000002 1.58 0.999957646499 -0.00920354326881
0 0.8017734375000001 0.4573984375 0.020125 0.05487499999999999 1.6 0.999573603042 -0.0291995223013
0 0.7170234375 0.4553984375 0.020749999999999998 0.053625 1.58 0.999957646499 -0.00920354326881
0 0.6316484375 0.4543984375 0.021249999999999998 0.04875 1.58 0.999957646499 -0.00920354326881
0 0.5575234375 0.39714843750000006 0.02025 0.049375 1.59 0.999815615134 -0.0192024929017
0 0.5233984374999999 0.4551484375 0.0215 0.053000000000000005 1.59 0.999815615134 -0.0192024929017
