3 0.8467734375 0.5696484374999999 0.009 0.013625000000000002 -1.68 -0.994043202198 -0.10898675224
0 0.9080234375 0.5457734375000001 0.02 0.0405 1.56 0.99994172023 0.0107961170583
0 0.8405234375 0.5490234375 0.02175 0.05125 1.51 0.998152472498 0.0607588812194
0 0.8301484375 0.4555234375 0.020999999999999998 0.047375 -1.59 -0.999815615134 -0.0192024929017
0 0.7616484375 0.4591484375 0.019 0.041875 -1.62 -0.998789743471 -0.0491838219142
0 0.7547734375 0.5507734375 0.020624999999999998 0.054625 1.55 0.999783764189 0.0207948278031
0 0.6673984374999999 0.46127343749999994 0.020624999999999998 0.05225 -1.61 -0.999231634421 -0.039193631773
0 0.5832734374999999 0.4831484374999999 0.018125 0.0435 -1.88 -0.952576194272 -0.30430017106
0 0.6615234375 0.5580234374999999 0.020999999999999998 0.0505 1.38 0.981853530372 0.189640831298
0 0.45427343749999993 0.5520234375 0.020499999999999997 0.051000000000000004 -2.12 -0.852940481553 -0.522008175155
