0 0.8965234375 0.5765234375 0.020874999999999998 0.04625 -3.09 -0.0515697683985 -0.998669394238
1 0.8638984375000001 0.5832734375 0.023125 0.06475 -3.1 -0.0415806624333 -0.999135150273
0 0.9550234375 0.4435234375 0.020374999999999997 0.056374999999999995 -1.45 -0.992712991038 0.120502769367
0 0.8856484375 0.43839843749999996 0.020749999999999998 0.054125 -1.5 -0.997494986604 0.0707372016677
2 0.6462734375 0.5171484375000001 0.036125000000000004 0.135125 1.02 0.852108021949 0.523365951252
