0 0.7307734375 0.49827343749999997 0.020749999999999998 0.04 1.7 0.991664810452 -0.128844494296
0 0.7805234375 0.3491484375 0.01875 0.03875 -1.57 -0.999999682932 0.000796326710733
0 0.8445234375 0.3970234375 0.020874999999999998 0.050875000000000004 -1.57 -0.999999682932 0.000796326710733
