0 0.9700234375 0.45802343749999996 0.020499999999999997 0.049375 -1.58 -0.999957646499 -0.00920354326881
0 0.9713984375 0.5336484375 0.020499999999999997 0.048 1.56 0.99994172023 0.0107961170583
0 0.8403984375 0.5327734375000001 0.019875 0.052375000000000005 -1.55 -0.999783764189 0.0207948278031
0 0.8317734375 0.45702343749999996 0.020499999999999997 0.045375 -1.55 -0.999783764189 0.0207948278031
0 0.7650234375 0.5321484375 0.01975 0.04575 1.58 0.999957646499 -0.00920354326881
0 0.7063984375 0.5315234375 0.02 0.04725 -1.57 -0.999999682932 0.000796326710733
0 0.5433984374999999 0.6196484375 0.020624999999999998 0.05125 3.14 0.00159265291649 -0.999998731728
