0 0.9116484375 0.42164843750000003 0.020624999999999998 0.051375000000000004 -1.57 -0.999999682932 0.000796326710733
0 0.6403984375 0.4485234375 0.022 0.05500000000000001 -1.59 -0.999815615134 -0.0192024929017
0 0.42302343749999993 0.5250234375 0.020749999999999998 0.051875000000000004 1.57 0.999999682932 0.000796326710733
0 0.5121484374999999 0.5952734375000001 0.021249999999999998 0.058125 -3.13 -0.0115923939362 -0.999932805944
0 0.47389843749999994 0.5945234375 0.022625 0.054125 3.13 0.0115923939362 -0.999932805944
1 0.3936484375 0.7685234375 0.025875 0.061750000000000006 0.03 0.0299955002025 0.999550033749
