5 0.9042734375 0.4607734375 0.007124999999999999 0.025 -1.53 -0.999167945271 0.0407850112416
5 0.8620234375 0.4653984375 0.0075 0.023125 -1.49 -0.996737752043 0.0807084484548
3 0.7112734375 0.47227343749999995 0.007625 0.009125 2.13 0.847677840134 -0.530511337623
3 0.7146484375 0.4653984375 0.006750000000000001 0.010875 2.06 0.882707350816 -0.469923113728
3 0.5575234375 0.5113984375 0.007625 0.0115 -1.38 -0.981853530372 0.189640831298
3 0.5575234375 0.5205234375 0.008624999999999999 0.009625 -1.39 -0.983700814811 0.179812977673
