0 0.9658984375 0.5450234375 0.0215 0.05437499999999999 -1.51 -0.998152472498 0.0607588812194
0 0.9482734375 0.45002343749999996 0.018625 0.050875000000000004 -1.55 -0.999783764189 0.0207948278031
0 0.8470234375 0.45064843750000005 0.01925 0.04475 -1.54 -0.999525830605 0.0307914590825
0 0.5743984375 0.5073984375 0.019125 0.039625 1.6 0.999573603042 -0.0291995223013
