0 0.8983984375 0.4585234375 0.02225 0.046125 1.57 0.999999682932 0.000796326710733
3 0.8126484375 0.5092734375 0.008624999999999999 0.012875000000000001 -0.66 -0.613116851973 0.789992231497
5 0.6598984375 0.6783984375000001 0.0075 0.022375 0.14 0.139543114644 0.990215996213
3 0.8425234375 0.4581484375 0.007625 0.013000000000000001 -0.01 -0.00999983333417 0.999950000417
5 0.7111484375 0.6297734375 0.00975 0.021374999999999998 1.07 0.877200504275 0.480124229029
3 0.7878984375 0.3660234375 0.006875000000000001 0.011625 -0.15 -0.149438132474 0.988771077936
3 0.7952734375 0.3653984375 0.006 0.012 -0.08 -0.0799146939692 0.996801706303
5 0.8243984375 0.43939843750000007 0.008 0.02175 0.47 0.452886285379 0.891568288195
3 0.8072734375 0.36089843750000006 0.006750000000000001 0.010499999999999999 -3.12 -0.0215909757261 -0.999766887713
3 0.8266484375 0.3603984375 0.006750000000000001 0.012875000000000001 -2.76 -0.372399039425 -0.928072710209
3 0.8081484375 0.38977343749999993 0.007000000000000001 0.010249999999999999 3.12 0.0215909757261 -0.999766887713
0 0.6982734375 0.7460234375 0.021249999999999998 0.049375 -0.02 -0.0199986666933 0.999800006667
0 0.38952343749999996 0.3886484375 0.021875 0.052875000000000005 -1.46 -0.993868363412 0.11056977982
