0 0.9550234375 0.5662734375 0.020749999999999998 0.052000000000000005 0.03 0.0299955002025 0.999550033749
0 0.8936484375 0.5585234375 0.020999999999999998 0.05425 -3.08 -0.0615537174299 -0.998103772095
5 0.6467734375 0.4917734375 0.007875 0.026500000000000003 1.61 0.999231634421 -0.039193631773
0 0.8718984375000001 0.4108984375 0.0195 0.048125 -3.1 -0.0415806624333 -0.999135150273
0 0.7828984375 0.4048984375 0.02025 0.04375 -3.03 -0.111361188687 -0.993779998619
0 0.6330234375 0.40014843750000006 0.01925 0.045 -3.06 -0.0815021517603 -0.996673165716
