0 0.7513984375 0.2920234374999999 0.02 0.053625 -1.62 -0.998789743471 -0.0491838219142
0 0.6851484375 0.2972734375 0.018375 0.04525 -1.65 -0.996865028454 -0.0791208888067
7 0.6070234375 0.31202343749999994 0.020125 0.033875 -1.65 -0.996865028454 -0.0791208888067
