0 0.8185234375 0.5502734375 0.022125 0.06375 1.52 0.998710143976 0.0507744849336
0 0.9333984375 0.44139843749999996 0.019375 0.045625 -1.59 -0.999815615134 -0.0192024929017
0 0.8750234375 0.44264843750000005 0.020374999999999997 0.049 -1.6 -0.999573603042 -0.0291995223013
0 0.5425234375 0.45864843750000006 0.020749999999999998 0.047 -1.64 -0.997606381319 -0.0691484486541
0 0.7415234375 0.5532734375 0.020749999999999998 0.04825 1.51 0.998152472498 0.0607588812194
0 0.6708984375 0.5572734374999999 0.019875 0.041749999999999995 1.57 0.999999682932 0.000796326710733
0 0.6062734375000001 0.5606484375 0.02 0.04625 1.51 0.998152472498 0.0607588812194
0 0.5381484375 0.5648984374999999 0.020499999999999997 0.044 1.51 0.998152472498 0.0607588812194
0 0.20464843749999995 0.48952343750000005 0.02 0.04 -1.68 -0.994043202198 -0.10898675224
