0 0.6720234375 0.4923984375 0.02 0.0445 1.6 0.999573603042 -0.0291995223013
0 0.5803984375 0.45502343749999996 0.020374999999999997 0.044625 1.51 0.998152472498 0.0607588812194
0 0.40039843750000004 0.3343984375 0.020499999999999997 0.047125 -1.47 -0.994924349778 0.100625733387
0 0.7258984375 0.35152343750000004 0.020749999999999998 0.047625 -1.53 -0.999167945271 0.0407850112416
1 0.3313984375 0.4996484375 0.020499999999999997 0.065 1.58 0.999957646499 -0.00920354326881
