0 0.9173984375 0.4417734375 0.02175 0.050749999999999997 -1.55 -0.999783764189 0.0207948278031
0 0.7431484375 0.5538984375 0.022125 0.06375 1.52 0.998710143976 0.0507744849336
0 0.8556484375 0.44302343749999995 0.019375 0.045625 -1.59 -0.999815615134 -0.0192024929017
0 0.7986484375 0.4442734374999999 0.020374999999999997 0.049 -1.6 -0.999573603042 -0.0291995223013
0 0.4625234375 0.4667734375 0.020749999999999998 0.047 -1.66 -0.996023989917 -0.0890854169365
0 0.12889843749999996 0.5036484375 0.02 0.04 -1.7 -0.991664810452 -0.128844494296
