0 0.9575234375 0.46189843750000004 0.020749999999999998 0.052375000000000005 -1.53 -0.999167945271 0.0407850112416
0 0.9652734375 0.5367734375000001 0.021374999999999998 0.046875 1.42 0.988651762852 0.150225469912
0 0.8350234375000001 0.4547734375 0.01875 0.041749999999999995 -1.55 -0.999783764189 0.0207948278031
0 0.7738984375 0.44964843749999994 0.021374999999999998 0.049125 -1.09 -0.886626914449 0.462485366875
0 0.3317734375 0.7117734375 0.021875 0.057874999999999996 0.33 0.324043028395 0.946042343528
0 0.9106484375 0.5506484375 0.01975 0.041375 1.11 0.89569868568 0.444661516742
0 0.8612734375 0.5776484375 0.02 0.038875 0.83 0.73793137111 0.674875760071
0 0.7156484375000001 0.5846484375000001 0.021124999999999998 0.059 2.86 0.277885925817 -0.960614080801
0 0.8000234374999999 0.6917734375 0.020624999999999998 0.041875 0.47 0.452886285379 0.891568288195
0 0.6818984375 0.7173984375 0.021249999999999998 0.049375 -2.75 -0.381660992052 -0.924302378632
