1 0.8825234375 0.4355234375 0.025374999999999998 0.06687499999999999 1.49 0.996737752043 0.0807084484548
5 0.7618984375 0.5278984375 0.007375 0.023625 1.45 0.992712991038 0.120502769367
3 0.8285234375 0.4551484375 0.006500000000000001 0.00775 -0.54 -0.514135991653 0.857708681364
0 0.7341484375 0.33802343749999997 0.02025 0.048875 3.04 0.101417986317 -0.994843903359
