3 0.8365234375 0.5722734375 0.006625000000000001 0.011875 -0.01 -0.00999983333417 0.999950000417
3 0.7112734375 0.5707734375 0.006625000000000001 0.009625 1.57 0.999999682932 0.000796326710733
3 0.7110234375 0.5653984375000001 0.007625 0.009625 1.55 0.999783764189 0.0207948278031
