5 0.5721484374999999 0.2463984375 0.00775 0.020374999999999997 -1.7 -0.991664810452 -0.128844494296
0 0.7073984375 0.2975234375 0.02175 0.042749999999999996 -1.62 -0.998789743471 -0.0491838219142
1 0.4286484374999999 0.24989843749999996 0.024 0.062375 -1.6 -0.999573603042 -0.0291995223013
7 0.35627343749999996 0.25352343749999995 0.019 0.02975 -1.61 -0.999231634421 -0.039193631773
