0 0.4633984375 0.5308984375 0.01975 0.049375 1.63 0.998247974378 -0.0591690937141
0 0.5855234374999999 0.5378984375 0.019625 0.040375 1.6 0.999573603042 -0.0291995223013
2 0.13977343750000004 0.5643984375000001 0.032 0.09962499999999999 1.63 0.998247974378 -0.0591690937141
0 0.6013984375 0.5872734375 0.020125 0.052500000000000005 1.61 0.999231634421 -0.039193631773
1 0.9000234375 0.5872734375 0.022625 0.05550000000000001 1.58 0.999957646499 -0.00920354326881
0 0.48352343749999993 0.6571484375 0.017 0.043875 2.15 0.836898790798 -0.54735766548
