0 0.7853984375 0.39552343749999996 0.02225 0.053125 3.12 0.0215909757261 -0.999766887713
0 0.5528984374999999 0.39977343750000005 0.020499999999999997 0.04625 0.01 0.00999983333417 0.999950000417
7 0.8706484375 0.38552343750000007 0.009875 0.02375 -0.01 -0.00999983333417 0.999950000417
5 0.7430234375 0.6101484375 0.0063750000000000005 0.023125 1.57 0.999999682932 0.000796326710733
5 0.6946484375 0.6030234375 0.005375 0.021249999999999998 1.55 0.999783764189 0.0207948278031
5 0.6287734375 0.6117734375 0.0055 0.022375 1.57 0.999999682932 0.000796326710733
