0 0.9605234375 0.4475234375 0.0215 0.055125 -1.58 -0.999957646499 -0.00920354326881
0 0.8496484375 0.45427343750000004 0.021875 0.05375 -1.62 -0.998789743471 -0.0491838219142
0 0.7957734375 0.4145234375 0.021625 0.05600000000000001 -1.52 -0.998710143976 0.0507744849336
