0 0.9032734375 0.4647734375 0.021124999999999998 0.056499999999999995 1.57 0.999999682932 0.000796326710733
0 0.5831484375 0.4188984375 0.020749999999999998 0.051875000000000004 0.83 0.73793137111 0.674875760071
0 0.4757734374999999 0.47489843750000005 0.020624999999999998 0.044 1.34 0.973484541695 0.228752807808
0 0.3185234374999999 0.4890234375 0.020125 0.047 1.53 0.999167945271 0.0407850112416
