0 0.8142734375 0.4517734375 0.0185 0.047 -1.53 -0.999167945271 0.0407850112416
1 0.7382734375 0.4511484375 0.020749999999999998 0.050624999999999996 -1.56 -0.99994172023 0.0107961170583
0 0.5150234374999999 0.4533984375 0.021875 0.052875000000000005 -1.54 -0.999525830605 0.0307914590825
