0 0.8521484375 0.5233984375 0.01925 0.042749999999999996 1.68 0.994043202198 -0.10898675224
0 0.6592734375 0.5071484374999999 0.017374999999999998 0.046625 -2.55 -0.557683717391 -0.830053535235
0 0.7086484375 0.5795234375 0.020874999999999998 0.04725 0.62 0.581035160537 0.813878456663
0 0.6737734375 0.6251484375 0.019125 0.0505 0.67 0.620985987037 0.783821665881
0 0.6413984375 0.6727734375 0.016 0.0395 0.6 0.564642473395 0.82533561491
0 0.6056484375 0.7195234375 0.021249999999999998 0.05575 0.67 0.620985987037 0.783821665881
