5 0.8826484375 0.5155234375 0.007625 0.021249999999999998 0.71 0.651833771022 0.758361875991
3 0.8236484374999999 0.3980234375 0.006875000000000001 0.01 0.94 0.807558100405 0.589788025031
3 0.8010234375 0.4015234375000001 0.007124999999999999 0.012375 0.8 0.7173560909 0.696706709347
