0 0.48264843749999997 0.4907734375 0.019375 0.048875 1.58 0.999957646499 -0.00920354326881
0 0.9666484375 0.5483984375000001 0.020125 0.052875000000000005 -1.59 -0.999815615134 -0.0192024929017
0 0.8162734375 0.5816484375 0.018875 0.04625 -1.57 -0.999999682932 0.000796326710733
0 0.8193984375000001 0.6738984375 0.0195 0.043 1.6 0.999573603042 -0.0291995223013
0 0.6553984375 0.5598984375 0.020624999999999998 0.052625 -3.09 -0.0515697683985 -0.998669394238
0 0.6221484375 0.5611484375 0.018625 0.052000000000000005 0.0 0.0 1.0
0 0.5287734374999999 0.5616484374999999 0.021124999999999998 0.05525 -0.12 -0.119712207289 0.992808635854
