3 0.7998984375 0.43464843750000004 0.00925 0.007000000000000001 -0.01 -0.00999983333417 0.999950000417
5 0.8681484375 0.5972734375 0.011 0.024125 2.76 0.372399039425 -0.928072710209
0 0.7557734375 0.4158984375 0.020499999999999997 0.051000000000000004 -1.93 -0.936177052316 -0.351528841941
0 0.6141484375 0.5337734375000001 0.020499999999999997 0.057874999999999996 -2.67 -0.45430566983 -0.890845866781
1 0.5810234375 0.6913984375 0.021374999999999998 0.049 2.99 0.151012712086 -0.988531820827
0 0.41939843749999994 0.5683984375 0.019875 0.04325 1.15 0.912763940261 0.408487440884
0 0.5812734374999999 0.38414843750000005 0.02025 0.045875 0.9 0.783326909627 0.621609968271
0 0.25114843749999993 0.46602343749999997 0.01625 0.0505 -1.76 -0.982154317138 -0.188076838893
0 0.24614843749999993 0.4235234375 0.018 0.046125 -1.82 -0.96910912888 -0.246632309969
