0 0.5035234375 0.4893984375 0.022 0.048 1.59 0.999815615134 -0.0192024929017
0 0.8526484375000001 0.39414843749999995 0.021374999999999998 0.051500000000000004 1.58 0.999957646499 -0.00920354326881
7 0.9040234375 0.4478984374999999 0.016 0.016 1.57 0.999999682932 0.000796326710733
0 0.8592734375 0.44764843750000005 0.01975 0.049875 1.57 0.999999682932 0.000796326710733
0 0.7486484375 0.39414843749999995 0.020624999999999998 0.045625 1.6 0.999573603042 -0.0291995223013
0 0.7201484375 0.4425234375 0.020125 0.0445 1.57 0.999999682932 0.000796326710733
0 0.6153984375 0.39077343750000004 0.020125 0.046 1.59 0.999815615134 -0.0192024929017
0 0.5933984375 0.4358984375 0.020499999999999997 0.049875 1.58 0.999957646499 -0.00920354326881
0 0.4787734374999999 0.43702343749999994 0.019625 0.0465 1.58 0.999957646499 -0.00920354326881
7 0.2880234374999999 0.4352734375 0.0235 0.03175 1.6 0.999573603042 -0.0291995223013
1 0.6518984375 0.3433984375 0.022875 0.054625 1.58 0.999957646499 -0.00920354326881
