0 0.7600234375 0.41377343749999995 0.019875 0.045 -1.2 -0.932039085967 0.362357754477
3 0.7536484375 0.5743984375 0.006875000000000001 0.014499999999999999 2.38 0.690074983557 -0.723737878703
3 0.7488984375000001 0.5818984375 0.007000000000000001 0.015375 2.4 0.675463180551 -0.737393715541
1 0.7437734375 0.7018984375 0.02275 0.057125 -3.0 -0.14112000806 -0.9899924966
0 0.6428984375 0.38452343750000006 0.019625 0.050749999999999997 -1.33 -0.971148377921 0.238476053434
0 0.17464843749999992 0.2550234375 0.021249999999999998 0.055625 2.57 0.540972220377 -0.841040460846
