3 0.7842734375 0.4551484375 0.008375 0.010875 2.4 0.675463180551 -0.737393715541
3 0.8867734375 0.45427343750000004 0.008749999999999999 0.008624999999999999 -1.44 -0.991458348192 0.130423708738
3 0.8478984375 0.45889843750000003 0.00775 0.011875 -1.32 -0.968715100118 0.248175451652
3 0.8502734375000001 0.4477734375 0.006875000000000001 0.006125 -0.01 -0.00999983333417 0.999950000417
3 0.7803984375 0.5347734375 0.008 0.013500000000000002 -1.52 -0.998710143976 0.0507744849336
3 0.7800234375 0.5418984375 0.009625 0.012625 -1.49 -0.996737752043 0.0807084484548
