0 0.9656484375 0.4535234375 0.021875 0.055874999999999994 -1.58 -0.999957646499 -0.00920354326881
1 0.8665234374999999 0.4488984375 0.020874999999999998 0.04925 -1.6 -0.999573603042 -0.0291995223013
0 0.6527734375 0.4537734375 0.0185 0.047 -1.57 -0.999999682932 0.000796326710733
1 0.5745234375 0.45327343750000004 0.020749999999999998 0.050624999999999996 -1.57 -0.999999682932 0.000796326710733
