0 0.8811484375 0.41777343749999996 0.01925 0.05125 -0.07 -0.0699428473375 0.997551000253
0 0.8207734375 0.41902343750000004 0.019875 0.048375 3.14 0.00159265291649 -0.999998731728
0 0.8618984375000001 0.5325234375 0.019875 0.044875 1.61 0.999231634421 -0.039193631773
0 0.7267734375 0.5313984375 0.02175 0.045625 1.59 0.999815615134 -0.0192024929017
0 0.7246484375 0.4171484375000001 0.020374999999999997 0.05375 -3.1 -0.0415806624333 -0.999135150273
0 0.6501484375 0.5302734375 0.019375 0.048375 1.62 0.998789743471 -0.0491838219142
0 0.5377734375 0.5295234375 0.0185 0.041999999999999996 1.62 0.998789743471 -0.0491838219142
