0 0.7497734375 0.5050234375 0.020624999999999998 0.046125 1.54 0.999525830605 0.0307914590825
0 0.8971484375 0.5563984375000001 0.018625 0.04325 0.76 0.688921445111 0.724836010741
0 0.8146484375 0.5528984375 0.020125 0.045625 0.76 0.688921445111 0.724836010741
0 0.9081484375 0.41402343750000004 0.021249999999999998 0.049625 -1.6 -0.999573603042 -0.0291995223013
0 0.8213984375000001 0.3687734375 0.019875 0.049125 -1.56 -0.99994172023 0.0107961170583
0 0.7095234375 0.4262734375 0.023 0.057374999999999995 -1.62 -0.998789743471 -0.0491838219142
0 0.3986484375 0.46702343749999997 0.01975 0.046 -1.77 -0.980224472788 -0.197888814609
0 0.6920234375000001 0.3766484375 0.02025 0.052375000000000005 -1.7 -0.991664810452 -0.128844494296
0 0.5323984374999999 0.40252343749999997 0.020874999999999998 0.056625 -1.77 -0.980224472788 -0.197888814609
0 0.19764843750000005 0.5868984375 0.01825 0.0395 1.24 0.94578399945 0.324796284439
0 0.7037734375 0.3255234375 0.01875 0.056625 -1.68 -0.994043202198 -0.10898675224
