1 0.33789843750000004 0.6232734375 0.023125 0.051375000000000004 1.36 0.977864602435 0.209238665891
0 0.3475234374999999 0.5751484375 0.018125 0.054125 1.39 0.983700814811 0.179812977673
1 0.5183984374999999 0.5340234374999999 0.023125 0.07775 1.29 0.960835064206 0.277120875057
0 0.7205234375 0.5148984375000001 0.018125 0.048625 1.22 0.939099356319 0.343645746316
0 0.7062734375 0.38014843750000005 0.019375 0.051125 -1.76 -0.982154317138 -0.188076838893
0 0.5390234374999999 0.40477343750000006 0.018125 0.05437499999999999 -1.72 -0.988889766005 -0.148650700271
