0 0.9407734375 0.4627734375 0.020749999999999998 0.052375000000000005 -1.55 -0.999783764189 0.0207948278031
0 0.9505234375 0.5375234375 0.021374999999999998 0.046875 1.39 0.983700814811 0.179812977673
0 0.8172734375 0.4575234375 0.01875 0.041749999999999995 -1.57 -0.999999682932 0.000796326710733
0 0.7563984375 0.4545234375 0.021374999999999998 0.049125 -1.11 -0.89569868568 0.444661516742
0 0.33564843749999995 0.6872734375 0.021875 0.057874999999999996 0.33 0.324043028395 0.946042343528
0 0.8952734375 0.5533984375000001 0.01975 0.041375 1.05 0.867423225594 0.497571047892
0 0.8447734375 0.5813984375000001 0.02 0.038875 0.81 0.72428717437 0.689498432952
0 0.7011484375 0.5910234375 0.021124999999999998 0.059 2.85 0.287478012343 -0.957787237553
0 0.7871484375 0.6962734375 0.020624999999999998 0.041875 0.39 0.380188415123 0.924909059857
0 0.6705234375 0.7231484375 0.021249999999999998 0.049375 -2.77 -0.363099847204 -0.931750235289
