5 0.8262734375 0.48989843750000006 0.010249999999999999 0.022375 1.8 0.973847630878 -0.227202094693
0 0.8498984375 0.5363984375 0.021124999999999998 0.0505 1.17 0.920750597736 0.390151684308
0 0.8002734375 0.5125234375 0.01975 0.049125 1.83 0.966594391833 -0.256310908228
0 0.7848984375 0.4013984374999999 0.020999999999999998 0.050375 -1.36 -0.977864602435 0.209238665891
0 0.7162734374999999 0.4867734375 0.021249999999999998 0.0445 1.83 0.966594391833 -0.256310908228
0 0.6553984375 0.46964843749999996 0.021625 0.048625 1.89 0.949485614865 -0.313810559359
0 0.5923984375 0.44939843749999997 0.018875 0.043625000000000004 1.84 0.963982996152 -0.265963875609
