0 0.5532734374999999 0.48752343749999993 0.020624999999999998 0.05500000000000001 1.67 0.99508334981 -0.0990410365987
3 0.7596484375 0.4637734375 0.0072499999999999995 0.010499999999999999 -1.89 -0.949485614865 -0.313810559359
3 0.7635234375 0.45727343749999994 0.008 0.011 -1.82 -0.96910912888 -0.246632309969
3 0.6147734375 0.41114843749999996 0.0085 0.010499999999999999 -1.55 -0.999783764189 0.0207948278031
