0 0.8888984375 0.4487734375000001 0.021625 0.04525 -1.42 -0.988651762852 0.150225469912
0 0.4991484375 0.5181484375000001 0.02175 0.058875 -2.99 -0.151012712086 -0.988531820827
0 0.13677343750000015 0.6532734375 0.020624999999999998 0.044375 1.7 0.991664810452 -0.128844494296
