0 0.6115234375 0.4131484375000001 0.019125 0.052625 -3.07 -0.0715315111408 -0.997438340407
0 0.6483984375 0.5298984375 0.02025 0.052500000000000005 1.61 0.999231634421 -0.039193631773
0 0.6953984375 0.4653984375 0.018375 0.042875 -1.58 -0.999957646499 -0.00920354326881
0 0.8067734375 0.4165234375 0.020125 0.053000000000000005 -3.05 -0.0914646422324 -0.995808324539
0 0.8367734375 0.4168984375 0.0225 0.0485 0.02 0.0199986666933 0.999800006667
0 0.8833984375 0.4246484374999999 0.019375 0.0465 -0.05 -0.0499791692707 0.998750260395
0 0.9178984375 0.4241484375 0.020749999999999998 0.052625 0.04 0.0399893341866 0.999200106661
0 0.8788984375 0.5340234374999999 0.01975 0.050375 1.58 0.999957646499 -0.00920354326881
