0 0.6380234375 0.4871484374999999 0.022 0.048 1.6 0.999573603042 -0.0291995223013
0 0.8858984375 0.40277343749999994 0.02025 0.049375 1.57 0.999999682932 0.000796326710733
0 0.8470234375 0.45789843750000003 0.0215 0.053000000000000005 1.57 0.999999682932 0.000796326710733
0 0.7605234375000001 0.39714843750000006 0.020125 0.0465 1.58 0.999957646499 -0.00920354326881
0 0.7536484375 0.3391484375 0.020749999999999998 0.051625 1.58 0.999957646499 -0.00920354326881
0 0.6742734375 0.4475234375 0.020499999999999997 0.047625 1.57 0.999999682932 0.000796326710733
0 0.5231484375 0.44764843750000005 0.020125 0.052625 1.57 0.999999682932 0.000796326710733
1 0.11214843749999992 0.4251484375000001 0.026125 0.0745 1.62 0.998789743471 -0.0491838219142
0 0.6658984375 0.3425234375 0.019375 0.049875 1.58 0.999957646499 -0.00920354326881
