5 0.8585234374999999 0.5568984375 0.00425 0.021124999999999998 1.56 0.99994172023 0.0107961170583
3 0.9037734375 0.5395234375 0.007625 0.011625 1.18 0.924606012408 0.380924824367
5 0.7152734375 0.4946484375 0.0075 0.024375 0.95 0.813415504789 0.581683089464
3 0.8812734375 0.5805234374999999 0.008 0.0045 0.51 0.488177246883 0.872744507646
3 0.7468984375000001 0.5417734375000001 0.009625 0.010499999999999999 -1.65 -0.996865028454 -0.0791208888067
3 0.6598984375 0.5678984375 0.008375 0.00625 0.63 0.589144757942 0.808027508312
3 0.6656484375 0.5755234375 0.007875 0.005875 1.12 0.900100442177 0.435682446277
3 0.6958984375 0.5472734375 0.006875000000000001 0.014499999999999999 -2.69 -0.43639908216 -0.899753211214
3 0.7115234375 0.5518984375 0.007625 0.0125 -2.96 -0.180596267894 -0.983557313034
