0 0.7785234375 0.5063984375 0.022 0.048 1.52 0.998710143976 0.0507744849336
0 0.9407734375 0.4427734375 0.01975 0.043625000000000004 1.57 0.999999682932 0.000796326710733
0 0.8708984375 0.3960234375 0.020499999999999997 0.049125 1.57 0.999999682932 0.000796326710733
0 0.8401484375 0.4441484375 0.020499999999999997 0.054125 1.57 0.999999682932 0.000796326710733
7 0.6956484375 0.44339843749999996 0.032125 0.146 1.58 0.999957646499 -0.00920354326881
7 0.24677343750000003 0.4381484375 0.0335 0.1575 1.61 0.999231634421 -0.039193631773
0 0.7296484375 0.3453984375 0.019875 0.049875 1.57 0.999999682932 0.000796326710733
1 0.6426484375 0.34864843749999996 0.022875 0.049375 1.57 0.999999682932 0.000796326710733
0 0.4953984374999999 0.5377734375000001 0.0195 0.043125000000000004 1.42 0.988651762852 0.150225469912
0 0.21089843749999992 0.6177734375 0.020749999999999998 0.047 1.14 0.908633496116 0.417594503958
