0 0.7940234375 0.4142734375 0.0215 0.05275 -1.68 -0.994043202198 -0.10898675224
0 0.6940234375000001 0.48052343750000004 0.023375 0.059250000000000004 -2.43 -0.653040751572 -0.757322769225
0 0.7763984375 0.6638984375 0.021124999999999998 0.052875000000000005 0.04 0.0399893341866 0.999200106661
