0 0.6502734375 0.3667734375 0.01975 0.048 -1.69 -0.992903651094 -0.118921569297
0 0.9002734375 0.5398984375 0.019625 0.044 1.44 0.991458348192 0.130423708738
0 0.8396484375 0.5421484375000001 0.020374999999999997 0.044625 1.57 0.999999682932 0.000796326710733
0 0.7641484375 0.5423984374999999 0.019875 0.0455 1.52 0.998710143976 0.0507744849336
0 0.6966484374999999 0.5428984375 0.02175 0.051125 1.53 0.999167945271 0.0407850112416
0 0.5572734374999999 0.5435234375 0.01975 0.040999999999999995 1.54 0.999525830605 0.0307914590825
