0 0.7043984375 0.5422734375 0.022 0.048 1.37 0.979908061399 0.199449720998
0 0.8957734375 0.41439843750000005 0.020374999999999997 0.049 1.68 0.994043202198 -0.10898675224
0 0.7588984375 0.3510234375 0.01975 0.051500000000000004 1.7 0.991664810452 -0.128844494296
0 0.7788984375 0.4022734375 0.0195 0.047875 1.68 0.994043202198 -0.10898675224
7 0.5798984375 0.3833984375 0.0335 0.1575 1.7 0.991664810452 -0.128844494296
0 0.3606484375 0.6597734375 0.0195 0.043125000000000004 1.08 0.881957806885 0.471328364174
0 0.11227343750000007 0.7997734375 0.020749999999999998 0.047 0.97 0.824885713338 0.56529953116
