0 0.6760234375 0.5021484375 0.021124999999999998 0.042249999999999996 1.57 0.999999682932 0.000796326710733
0 0.9063984375 0.4248984375 0.019 0.047 -0.73 -0.666869635004 0.745174402345
0 0.8701484375 0.42639843749999995 0.020499999999999997 0.043625000000000004 -0.64 -0.597195441362 0.802095757884
0 0.7718984375 0.4198984375 0.019375 0.048625 -0.7 -0.644217687238 0.764842187284
0 0.7786484375 0.4713984375 0.019375 0.043875 1.55 0.999783764189 0.0207948278031
0 0.7150234375 0.4731484375 0.02025 0.047 1.53 0.999167945271 0.0407850112416
0 0.6431484375000001 0.42339843750000006 0.020874999999999998 0.052500000000000005 -0.65 -0.605186405736 0.796083798549
0 0.8890234375 0.5346484375 0.019375 0.045 1.57 0.999999682932 0.000796326710733
2 0.7595234375 0.5432734375 0.032125 0.098375 1.56 0.99994172023 0.0107961170583
3 0.8318984375 0.5583984375 0.00975 0.008125 2.35 0.711473352791 -0.702713076774
0 0.5926484375 0.5345234375000001 0.020499999999999997 0.04625 1.56 0.99994172023 0.0107961170583
2 0.35664843749999997 0.5312734375 0.031875 0.10024999999999999 1.55 0.999783764189 0.0207948278031
0 0.5343984374999999 0.4950234375 0.020874999999999998 0.045125 1.56 0.99994172023 0.0107961170583
0 0.6923984375 0.31339843749999996 0.019 0.04575 -1.59 -0.999815615134 -0.0192024929017
