0 0.9588984375 0.4613984375 0.021124999999999998 0.053500000000000006 -1.52 -0.998710143976 0.0507744849336
7 0.8888984375 0.4571484375 0.022625 0.03225 -1.67 -0.99508334981 -0.0990410365987
0 0.7661484375000001 0.4733984375 0.020374999999999997 0.050375 -1.74 -0.985719178836 -0.168397447949
0 0.6892734375 0.4896484375 0.018 0.045 -1.86 -0.958471283079 -0.285189059245
0 0.6201484375 0.5168984375 0.018875 0.04375 -1.88 -0.952576194272 -0.30430017106
0 0.30577343749999997 0.7043984375 0.021875 0.058374999999999996 0.99 0.836025978601 0.548689860582
