0 0.8623984375 0.45227343749999993 0.0185 0.047 -1.53 -0.999167945271 0.0407850112416
1 0.7875234375 0.4515234375 0.020749999999999998 0.050624999999999996 -1.56 -0.99994172023 0.0107961170583
0 0.5686484375 0.4551484375 0.021875 0.052875000000000005 -1.56 -0.99994172023 0.0107961170583
