0 0.6957734375 0.49852343750000006 0.021124999999999998 0.042249999999999996 1.57 0.999999682932 0.000796326710733
0 0.8468984374999999 0.43664843749999993 0.02175 0.052000000000000005 2.47 0.622233555319 -0.782831656638
0 0.8050234375 0.4375234375 0.020499999999999997 0.046375 2.33 0.725384387467 -0.688344020399
0 0.7113984375 0.4325234375 0.01975 0.044625 2.47 0.622233555319 -0.782831656638
0 0.6748984375 0.43827343750000003 0.020374999999999997 0.047375 2.43 0.653040751572 -0.757322769225
1 0.6328984375 0.5391484375 0.026000000000000002 0.071875 1.59 0.999815615134 -0.0192024929017
0 0.5312734375 0.49352343750000005 0.020874999999999998 0.045125 1.56 0.99994172023 0.0107961170583
1 0.9403984375 0.4402734374999999 0.020874999999999998 0.05525 2.57 0.540972220377 -0.841040460846
2 0.7642734375 0.31439843750000007 0.03075 0.09375 -1.56 -0.99994172023 0.0107961170583
