0 0.9433984375 0.45664843749999995 0.019125 0.042249999999999996 -1.54 -0.999525830605 0.0307914590825
0 0.8608984375 0.45364843749999995 0.01925 0.0445 -1.58 -0.999957646499 -0.00920354326881
0 0.7770234375 0.46289843750000004 0.0195 0.045 -1.69 -0.992903651094 -0.118921569297
7 0.9611484375 0.5285234375 0.005 0.0225 1.57 0.999999682932 0.000796326710733
