0 0.9143984375 0.44364843750000005 0.022 0.05225 -1.52 -0.998710143976 0.0507744849336
0 0.8161484375 0.6382734375 0.02225 0.059 -0.05 -0.0499791692707 0.998750260395
0 0.7041484375 0.7608984375 0.020624999999999998 0.044375 1.56 0.99994172023 0.0107961170583
0 0.7640234375 0.44764843750000005 0.020874999999999998 0.0475 -1.61 -0.999231634421 -0.039193631773
0 0.8368984375 0.4457734375 0.021374999999999998 0.05625 -1.58 -0.999957646499 -0.00920354326881
0 0.6946484375 0.5610234375 0.021374999999999998 0.05550000000000001 -1.59 -0.999815615134 -0.0192024929017
0 0.6866484375 0.45039843749999997 0.020374999999999997 0.044875 -1.62 -0.998789743471 -0.0491838219142
0 0.6078984375 0.4555234375 0.01825 0.045375 -1.59 -0.999815615134 -0.0192024929017
0 0.5513984375 0.5310234375 0.021374999999999998 0.046875 1.4 0.985449729988 0.1699671429
0 0.6435234375 0.5781484375 0.019625 0.05325 -0.08 -0.0799146939692 0.996801706303
0 0.4501484375 0.5717734375 0.02 0.038875 0.85 0.75128040514 0.659983145885
0 0.03927343750000001 0.5330234375 0.02 0.056125 0.35 0.342897807455 0.939372712847
0 0.04652343749999999 0.3858984375000001 0.018375 0.047125 0.35 0.342897807455 0.939372712847
