5 0.7933984375 0.5532734375 0.008125 0.020374999999999997 1.0 0.841470984808 0.540302305868
5 0.8942734375 0.4740234375 0.0075 0.021249999999999998 -1.69 -0.992903651094 -0.118921569297
3 0.5788984374999999 0.4860234375 0.009375 0.010624999999999999 0.02 0.0199986666933 0.999800006667
5 0.5727734375 0.46189843750000004 0.008624999999999999 0.021374999999999998 1.0 0.841470984808 0.540302305868
3 0.7318984374999999 0.3255234375 0.00925 0.010249999999999999 -2.4 -0.675463180551 -0.737393715541
3 0.7233984375 0.3147734375 0.009125 0.010499999999999999 -2.41 -0.668055593416 -0.744111365392
3 0.6485234375 0.4467734375 0.009125 0.008749999999999999 0.0 0.0 1.0
3 0.6465234375 0.4631484375 0.009625 0.010875 3.13 0.0115923939362 -0.999932805944
