0 0.7773984375 0.5352734375 0.01925 0.0445 1.59 0.999815615134 -0.0192024929017
0 0.9375234375 0.4551484375 0.020125 0.042749999999999996 1.55 0.999783764189 0.0207948278031
0 0.4501484375 0.5295234375 0.020749999999999998 0.0505 1.6 0.999573603042 -0.0291995223013
0 0.8422734375 0.45227343749999993 0.020125 0.052000000000000005 1.57 0.999999682932 0.000796326710733
0 0.7991484375 0.39814843749999995 0.019125 0.04675 1.57 0.999999682932 0.000796326710733
0 0.6920234375000001 0.4441484375 0.01975 0.0445 1.56 0.99994172023 0.0107961170583
0 0.6787734375 0.3926484375 0.019 0.0475 1.57 0.999999682932 0.000796326710733
1 0.5713984375 0.3896484375 0.019 0.03975 1.57 0.999999682932 0.000796326710733
0 0.5326484375 0.4425234375 0.020125 0.047 1.58 0.999957646499 -0.00920354326881
1 0.43802343749999995 0.3873984375 0.02325 0.064125 1.57 0.999999682932 0.000796326710733
0 0.4010234374999999 0.4427734375 0.019875 0.048625 1.54 0.999525830605 0.0307914590825
0 0.44802343749999995 0.4943984375 0.020999999999999998 0.049375 1.57 0.999999682932 0.000796326710733
