0 0.9072734375 0.5271484375 0.019125 0.039625 1.46 0.993868363412 0.11056977982
3 0.9047734375 0.5180234375 0.00625 0.0052499999999999995 2.16 0.831383460779 -0.555699146251
0 0.6797734375 0.5608984375 0.01925 0.05625 1.46 0.993868363412 0.11056977982
