0 0.9077734375 0.5001484375 0.020374999999999997 0.041499999999999995 1.57 0.999999682932 0.000796326710733
0 0.6503984375 0.6921484375 0.021625 0.05325 3.11 0.0315873984365 -0.999500993626
0 0.5670234375 0.6891484375 0.021374999999999998 0.049375 2.98 0.160890314967 -0.986972292696
1 0.7126484375 0.5022734375 0.023125 0.04725 -0.12 -0.119712207289 0.992808635854
1 0.7512734375 0.4621484375 0.023125 0.051125 -0.12 -0.119712207289 0.992808635854
