0 0.8427734375 0.4756484375000001 0.022625 0.05675 1.51 0.998152472498 0.0607588812194
0 0.8910234375 0.5467734375 0.01925 0.03775 1.27 0.955100855585 0.296280872925
0 0.8390234375000001 0.4371484375 0.01975 0.051000000000000004 -1.55 -0.999783764189 0.0207948278031
0 0.8295234375 0.5837734375 0.019 0.051500000000000004 0.75 0.681638760023 0.731688868874
