0 0.9207734375 0.5475234375 0.022125 0.06375 1.55 0.999783764189 0.0207948278031
0 0.8435234375 0.5492734374999999 0.020749999999999998 0.04825 1.53 0.999167945271 0.0407850112416
0 0.7723984375 0.5515234375 0.019875 0.041749999999999995 1.59 0.999815615134 -0.0192024929017
0 0.7078984375 0.5533984375000001 0.02 0.04625 1.52 0.998710143976 0.0507744849336
0 0.6401484375 0.5563984375000001 0.020499999999999997 0.044 1.53 0.999167945271 0.0407850112416
