0 0.9128984375 0.4275234375 0.019 0.04525 -1.55 -0.999783764189 0.0207948278031
0 0.8492734375 0.4581484375 0.02025 0.0505 -1.54 -0.999525830605 0.0307914590825
0 0.8597734375 0.42764843750000003 0.01975 0.0465 -1.54 -0.999525830605 0.0307914590825
5 0.8893984375 0.5407734375000001 0.007124999999999999 0.021625 3.05 0.0914646422324 -0.995808324539
5 0.9082734375 0.5462734375 0.008624999999999999 0.020374999999999997 2.71 0.418317940676 -0.908300666359
3 0.8690234375 0.3962734375 0.007124999999999999 0.0035000000000000005 -1.56 -0.99994172023 0.0107961170583
0 0.6752734375 0.4571484375 0.02 0.049875 -1.55 -0.999783764189 0.0207948278031
1 0.7621484375 0.45727343749999994 0.021875 0.057874999999999996 -1.56 -0.99994172023 0.0107961170583
