0 0.8712734375 0.6406484375 0.02225 0.059 -0.06 -0.0599640064794 0.998200539935
0 0.8180234375 0.4498984375 0.020874999999999998 0.0475 -1.6 -0.999573603042 -0.0291995223013
0 0.8893984375 0.4475234375 0.021374999999999998 0.05625 -1.59 -0.999815615134 -0.0192024929017
0 0.7495234375 0.5638984375 0.021374999999999998 0.05550000000000001 -1.6 -0.999573603042 -0.0291995223013
0 0.7416484375 0.45264843749999994 0.020374999999999997 0.044875 -1.64 -0.997606381319 -0.0691484486541
0 0.6616484375 0.45864843750000006 0.01825 0.045375 -1.61 -0.999231634421 -0.039193631773
0 0.5987734375 0.4601484375 0.020749999999999998 0.052375000000000005 -1.57 -0.999999682932 0.000796326710733
0 0.6055234375 0.5357734375 0.021374999999999998 0.046875 1.4 0.985449729988 0.1699671429
0 0.6975234375 0.5813984375000001 0.019625 0.05325 -0.09 -0.089878549198 0.995952733012
0 0.5525234374999999 0.5522734375 0.01975 0.041375 1.08 0.881957806885 0.471328364174
0 0.5052734375 0.5791484375 0.02 0.038875 0.83 0.73793137111 0.674875760071
0 0.06027343750000003 0.5115234375 0.018375 0.047125 0.34 0.333487092141 0.942754665528
