0 0.6525234375 0.4720234375000001 0.02025 0.047875 -1.65 -0.996865028454 -0.0791208888067
0 0.4541484375 0.49052343750000005 0.020749999999999998 0.045875 -1.59 -0.999815615134 -0.0192024929017
3 0.5227734374999999 0.6218984375 0.005875 0.006875000000000001 -1.3 -0.963558185417 0.267498828625
