0 0.7021484375 0.4910234375 0.02 0.0445 1.6 0.999573603042 -0.0291995223013
0 0.5837734374999999 0.45402343749999996 0.020374999999999997 0.044625 1.6 0.999573603042 -0.0291995223013
0 0.5450234375 0.31839843749999996 0.024125 0.044 -1.45 -0.992712991038 0.120502769367
0 0.3363984375 0.29739843750000006 0.01975 0.038875 -1.49 -0.996737752043 0.0807084484548
1 0.3697734374999999 0.4836484375000001 0.020499999999999997 0.065 1.63 0.998247974378 -0.0591690937141
