0 0.9536484375000001 0.4595234375 0.02225 0.046125 1.56 0.99994172023 0.0107961170583
5 0.7663984375 0.6298984375 0.00975 0.021374999999999998 1.08 0.881957806885 0.471328364174
0 0.7121484375 0.7618984375 0.021875 0.055625 -0.09 -0.089878549198 0.995952733012
0 0.5962734375000001 0.43639843750000007 0.020499999999999997 0.046 -1.01 -0.846831844618 0.531860721374
7 0.6582734375 0.3626484375000001 0.01075 0.026500000000000003 -1.47 -0.994924349778 0.100625733387
0 0.7347734375 0.3343984375 0.02225 0.05675 -1.46 -0.993868363412 0.11056977982
