0 0.5326484375 0.24777343750000003 0.019625 0.041499999999999995 1.54 0.999525830605 0.0307914590825
0 0.4643984375 0.2523984374999999 0.015 0.0655 -1.61 -0.999231634421 -0.039193631773
0 0.46627343749999994 0.4505234375 0.021124999999999998 0.05450000000000001 -1.56 -0.99994172023 0.0107961170583
0 0.7520234375 0.45102343749999996 0.020749999999999998 0.054000000000000006 -1.56 -0.99994172023 0.0107961170583
0 0.5765234374999999 0.49752343750000005 0.020374999999999997 0.05625 1.56 0.99994172023 0.0107961170583
