0 0.7300234375 0.5066484375 0.020749999999999998 0.04 1.54 0.999525830605 0.0307914590825
0 0.9141484375 0.5428984375 0.01875 0.042249999999999996 1.57 0.999999682932 0.000796326710733
7 0.6450234375 0.7407734375 0.01625 0.021875 1.52 0.998710143976 0.0507744849336
3 0.9376484375 0.5358984375 0.005124999999999999 0.004125 -3.07 -0.0715315111408 -0.997438340407
