0 0.9537734375 0.4593984375 0.02225 0.046125 1.57 0.999999682932 0.000796326710733
5 0.7653984375 0.6305234375 0.00975 0.021374999999999998 1.08 0.881957806885 0.471328364174
0 0.7137734375 0.6641484375 0.021875 0.052875000000000005 0.04 0.0399893341866 0.999200106661
