0 0.9377734375 0.5433984374999999 0.020624999999999998 0.047125 1.56 0.99994172023 0.0107961170583
0 0.8272734374999999 0.4697734375 0.020374999999999997 0.052500000000000005 -1.58 -0.999957646499 -0.00920354326881
4 0.9361484375 0.5312734375 0.009375 0.010374999999999999 -1.85 -0.961275202975 -0.275590246825
0 0.9662734374999999 0.4625234375 0.01825 0.042625 -1.61 -0.999231634421 -0.039193631773
0 0.7796484375 0.5492734374999999 0.020125 0.05325 1.58 0.999957646499 -0.00920354326881
0 0.8555234375 0.5488984375 0.018 0.056625 -1.61 -0.999231634421 -0.039193631773
0 0.5568984374999999 0.47764843749999997 0.019375 0.049 -1.57 -0.999999682932 0.000796326710733
0 0.7570234375 0.4707734375 0.019375 0.046375 -1.59 -0.999815615134 -0.0192024929017
0 0.7171484375 0.5542734375 0.019125 0.042125 1.56 0.99994172023 0.0107961170583
0 0.6333984375 0.5567734375 0.0195 0.0395 1.6 0.999573603042 -0.0291995223013
0 0.5741484375 0.5561484375 0.0195 0.04525 1.59 0.999815615134 -0.0192024929017
