0 0.6942734375 0.5120234375 0.020749999999999998 0.04 1.51 0.998152472498 0.0607588812194
0 0.7595234375 0.45227343749999993 0.020125 0.04575 -1.6 -0.999573603042 -0.0291995223013
0 0.7091484375 0.4188984375 0.019125 0.042125 -1.67 -0.99508334981 -0.0990410365987
