0 0.6553984375 0.49427343749999997 0.020374999999999997 0.045875 1.58 0.999957646499 -0.00920354326881
0 0.5472734375 0.5015234375000001 0.021124999999999998 0.054000000000000006 1.57 0.999999682932 0.000796326710733
0 0.8845234375 0.5347734375 0.02025 0.051625 1.54 0.999525830605 0.0307914590825
0 0.7843984375 0.5365234375 0.01825 0.040749999999999995 1.59 0.999815615134 -0.0192024929017
0 0.5755234375 0.5368984375 0.0195 0.043125000000000004 1.57 0.999999682932 0.000796326710733
0 0.5028984375 0.5340234374999999 0.019125 0.050875000000000004 1.61 0.999231634421 -0.039193631773
