0 0.9452734375 0.5393984374999999 0.01875 0.0465 1.59 0.999815615134 -0.0192024929017
0 0.8708984375 0.5462734375 0.020499999999999997 0.055125 1.58 0.999957646499 -0.00920354326881
0 0.6870234375 0.35264843749999997 0.020999999999999998 0.051375000000000004 -1.68 -0.994043202198 -0.10898675224
0 0.29539843749999994 0.40177343749999994 0.01975 0.048 -1.73 -0.987353839701 -0.158532000644
0 0.7210234375 0.5445234375 0.019625 0.044 1.43 0.990104560337 0.140331605847
0 0.6587734375000001 0.5491484375 0.020374999999999997 0.044625 1.54 0.999525830605 0.0307914590825
0 0.5845234374999999 0.5513984375 0.019875 0.0455 1.5 0.997494986604 0.0707372016677
0 0.3777734374999999 0.5578984375 0.01975 0.040999999999999995 1.51 0.998152472498 0.0607588812194
