0 0.9078984375 0.4196484375 0.019875 0.048375 3.14 0.00159265291649 -0.999998731728
0 0.9501484375 0.5337734375000001 0.019875 0.044875 1.59 0.999815615134 -0.0192024929017
0 0.8147734375 0.5317734375 0.02175 0.045625 1.55 0.999783764189 0.0207948278031
0 0.8757734375 0.42102343749999993 0.018625 0.04375 -0.03 -0.0299955002025 0.999550033749
0 0.8442734375000001 0.42377343750000007 0.02 0.0405 -0.05 -0.0499791692707 0.998750260395
0 0.8121484375 0.4172734375 0.020374999999999997 0.05375 -3.1 -0.0415806624333 -0.999135150273
0 0.7390234375 0.5320234375 0.019375 0.048375 1.61 0.999231634421 -0.039193631773
0 0.6262734375 0.5307734375 0.0185 0.041999999999999996 1.61 0.999231634421 -0.039193631773
0 0.5810234375 0.41239843750000005 0.020874999999999998 0.041875 -3.13 -0.0115923939362 -0.999932805944
0 0.5133984375 0.42139843749999994 0.018625 0.0445 -0.0 -0.0 1.0
0 0.4537734375 0.5292734375 0.018625 0.042249999999999996 1.59 0.999815615134 -0.0192024929017
