3 0.8670234375 0.5796484375000001 0.006625000000000001 0.011875 0.02 0.0199986666933 0.999800006667
3 0.7387734375 0.5700234375 0.006625000000000001 0.009625 1.57 0.999999682932 0.000796326710733
3 0.7381484375 0.5642734375 0.007625 0.009625 1.56 0.99994172023 0.0107961170583
