0 0.47852343750000004 0.49014843750000003 0.019375 0.048875 1.55 0.999783764189 0.0207948278031
0 0.9250234375 0.5487734375 0.020125 0.052875000000000005 -1.59 -0.999815615134 -0.0192024929017
0 0.7728984375 0.5807734375 0.018875 0.04625 -1.57 -0.999999682932 0.000796326710733
0 0.6126484375 0.5585234375 0.020624999999999998 0.052625 -3.08 -0.0615537174299 -0.998103772095
