3 0.9130234375 0.46227343750000005 0.008375 0.010875 1.94 0.932615014022 -0.36087288014
3 0.7792734375 0.4495234375 0.00825 0.006625000000000001 2.99 0.151012712086 -0.988531820827
3 0.7775234375 0.4421484375 0.007625 0.0063750000000000005 -0.31 -0.305058636443 0.952333569886
3 0.7230234375 0.5122734375 0.007875 0.0063750000000000005 -0.64 -0.597195441362 0.802095757884
