0 0.9815234375 0.5338984375 0.0195 0.05425 1.53 0.999167945271 0.0407850112416
0 0.7698984375 0.5390234375 0.020499999999999997 0.043875 1.53 0.999167945271 0.0407850112416
1 0.3511484374999999 0.6368984375 0.02475 0.066625 1.11 0.89569868568 0.444661516742
