3 0.3928984375 0.5737734375000001 0.009375 0.008 -1.55 -0.999783764189 0.0207948278031
7 0.5253984375 0.23689843750000006 0.010624999999999999 0.0355 -1.56 -0.99994172023 0.0107961170583
0 0.6345234375 0.32564843750000005 0.020125 0.042375 -1.56 -0.99994172023 0.0107961170583
0 0.4382734374999999 0.32427343749999993 0.02225 0.04825 -1.59 -0.999815615134 -0.0192024929017
