0 0.2187734375 0.7136484375000001 0.021875 0.057874999999999996 0.73 0.666869635004 0.745174402345
0 0.9538984375 0.5467734375 0.02 0.038875 1.19 0.928368967249 0.371659872261
0 0.8147734375 0.5062734375 0.021124999999999998 0.059 -3.06 -0.0815021517603 -0.996673165716
0 0.6673984374999999 0.20327343750000004 0.02175 0.049 0.71 0.651833771022 0.758361875991
0 0.8568984374999999 0.6341484375 0.020624999999999998 0.041875 0.77 0.696135238627 0.717910669611
0 0.7382734375 0.6187734375 0.021249999999999998 0.049375 -2.4 -0.675463180551 -0.737393715541
0 0.6387734375 0.7302734375 0.020999999999999998 0.047375 -2.46 -0.630030629996 -0.776570283533
