0 0.6342734375 0.43402343749999994 0.0195 0.043625000000000004 -1.57 -0.999999682932 0.000796326710733
0 0.7865234375 0.38777343750000004 0.0215 0.054125 -1.49 -0.996737752043 0.0807084484548
0 0.7141484375 0.3857734374999999 0.02 0.051125 -1.49 -0.996737752043 0.0807084484548
0 0.6292734375 0.37914843749999994 0.01975 0.04575 -1.79 -0.976070921983 -0.217452420681
0 0.4555234374999999 0.5470234375 0.0195 0.04425 1.43 0.990104560337 0.140331605847
