3 0.6801484375 0.2762734375 0.00575 0.011375 0.06 0.0599640064794 0.998200539935
3 0.5220234374999999 0.4403984375000001 0.007124999999999999 0.013500000000000002 -2.8 -0.334988150156 -0.942222340669
0 0.48052343749999993 0.4152734375 0.022 0.051375000000000004 -1.09 -0.886626914449 0.462485366875
0 0.4527734375 0.4378984375 0.019625 0.050875000000000004 2.12 0.852940481553 -0.522008175155
0 0.44064843749999993 0.4755234374999999 0.021374999999999998 0.062875 2.1 0.863209366649 -0.5048461046
1 0.40014843749999995 0.5930234375 0.022125 0.05550000000000001 -1.08 -0.881957806885 0.471328364174
0 0.3760234375 0.6207734375 0.017625 0.042499999999999996 2.03 0.896405741152 -0.443234415666
0 0.35289843749999994 0.6616484375 0.020125 0.041999999999999996 2.17 0.825784993106 -0.563985057569
0 0.3058984375 0.7035234375 0.02025 0.05325 2.23 0.790480222342 -0.612487565658
0 0.30202343749999994 0.7333984375 0.020125 0.03575 2.15 0.836898790798 -0.54735766548
0 0.2946484375 0.7593984375 0.01875 0.0435 2.04 0.891928650953 -0.452176162141
0 0.2855234375 0.7890234375 0.0185 0.055125 -1.15 -0.912763940261 0.408487440884
1 0.24877343749999992 0.8532734375 0.023625 0.05337499999999999 -1.0 -0.841470984808 0.540302305868
0 0.23664843749999998 0.8850234375 0.020874999999999998 0.048 -0.94 -0.807558100405 0.589788025031
0 0.22014843750000002 0.9165234375 0.019625 0.041999999999999996 -1.01 -0.846831844618 0.531860721374
