0 0.4092734375 0.5777734375 0.020374999999999997 0.045875 1.34 0.973484541695 0.228752807808
0 0.9055234375 0.4136484375 0.019875 0.046125 -1.69 -0.992903651094 -0.118921569297
0 0.8476484375 0.41977343749999996 0.019875 0.050124999999999996 -1.67 -0.99508334981 -0.0990410365987
0 0.7980234374999999 0.5448984375 0.020874999999999998 0.048 1.55 0.999783764189 0.0207948278031
0 0.47452343750000003 0.5196484375 0.020874999999999998 0.04725 -1.8 -0.973847630878 -0.227202094693
0 0.7387734375 0.5511484375 0.01875 0.047875 1.48 0.995880844538 0.0906716244643
