0 0.9015234375 0.5320234375 0.019875 0.052375000000000005 -1.55 -0.999783764189 0.0207948278031
0 0.8925234375 0.4563984375000001 0.020499999999999997 0.045375 -1.55 -0.999783764189 0.0207948278031
0 0.8255234375 0.5307734375 0.01975 0.04575 1.58 0.999957646499 -0.00920354326881
0 0.7653984375 0.5298984375 0.02 0.04725 -1.56 -0.99994172023 0.0107961170583
0 0.6091484375 0.5750234375 0.020624999999999998 0.05125 -2.93 -0.210017299251 -0.977697670047
