0 0.8772734375 0.5015234375000001 0.021625 0.038125 1.57 0.999999682932 0.000796326710733
5 0.33564843749999995 0.26877343749999993 0.0075 0.022625 1.63 0.998247974378 -0.0591690937141
0 0.8525234375 0.3600234375 0.0215 0.05487499999999999 -1.58 -0.999957646499 -0.00920354326881
