0 0.4321484375 0.5007734375 0.020874999999999998 0.0455 1.57 0.999999682932 0.000796326710733
0 0.8668984375 0.3916484375 0.018125 0.045375 -1.55 -0.999783764189 0.0207948278031
0 0.5542734374999999 0.39077343750000004 0.019125 0.04975 -1.53 -0.999167945271 0.0407850112416
