0 0.9570234375 0.4505234375 0.0225 0.056374999999999995 -1.56 -0.99994172023 0.0107961170583
0 0.8607734375 0.44702343750000006 0.020499999999999997 0.05500000000000001 -1.52 -0.998710143976 0.0507744849336
0 0.6858984375 0.44402343750000006 0.018125 0.041249999999999995 -1.56 -0.99994172023 0.0107961170583
1 0.5845234374999999 0.4428984375 0.0245 0.067 -1.53 -0.999167945271 0.0407850112416
0 0.5941484375 0.4751484375 0.020374999999999997 0.048625 -1.55 -0.999783764189 0.0207948278031
5 0.8961484375 0.5621484375 0.007875 0.02275 1.61 0.999231634421 -0.039193631773
0 0.3986484375 0.44127343750000003 0.016625 0.054000000000000006 -1.56 -0.99994172023 0.0107961170583
