3 0.9278984375 0.44539843749999997 0.010374999999999999 0.0115 2.6 0.515501371821 -0.856888753369
0 0.8790234375 0.4375234375 0.020874999999999998 0.05175 -1.44 -0.991458348192 0.130423708738
5 0.8848984375 0.45964843750000006 0.009875 0.02325 -1.43 -0.990104560337 0.140331605847
3 0.7925234375 0.5123984375 0.013250000000000001 0.009125 -0.95 -0.813415504789 0.581683089464
3 0.6683984375 0.4377734375 0.010499999999999999 0.01075 1.74 0.985719178836 -0.168397447949
3 0.6660234375 0.4448984375 0.01125 0.011875 1.7 0.991664810452 -0.128844494296
3 0.7003984375 0.3932734375 0.0115 0.012625 1.79 0.976070921983 -0.217452420681
