0 0.8621484375 0.5328984375 0.0185 0.041999999999999996 1.6 0.999573603042 -0.0291995223013
0 0.8792734375 0.42177343749999996 0.021249999999999998 0.051125 -0.06 -0.0599640064794 0.998200539935
0 0.8462734375000001 0.4228984375 0.020374999999999997 0.046875 0.01 0.00999983333417 0.999950000417
0 0.8160234375 0.4145234375 0.020874999999999998 0.041875 -3.13 -0.0115923939362 -0.999932805944
0 0.7837734375000001 0.4122734375 0.019375 0.041875 -3.12 -0.0215909757261 -0.999766887713
0 0.7488984375000001 0.4255234375 0.018625 0.0445 -0.01 -0.00999983333417 0.999950000417
0 0.7213984375 0.4287734375000001 0.02 0.04525 -0.02 -0.0199986666933 0.999800006667
0 0.6911484375 0.4222734375 0.019625 0.038875 -0.05 -0.0499791692707 0.998750260395
0 0.6611484375 0.42102343749999993 0.021374999999999998 0.05425 -0.04 -0.0399893341866 0.999200106661
0 0.4790234375 0.4118984375 0.0225 0.054625 0.02 0.0199986666933 0.999800006667
5 0.22802343749999998 0.4643984375 0.0072499999999999995 0.021124999999999998 -1.55 -0.999783764189 0.0207948278031
0 0.6913984375 0.5326484375 0.018625 0.042249999999999996 1.57 0.999999682932 0.000796326710733
0 0.6271484375 0.5755234375 0.02 0.04925 -0.06 -0.0599640064794 0.998200539935
0 0.26777343750000004 0.5296484375 0.0195 0.051000000000000004 1.62 0.998789743471 -0.0491838219142
