1 0.9105234375 0.42364843750000003 0.021875 0.05337499999999999 3.13 0.0115923939362 -0.999932805944
0 0.8601484375 0.5822734374999999 0.0195 0.0435 2.05 0.887362368633 -0.461072691377
0 0.7067734375 0.5328984375 0.018875 0.043125000000000004 1.68 0.994043202198 -0.10898675224
0 0.8476484375 0.41502343750000004 0.019625 0.042375 -3.12 -0.0215909757261 -0.999766887713
0 0.8183984375 0.4131484375000001 0.02025 0.045375 -3.13 -0.0115923939362 -0.999932805944
0 0.7576484375 0.41814843749999997 0.020499999999999997 0.050124999999999996 3.12 0.0215909757261 -0.999766887713
0 0.5838984375 0.5261484375000001 0.020374999999999997 0.051875000000000004 1.65 0.996865028454 -0.0791208888067
