0 0.2562734375 0.4753984375 0.0195 0.04525 1.43 0.990104560337 0.140331605847
0 0.41114843749999996 0.4995234375 0.02025 0.0485 1.56 0.99994172023 0.0107961170583
0 0.4886484375 0.4637734375 0.021249999999999998 0.05625 1.59 0.999815615134 -0.0192024929017
0 0.5157734374999999 0.3415234375 0.020874999999999998 0.053625 -1.73 -0.987353839701 -0.158532000644
