0 0.8996484375 0.5291484375 0.020499999999999997 0.052125 1.57 0.999999682932 0.000796326710733
0 0.8537734375 0.3880234375 0.01975 0.044375 3.12 0.0215909757261 -0.999766887713
0 0.7295234375 0.46427343749999994 0.021875 0.048625 1.64 0.997606381319 -0.0691484486541
0 0.7447734375 0.5302734375 0.020499999999999997 0.050375 1.64 0.997606381319 -0.0691484486541
0 0.6652734375 0.5296484375 0.0225 0.05625 1.55 0.999783764189 0.0207948278031
0 0.5588984375 0.46189843750000004 0.0195 0.040125 1.54 0.999525830605 0.0307914590825
0 0.5333984375 0.5280234375 0.021875 0.056499999999999995 1.54 0.999525830605 0.0307914590825
