0 0.9325234375 0.5301484375000001 0.02 0.047375 1.57 0.999999682932 0.000796326710733
0 0.7981484375 0.4690234375 0.019375 0.0455 -1.61 -0.999231634421 -0.039193631773
0 0.7292734375000001 0.47664843749999997 0.020749999999999998 0.05275 -1.62 -0.998789743471 -0.0491838219142
0 0.6548984375 0.48789843749999995 0.021124999999999998 0.053500000000000006 -1.65 -0.996865028454 -0.0791208888067
