5 0.8450234375 0.5545234375 0.00425 0.021124999999999998 1.76 0.982154317138 -0.188076838893
3 0.8928984375 0.5368984375 0.009625 0.010499999999999999 -1.73 -0.987353839701 -0.158532000644
3 0.7178984375 0.6075234375 0.008375 0.00625 0.92 0.795601620036 0.605820156643
3 0.8240234375 0.5198984375 0.006875000000000001 0.01225 -2.33 -0.725384387467 -0.688344020399
3 0.8117734375 0.5063984375 0.006875000000000001 0.014499999999999999 -2.21 -0.802571066247 -0.596556521734
3 0.8238984375 0.5081484374999999 0.007625 0.0125 -2.58 -0.532534907556 -0.846408041216
3 0.7626484375 0.6006484375000001 0.008 0.013000000000000001 2.96 0.180596267894 -0.983557313034
3 0.7791484375 0.6546484375 0.008125 0.007375 3.12 0.0215909757261 -0.999766887713
3 0.7960234374999999 0.6526484375 0.007625 0.009 3.12 0.0215909757261 -0.999766887713
3 0.7875234375 0.6541484375 0.005 0.0075 3.13 0.0115923939362 -0.999932805944
1 0.03852343750000009 0.5165234375 0.02275 0.05775 1.57 0.999999682932 0.000796326710733
