0 0.44727343750000004 0.5253984375 0.018625 0.041499999999999995 1.6 0.999573603042 -0.0291995223013
0 0.6173984375 0.5371484375 0.02025 0.048625 1.6 0.999573603042 -0.0291995223013
0 0.8530234375 0.5430234375 0.01975 0.049375 1.6 0.999573603042 -0.0291995223013
0 0.9576484375 0.5441484375 0.019625 0.040375 1.57 0.999999682932 0.000796326710733
2 0.5960234375 0.5838984375 0.032 0.09962499999999999 1.61 0.999231634421 -0.039193631773
0 0.5320234374999999 0.6905234375 0.017 0.043875 2.27 0.765354952529 -0.643608418714
