3 0.7452734375 0.5047734375 0.010499999999999999 0.01075 -2.88 -0.258619349661 -0.965979312398
3 0.7663984375 0.5073984375 0.01125 0.011875 -2.98 -0.160890314967 -0.986972292696
3 0.9117734375 0.5326484375 0.011125 0.013250000000000001 2.42 0.660581201279 -0.750754604725
3 0.9351484375 0.5450234375 0.01 0.012750000000000001 1.93 0.936177052316 -0.351528841941
3 0.7875234375 0.48889843749999995 0.011125 0.013000000000000001 -1.66 -0.996023989917 -0.0890854169365
0 0.8048984375 0.4637734375 0.025500000000000002 0.05775 -1.64 -0.997606381319 -0.0691484486541
1 0.7221484375 0.47264843749999996 0.022375 0.062375 -1.61 -0.999231634421 -0.039193631773
4 0.8638984375000001 0.5482734375 0.008125 0.007625 -1.69 -0.992903651094 -0.118921569297
