0 0.6113984375 0.4222734375 0.020749999999999998 0.052625 0.03 0.0299955002025 0.999550033749
0 0.5745234375 0.5286484375 0.01975 0.050375 1.57 0.999999682932 0.000796326710733
0 0.6888984375 0.5277734374999999 0.020374999999999997 0.05125 1.59 0.999815615134 -0.0192024929017
0 0.7698984375 0.41939843750000005 0.0195 0.053125 -0.0 -0.0 1.0
0 0.8736484375 0.41877343749999996 0.01975 0.0485 -3.14 -0.00159265291649 -0.999998731728
0 0.8718984375000001 0.5701484375 0.02025 0.0485 0.03 0.0299955002025 0.999550033749
0 0.9045234375 0.4170234374999999 0.019375 0.04925 -3.12 -0.0215909757261 -0.999766887713
