0 0.9202734375 0.4607734375 0.020874999999999998 0.0465 1.55 0.999783764189 0.0207948278031
0 0.7103984375 0.5200234375 0.020125 0.04675 -1.53 -0.999167945271 0.0407850112416
1 0.4781484375 0.45039843749999997 0.023 0.050749999999999997 -1.65 -0.996865028454 -0.0791208888067
1 0.48127343749999996 0.5210234375 0.020374999999999997 0.047 1.54 0.999525830605 0.0307914590825
0 0.5298984375 0.4075234375 0.020999999999999998 0.05325 -3.12 -0.0215909757261 -0.999766887713
