7 0.9315234375 0.4563984375000001 0.022625 0.03225 -1.64 -0.997606381319 -0.0691484486541
0 0.8091484375 0.4707734375 0.020374999999999997 0.050375 -1.72 -0.988889766005 -0.148650700271
0 0.7318984374999999 0.4860234375 0.018 0.045 -1.86 -0.958471283079 -0.285189059245
0 0.6635234375 0.5120234375 0.018875 0.04375 -1.87 -0.955571516853 -0.294759352997
0 0.34389843749999993 0.6938984375 0.021875 0.058374999999999996 1.01 0.846831844618 0.531860721374
