0 0.45264843749999994 0.4986484375 0.020374999999999997 0.045875 1.58 0.999957646499 -0.00920354326881
0 0.8940234375 0.5348984375 0.019625 0.050875000000000004 1.55 0.999783764189 0.0207948278031
0 0.8340234375 0.5367734375000001 0.018875 0.04475 1.58 0.999957646499 -0.00920354326881
3 0.6762734375 0.5540234374999999 0.007000000000000001 0.00975 -1.58 -0.999957646499 -0.00920354326881
0 0.6638984375 0.5360234375 0.019375 0.049125 1.6 0.999573603042 -0.0291995223013
0 0.3683984375 0.5382734375 0.02025 0.051625 1.57 0.999999682932 0.000796326710733
0 0.6422734375 0.4055234375 0.02025 0.045875 -1.53 -0.999167945271 0.0407850112416
0 0.4760234375 0.40377343750000005 0.020624999999999998 0.04925 -1.58 -0.999957646499 -0.00920354326881
