3 0.8657734375 0.5462734375 0.011375 0.011375 1.55 0.999783764189 0.0207948278031
5 0.8938984375 0.4701484375 0.010624999999999999 0.022375 -1.65 -0.996865028454 -0.0791208888067
0 0.4767734375 0.49789843749999996 0.020999999999999998 0.051000000000000004 -1.62 -0.998789743471 -0.0491838219142
3 0.7610234375 0.5426484375 0.011 0.006125 1.52 0.998710143976 0.0507744849336
5 0.9280234375 0.4643984375 0.00825 0.024375 -1.6 -0.999573603042 -0.0291995223013
1 0.5981484375 0.5321484375 0.025750000000000002 0.073375 1.53 0.999167945271 0.0407850112416
