3 0.8655234375 0.47189843749999993 0.00975 0.01175 2.47 0.622233555319 -0.782831656638
0 0.7031484375 0.4797734375 0.020749999999999998 0.05475 1.52 0.998710143976 0.0507744849336
3 0.7778984375 0.3932734375 0.008624999999999999 0.015125 1.57 0.999999682932 0.000796326710733
3 0.7987734375 0.37127343749999997 0.00825 0.01 -2.58 -0.532534907556 -0.846408041216
3 0.7186484375 0.3235234375 0.007375 0.008749999999999999 1.63 0.998247974378 -0.0591690937141
0 0.7537734375 0.6726484375 0.022375 0.0495 3.14 0.00159265291649 -0.999998731728
0 0.6960234375000001 0.6707734375000001 0.0195 0.041625 1.64 0.997606381319 -0.0691484486541
0 0.6972734375 0.7035234375 0.019875 0.041875 1.65 0.996865028454 -0.0791208888067
0 0.6895234375 0.7383984375 0.01875 0.0475 -1.54 -0.999525830605 0.0307914590825
3 0.7966484375 0.36652343749999994 0.006125 0.009125 -1.62 -0.998789743471 -0.0491838219142
3 0.7292734375000001 0.3501484375 0.0095 0.010499999999999999 1.9 0.946300087687 -0.323289566864
3 0.7332734375000001 0.34089843750000004 0.008125 0.013375000000000001 2.12 0.852940481553 -0.522008175155
3 0.6811484375 0.3551484375 0.007124999999999999 0.00625 -1.57 -0.999999682932 0.000796326710733
3 0.6742734375 0.34189843750000004 0.007375 0.007625 -1.48 -0.995880844538 0.0906716244643
3 0.6721484375 0.3343984375 0.00575 0.005375 -1.36 -0.977864602435 0.209238665891
3 0.6725234375 0.3258984375 0.006500000000000001 0.008624999999999999 -1.26 -0.952090341591 0.305816908378
0 0.5242734375 0.5078984375 0.020499999999999997 0.056374999999999995 1.61 0.999231634421 -0.039193631773
3 0.6088984375 0.2932734375 0.006625000000000001 0.0043749999999999995 -3.12 -0.0215909757261 -0.999766887713
