0 0.6297734375 0.3680234375 0.01975 0.048 -1.7 -0.991664810452 -0.128844494296
0 0.8886484375 0.5400234375 0.019625 0.044 1.44 0.991458348192 0.130423708738
0 0.8280234375 0.5421484375000001 0.020374999999999997 0.044625 1.57 0.999999682932 0.000796326710733
0 0.7520234375 0.5426484375 0.019875 0.0455 1.53 0.999167945271 0.0407850112416
0 0.6847734375 0.5431484375 0.02175 0.051125 1.53 0.999167945271 0.0407850112416
0 0.5451484375 0.5437734375 0.01975 0.040999999999999995 1.54 0.999525830605 0.0307914590825
