0 0.8508984374999999 0.39139843750000003 0.019875 0.04925 -3.08 -0.0615537174299 -0.998103772095
0 0.8203984375 0.3935234375000001 0.022125 0.043875 3.13 0.0115923939362 -0.999932805944
0 0.7265234375 0.3946484375 0.021374999999999998 0.04875 -2.58 -0.532534907556 -0.846408041216
