0 0.8043984375 0.5106484375 0.018875 0.05437499999999999 -1.94 -0.932615014022 -0.36087288014
0 0.6060234375 0.6298984375 0.02175 0.049875 -1.94 -0.932615014022 -0.36087288014
0 0.7385234375 0.5377734375000001 0.020999999999999998 0.053625 -1.98 -0.917437955282 -0.39787887379
0 0.6538984375 0.5751484375 0.017499999999999998 0.0475 -1.98 -0.917437955282 -0.39787887379
1 0.3962734374999999 0.6850234375 0.026250000000000002 0.0705 -1.9 -0.946300087687 -0.323289566864
0 0.49089843749999995 0.6436484375 0.020624999999999998 0.037 -1.9 -0.946300087687 -0.323289566864
