0 0.48289843749999994 0.48652343750000004 0.022 0.048 1.59 0.999815615134 -0.0192024929017
0 0.9065234375 0.40052343749999997 0.020624999999999998 0.04775 1.59 0.999815615134 -0.0192024929017
0 0.8326484375000001 0.39777343749999994 0.020874999999999998 0.050624999999999996 1.56 0.99994172023 0.0107961170583
1 0.8582734375000001 0.4443984375000001 0.026125 0.0745 1.58 0.999957646499 -0.00920354326881
7 0.7465234375 0.44527343750000004 0.016 0.016 1.59 0.999815615134 -0.0192024929017
0 0.7012734375 0.4437734375 0.01975 0.049875 1.58 0.999957646499 -0.00920354326881
0 0.5630234375 0.4368984375 0.020125 0.0445 1.57 0.999999682932 0.000796326710733
7 0.12539843750000002 0.4248984375 0.0235 0.03175 1.6 0.999573603042 -0.0291995223013
0 0.8552734375 0.35727343749999996 0.021374999999999998 0.04675 1.58 0.999957646499 -0.00920354326881
