5 0.7860234375 0.5087734375 0.0072499999999999995 0.021249999999999998 1.6 0.999573603042 -0.0291995223013
5 0.8387734375 0.4607734375 0.007625 0.021249999999999998 -1.53 -0.999167945271 0.0407850112416
3 0.8016484375 0.5313984375 0.006625000000000001 0.011 1.6 0.999573603042 -0.0291995223013
0 0.7691484375 0.5697734375 0.020374999999999997 0.05525 0.02 0.0199986666933 0.999800006667
