0 0.7861484375 0.3950234375 0.020499999999999997 0.04625 0.02 0.0199986666933 0.999800006667
0 0.7223984375 0.3932734375 0.02025 0.046125 3.05 0.0914646422324 -0.995808324539
5 0.8575234375 0.6096484375 0.005375 0.021249999999999998 1.46 0.993868363412 0.11056977982
5 0.8027734375 0.6357734374999999 0.0055 0.022375 0.72 0.659384671971 0.751805729141
0 0.42377343749999996 0.7558984375 0.021249999999999998 0.055625 -1.79 -0.976070921983 -0.217452420681
