0 0.5912734374999999 0.24939843750000001 0.019625 0.063 -2.41 -0.668055593416 -0.744111365392
2 0.3401484375 0.09352343750000003 0.028749999999999998 0.078625 -1.44 -0.991458348192 0.130423708738
0 0.49189843749999995 0.5401484375 0.01825 0.048 -3.03 -0.111361188687 -0.993779998619
3 0.37614843749999993 0.6956484375 0.007124999999999999 0.013500000000000002 3.12 0.0215909757261 -0.999766887713
0 0.32402343749999996 0.6673984374999999 0.022 0.051375000000000004 -1.52 -0.998710143976 0.0507744849336
0 0.3081484375 0.6977734375 0.019625 0.050875000000000004 1.66 0.996023989917 -0.0890854169365
0 0.31164843749999993 0.7361484375 0.021374999999999998 0.062875 1.73 0.987353839701 -0.158532000644
