0 0.8127734375 0.5318984375 0.019875 0.0455 1.56 0.99994172023 0.0107961170583
0 0.6348984375 0.4761484375 0.02 0.046625 -1.65 -0.996865028454 -0.0791208888067
0 0.7371484375 0.5363984375 0.01875 0.040749999999999995 1.45 0.992712991038 0.120502769367
0 0.6606484375 0.5398984375 0.018625 0.041749999999999995 1.57 0.999999682932 0.000796326710733
0 0.5935234374999999 0.5390234375 0.02 0.044 1.57 0.999999682932 0.000796326710733
