0 0.8821484375 0.5480234375 0.022125 0.06375 1.55 0.999783764189 0.0207948278031
0 0.9397734375 0.44102343749999995 0.020374999999999997 0.049 -1.56 -0.99994172023 0.0107961170583
0 0.6053984375 0.45289843750000003 0.020749999999999998 0.047 -1.62 -0.998789743471 -0.0491838219142
0 0.8050234375 0.5507734375 0.020749999999999998 0.04825 1.52 0.998710143976 0.0507744849336
0 0.7336484375 0.5531484375 0.019875 0.041749999999999995 1.57 0.999999682932 0.000796326710733
0 0.6688984375 0.5557734375 0.02 0.04625 1.51 0.998152472498 0.0607588812194
0 0.6015234375 0.5591484375 0.020499999999999997 0.044 1.53 0.999167945271 0.0407850112416
