0 0.7490234375 0.4351484375 0.02 0.04825 1.19 0.928368967249 0.371659872261
0 0.6103984375 0.49727343749999997 0.019125 0.0475 1.12 0.900100442177 0.435682446277
1 0.7073984375 0.3586484375 0.01925 0.060625 -1.88 -0.952576194272 -0.30430017106
0 0.5006484375 0.41202343750000003 0.017875 0.049 -1.77 -0.980224472788 -0.197888814609
0 0.4797734374999999 0.5270234375 0.0195 0.045625 1.22 0.939099356319 0.343645746316
0 0.23877343750000002 0.5952734375000001 0.01825 0.0395 1.33 0.971148377921 0.238476053434
