0 0.8958984375 0.5412734375 0.020125 0.045125 -1.52 -0.998710143976 0.0507744849336
0 0.8272734374999999 0.4288984375 0.0195 0.051125 -1.65 -0.996865028454 -0.0791208888067
0 0.8242734375 0.5398984375 0.020874999999999998 0.048625 1.63 0.998247974378 -0.0591690937141
0 0.6411484375000001 0.4278984375 0.020374999999999997 0.04525 -1.59 -0.999815615134 -0.0192024929017
0 0.7175234375 0.5372734375 0.02 0.04425 1.64 0.997606381319 -0.0691484486541
0 0.6476484375 0.5385234375 0.01875 0.041749999999999995 1.68 0.994043202198 -0.10898675224
0 0.5777734375 0.4291484375 0.017875 0.044 -1.56 -0.99994172023 0.0107961170583
