5 0.8901484375000001 0.5555234375 0.0045 0.01575 1.58 0.999957646499 -0.00920354326881
0 0.9361484375 0.46589843750000004 0.02 0.041625 -1.55 -0.999783764189 0.0207948278031
0 0.9350234375 0.5321484375 0.021249999999999998 0.04425 1.57 0.999999682932 0.000796326710733
0 0.8767734375 0.5320234375 0.018875 0.042375 1.57 0.999999682932 0.000796326710733
1 0.8097734375000001 0.5325234375 0.020749999999999998 0.052875000000000005 1.6 0.999573603042 -0.0291995223013
0 0.6297734375 0.46602343749999997 0.020999999999999998 0.05525 -1.56 -0.99994172023 0.0107961170583
1 0.6287734375 0.5392734375 0.022 0.057625 1.6 0.999573603042 -0.0291995223013
