0 0.8275234375 0.49977343750000003 0.020624999999999998 0.046125 1.56 0.99994172023 0.0107961170583
0 0.9098984375 0.5561484375 0.02025 0.0485 0.75 0.681638760023 0.731688868874
0 0.8681484375 0.5537734375000001 0.021625 0.0505 0.67 0.620985987037 0.783821665881
0 0.8237734375 0.5573984375000001 0.0195 0.0475 0.73 0.666869635004 0.745174402345
0 0.8732734375 0.37889843749999996 0.020125 0.04875 -1.53 -0.999167945271 0.0407850112416
0 0.8076484375 0.3716484375 0.021374999999999998 0.054000000000000006 -1.42 -0.988651762852 0.150225469912
1 0.12014843749999993 0.41877343749999996 0.024875 0.06949999999999999 -1.59 -0.999815615134 -0.0192024929017
3 0.6732734375 0.5470234375 0.007875 0.01075 0.72 0.659384671971 0.751805729141
3 0.6178984375000001 0.6792734375 0.0063750000000000005 0.00425 -3.13 -0.0115923939362 -0.999932805944
3 0.4720234375 0.7391484375 0.005375 0.0025 -2.72 -0.409214169672 -0.912438361392
