0 0.8733984375 0.6123984375 0.019125 0.045625 -2.63 -0.489566606827 -0.871965903852
0 0.8356484375 0.6166484375 0.020624999999999998 0.051500000000000004 -2.62 -0.498261642412 -0.867026721446
0 0.8001484375 0.6120234375 0.019625 0.0455 -2.59 -0.524044341687 -0.851690981487
0 0.9667734375 0.5367734375000001 0.020999999999999998 0.049125 1.54 0.999525830605 0.0307914590825
0 0.8945234375 0.5377734375000001 0.020624999999999998 0.0475 1.52 0.998710143976 0.0507744849336
0 0.9106484375 0.45627343749999993 0.01925 0.04975 -1.64 -0.997606381319 -0.0691484486541
1 0.8406484375000001 0.4567734375 0.022375 0.05487499999999999 -1.62 -0.998789743471 -0.0491838219142
0 0.7636484375 0.6116484375 0.018625 0.045375 -2.57 -0.540972220377 -0.841040460846
0 0.7260234375 0.5961484374999999 0.020874999999999998 0.04625 3.12 0.0215909757261 -0.999766887713
1 0.6923984375 0.6062734375 0.023125 0.06475 3.13 0.0115923939362 -0.999932805944
0 0.7746484375 0.45927343750000005 0.020374999999999997 0.056374999999999995 -1.57 -0.999999682932 0.000796326710733
0 0.7036484375000001 0.4593984375 0.020749999999999998 0.054125 -1.6 -0.999573603042 -0.0291995223013
2 0.5366484375 0.5290234375 0.036125000000000004 0.135125 1.37 0.979908061399 0.199449720998
