0 0.8575234375 0.4527734375 0.020874999999999998 0.056125 -1.56 -0.99994172023 0.0107961170583
0 0.5478984375 0.2460234375000001 0.0215 0.038625 1.57 0.999999682932 0.000796326710733
0 0.6133984375 0.44802343750000007 0.019875 0.051500000000000004 -1.58 -0.999957646499 -0.00920354326881
0 0.3218984375 0.2457734374999999 0.019625 0.041499999999999995 1.54 0.999525830605 0.0307914590825
0 0.2646484375 0.24764843749999998 0.015 0.0655 -1.61 -0.999231634421 -0.039193631773
0 0.08552343750000002 0.4461484375 0.021124999999999998 0.05450000000000001 -1.56 -0.99994172023 0.0107961170583
0 0.3772734375 0.44664843750000005 0.020749999999999998 0.054000000000000006 -1.56 -0.99994172023 0.0107961170583
0 0.5698984374999999 0.4956484375 0.020374999999999997 0.05625 1.55 0.999783764189 0.0207948278031
