0 0.8378984375 0.41639843750000005 0.019875 0.046125 -1.7 -0.991664810452 -0.128844494296
0 0.7322734375 0.5502734375 0.020874999999999998 0.048 1.53 0.999167945271 0.0407850112416
0 0.6737734375 0.5585234375 0.01875 0.047875 1.43 0.990104560337 0.140331605847
