0 0.9077734375 0.5001484375 0.020374999999999997 0.041499999999999995 1.57 0.999999682932 0.000796326710733
0 0.6505234375 0.6921484375 0.021625 0.05325 3.1 0.0415806624333 -0.999135150273
0 0.5300234374999999 0.5778984375 0.021374999999999998 0.049375 2.55 0.557683717391 -0.830053535235
1 0.7698984375 0.6801484375 0.023125 0.051125 -0.09 -0.089878549198 0.995952733012
