0 0.8950234375 0.4212734375 0.020874999999999998 0.054625 -3.05 -0.0914646422324 -0.995808324539
3 0.7212734375000001 0.3970234375 0.008375 0.01475 2.08 0.873132979508 -0.487482102334
0 0.8121484375 0.4733984375 0.017625 0.05375 -0.03 -0.0299955002025 0.999550033749
