3 0.8120234375 0.4711484375 0.007625 0.009125 1.92 0.939645473685 -0.342149651151
3 0.8143984375 0.4647734375 0.006750000000000001 0.010875 1.78 0.978196606808 -0.207681001609
3 0.8916484375 0.5748984375 0.01 0.00625 -2.88 -0.258619349661 -0.965979312398
3 0.6998984375 0.5253984375 0.007625 0.0115 -1.33 -0.971148377921 0.238476053434
3 0.7021484375 0.5366484375 0.008624999999999999 0.009625 -1.29 -0.960835064206 0.277120875057
