0 0.8647734375 0.5050234375 0.019875 0.039625 0.93 0.801619940884 0.597833982287
0 0.8418984375 0.4857734375 0.019375 0.053500000000000006 0.85 0.75128040514 0.659983145885
0 0.7846484375 0.4148984375 0.020749999999999998 0.052000000000000005 0.92 0.795601620036 0.605820156643
