0 0.9691484375 0.5408984375 0.020499999999999997 0.052625 1.57 0.999999682932 0.000796326710733
0 0.8956484375 0.4557734375 0.020499999999999997 0.04625 -1.59 -0.999815615134 -0.0192024929017
0 0.7601484375 0.4810234375 0.022625 0.05675 1.48 0.995880844538 0.0906716244643
0 0.8106484375 0.5523984375 0.01925 0.03775 1.16 0.916803108772 0.399339529406
0 0.7550234375 0.44302343749999995 0.01975 0.051000000000000004 -1.58 -0.999957646499 -0.00920354326881
0 0.7517734375 0.5903984375 0.019 0.051500000000000004 0.71 0.651833771022 0.758361875991
