0 0.6230234375 0.5018984375 0.020624999999999998 0.046125 1.58 0.999957646499 -0.00920354326881
0 0.8515234375 0.36689843749999995 0.021249999999999998 0.055125 -1.57 -0.999999682932 0.000796326710733
0 0.9041484375 0.5562734375 0.019625 0.04425 0.76 0.688921445111 0.724836010741
0 0.8592734375 0.5602734375 0.020499999999999997 0.049875 0.73 0.666869635004 0.745174402345
0 0.8158984375 0.5533984375000001 0.020624999999999998 0.05225 0.82 0.731145829727 0.682221207288
0 0.7738984375 0.5503984375 0.020624999999999998 0.04925 0.84 0.744643119971 0.667462825841
0 0.7287734375 0.5543984375 0.021625 0.050749999999999997 0.77 0.696135238627 0.717910669611
0 0.6840234375 0.5538984375 0.020125 0.0495 0.68 0.628793024018 0.777572718751
0 0.5950234375 0.5593984375 0.02 0.051125 0.69 0.636537182222 0.771246014997
0 0.27352343749999997 0.41902343750000004 0.018375 0.04525 -1.6 -0.999573603042 -0.0291995223013
0 0.37514843749999993 0.5527734375 0.020374999999999997 0.050624999999999996 0.78 0.7032794192 0.710913538012
1 0.1947734375000001 0.5562734375 0.02275 0.057999999999999996 0.84 0.744643119971 0.667462825841
