0 0.9227734375 0.46502343749999997 0.019625 0.05525 -1.56 -0.99994172023 0.0107961170583
0 0.9770234375 0.5295234375 0.01975 0.049 -1.54 -0.999525830605 0.0307914590825
0 0.9092734375 0.5338984375 0.018375 0.041999999999999996 -1.54 -0.999525830605 0.0307914590825
5 0.7836484375 0.5506484375 0.0045 0.01575 1.55 0.999783764189 0.0207948278031
0 0.7342734375 0.4631484375 0.02 0.041625 -1.52 -0.998710143976 0.0507744849336
0 0.7266484375 0.5300234374999999 0.021249999999999998 0.04425 1.57 0.999999682932 0.000796326710733
