0 0.23577343750000002 0.6807734375 0.022 0.048 0.55 0.522687228931 0.85252452206
0 0.8948984375 0.5021484375 0.0195 0.043125000000000004 1.56 0.99994172023 0.0107961170583
0 0.8033984375000001 0.49889843750000007 0.020749999999999998 0.047 1.6 0.999573603042 -0.0291995223013
