3 0.7580234375 0.46727343750000006 0.010875 0.012875000000000001 -2.64 -0.480822614989 -0.876817890394
6 0.6308984375 0.3567734375 0.034375 0.04025 0.37 0.361615431965 0.932327345606
6 0.6086484375 0.4162734375 0.035125 0.083625 0.38 0.370920469413 0.928664635577
6 0.5856484375 0.4751484375 0.034999999999999996 0.03925 0.38 0.370920469413 0.928664635577
6 0.5495234375 0.5685234375 0.034875 0.15887500000000002 0.37 0.361615431965 0.932327345606
4 0.9331484375 0.5321484375 0.0085 0.009 1.57 0.999999682932 0.000796326710733
4 0.9335234375 0.5385234375 0.007124999999999999 0.0085 2.34 0.718464793069 -0.695563326463
4 0.9196484375 0.5305234375000001 0.007875 0.009375 -1.29 -0.960835064206 0.277120875057
4 0.9192734375 0.5382734375 0.008 0.008125 -1.96 -0.925211520788 -0.379451764788
