0 0.6508984375 0.45164843750000006 0.020874999999999998 0.056125 -1.56 -0.99994172023 0.0107961170583
0 0.40352343749999997 0.4471484375 0.019875 0.051500000000000004 -1.58 -0.999957646499 -0.00920354326881
0 0.16664843750000014 0.44602343749999995 0.020749999999999998 0.054000000000000006 -1.56 -0.99994172023 0.0107961170583
0 0.5688984374999999 0.49589843749999996 0.020374999999999997 0.05625 1.57 0.999999682932 0.000796326710733
