0 0.6943984375 0.49289843749999995 0.020749999999999998 0.04 1.58 0.999957646499 -0.00920354326881
0 0.6521484375 0.7352734375 0.01875 0.052625 1.58 0.999957646499 -0.00920354326881
1 0.7256484375 0.7375234374999999 0.023375 0.06225000000000001 1.54 0.999525830605 0.0307914590825
