0 0.9077734375 0.5001484375 0.020374999999999997 0.041499999999999995 1.57 0.999999682932 0.000796326710733
0 0.6503984375 0.6921484375 0.021625 0.05325 3.11 0.0315873984365 -0.999500993626
0 0.7681484375000001 0.6967734375 0.021249999999999998 0.051625 -0.07 -0.0699428473375 0.997551000253
0 0.5832734374999999 0.4445234375 0.0225 0.053125 3.05 0.0914646422324 -0.995808324539
0 0.5738984374999999 0.7487734375 0.021374999999999998 0.049375 3.05 0.0914646422324 -0.995808324539
1 0.6996484375 0.40039843750000004 0.023125 0.04725 -0.17 -0.169182349067 0.98558476691
