0 0.7985234375 0.5291484375 0.020125 0.04675 -1.57 -0.999999682932 0.000796326710733
1 0.5646484375 0.46864843749999996 0.023 0.050749999999999997 -1.65 -0.996865028454 -0.0791208888067
1 0.5711484375 0.5397734375 0.020374999999999997 0.047 1.57 0.999999682932 0.000796326710733
0 0.6145234375 0.4247734375000001 0.020999999999999998 0.05325 -3.13 -0.0115923939362 -0.999932805944
0 0.8717734375 0.6076484375 0.02 0.05575 -0.09 -0.089878549198 0.995952733012
