0 0.9078984375 0.5001484375 0.020374999999999997 0.041499999999999995 1.57 0.999999682932 0.000796326710733
0 0.6501484375 0.6921484375 0.021625 0.05325 3.11 0.0315873984365 -0.999500993626
0 0.7595234375 0.5173984375 0.021124999999999998 0.051875000000000004 -0.1 -0.0998334166468 0.995004165278
0 0.5858984374999999 0.8445234375 0.0215 0.049375 3.07 0.0715315111408 -0.997438340407
