0 0.6325234375 0.5397734375 0.018125 0.04 1.6 0.999573603042 -0.0291995223013
0 0.9063984375 0.5392734375 0.018625 0.041499999999999995 1.61 0.999231634421 -0.039193631773
0 0.6596484375 0.5906484375 0.0185 0.040625 1.61 0.999231634421 -0.039193631773
0 0.8117734375 0.5932734375 0.0195 0.0495 1.68 0.994043202198 -0.10898675224
