7 0.8860234375 0.5438984375 0.013750000000000002 0.027625 1.34 0.973484541695 0.228752807808
0 0.8380234375 0.5560234375 0.0195 0.042749999999999996 1.29 0.960835064206 0.277120875057
0 0.5876484375 0.5402734375 0.020499999999999997 0.052625 -1.81 -0.971526955822 -0.236929048685
0 0.48289843749999994 0.6473984374999999 0.01975 0.048625 -1.82 -0.96910912888 -0.246632309969
0 0.38114843750000005 0.5951484375 0.020874999999999998 0.055374999999999994 -1.85 -0.961275202975 -0.275590246825
