0 0.9093984375 0.41102343750000003 0.02025 0.040749999999999995 3.13 0.0115923939362 -0.999932805944
0 0.8808984375 0.41902343750000004 0.020749999999999998 0.046625 -3.08 -0.0615537174299 -0.998103772095
0 0.8496484375 0.4130234374999999 0.019625 0.054625 3.12 0.0215909757261 -0.999766887713
0 0.7928984375 0.4142734375 0.020999999999999998 0.0485 -3.06 -0.0815021517603 -0.996673165716
0 0.7607734375 0.4115234375 0.0225 0.054625 0.03 0.0299955002025 0.999550033749
0 0.9081484375 0.5771484375 0.02 0.04925 -0.05 -0.0499791692707 0.998750260395
0 0.8773984375 0.5746484374999999 0.021875 0.041999999999999996 -0.04 -0.0399893341866 0.999200106661
0 0.8421484375 0.5721484375 0.019 0.041625 -0.01 -0.00999983333417 0.999950000417
0 0.8097734375000001 0.5741484375 0.01975 0.035125 0.08 0.0799146939692 0.996801706303
0 0.7782734375 0.5722734375 0.020999999999999998 0.049625 -3.08 -0.0615537174299 -0.998103772095
0 0.7416484375 0.5705234375 0.020624999999999998 0.05325 0.06 0.0599640064794 0.998200539935
0 0.7126484375 0.5718984375 0.021124999999999998 0.04775 0.03 0.0299955002025 0.999550033749
0 0.6225234374999999 0.4122734375 0.019875 0.05550000000000001 -3.12 -0.0215909757261 -0.999766887713
