0 0.5886484375 0.4833984375 0.022 0.048 1.62 0.998789743471 -0.0491838219142
0 0.9322734375 0.4585234375 0.020999999999999998 0.049375 1.61 0.999231634421 -0.039193631773
0 0.8360234375 0.44864843749999994 0.01875 0.042499999999999996 1.59 0.999815615134 -0.0192024929017
0 0.8201484375 0.3968984375 0.02025 0.051000000000000004 1.6 0.999573603042 -0.0291995223013
0 0.7740234375 0.3373984375 0.01875 0.0505 1.6 0.999573603042 -0.0291995223013
0 0.7391484375 0.38777343750000004 0.01925 0.044875 1.61 0.999231634421 -0.039193631773
1 0.6362734375 0.39439843750000003 0.023875 0.081625 1.63 0.998247974378 -0.0591690937141
0 0.6642734375 0.3363984375 0.0225 0.046625 1.61 0.999231634421 -0.039193631773
0 0.5403984374999999 0.3857734374999999 0.020499999999999997 0.04775 1.61 0.999231634421 -0.039193631773
7 0.4405234375 0.43039843749999995 0.025374999999999998 0.064125 1.59 0.999815615134 -0.0192024929017
7 0.6257734375 0.4405234375 0.027750000000000004 0.06899999999999999 1.62 0.998789743471 -0.0491838219142
2 0.11627343750000008 0.4130234374999999 0.03125 0.20550000000000002 1.64 0.997606381319 -0.0691484486541
0 0.5626484374999999 0.3350234375000001 0.018875 0.042749999999999996 1.58 0.999957646499 -0.00920354326881
