2 0.9690234375 0.4601484375 0.025750000000000002 0.06775 -1.57 -0.999999682932 0.000796326710733
0 0.9177734375 0.5348984375 0.02 0.046375 1.53 0.999167945271 0.0407850112416
1 0.5983984375 0.5306484375 0.02275 0.055125 1.57 0.999999682932 0.000796326710733
