0 0.8861484375 0.5276484375 0.020499999999999997 0.052125 1.6 0.999573603042 -0.0291995223013
0 0.8422734375 0.38552343750000007 0.01975 0.044375 3.12 0.0215909757261 -0.999766887713
0 0.7167734375 0.4587734375 0.021875 0.048625 1.65 0.996865028454 -0.0791208888067
0 0.7306484375 0.5255234375 0.020499999999999997 0.050375 1.66 0.996023989917 -0.0890854169365
0 0.6495234375 0.5242734375 0.0225 0.05625 1.59 0.999815615134 -0.0192024929017
0 0.5455234375 0.4553984375 0.0195 0.040125 1.45 0.992712991038 0.120502769367
0 0.5198984375 0.5203984375 0.021875 0.056499999999999995 1.54 0.999525830605 0.0307914590825
