0 0.47889843749999994 0.48427343749999996 0.022 0.048 1.6 0.999573603042 -0.0291995223013
0 0.9360234375 0.43927343750000003 0.021374999999999998 0.056125 1.56 0.99994172023 0.0107961170583
0 0.8206484375 0.3986484375 0.020624999999999998 0.04775 1.6 0.999573603042 -0.0291995223013
0 0.7458984375 0.3962734375 0.020874999999999998 0.050624999999999996 1.57 0.999999682932 0.000796326710733
1 0.7791484375 0.44239843749999996 0.026125 0.0745 1.59 0.999815615134 -0.0192024929017
0 0.6256484375 0.44139843749999996 0.01975 0.049875 1.59 0.999815615134 -0.0192024929017
0 0.4873984375 0.4331484375000001 0.020125 0.0445 1.58 0.999957646499 -0.00920354326881
0 0.7911484375 0.3561484375 0.021374999999999998 0.04675 1.59 0.999815615134 -0.0192024929017
