0 0.40677343749999995 0.5060234375 0.020374999999999997 0.045875 1.58 0.999957646499 -0.00920354326881
0 0.9253984375 0.5352734375 0.019875 0.047375 1.58 0.999957646499 -0.00920354326881
0 0.7333984375 0.5370234375 0.019625 0.050875000000000004 1.56 0.99994172023 0.0107961170583
0 0.8622734375000001 0.5363984375 0.019875 0.046875 1.56 0.99994172023 0.0107961170583
0 0.6733984375 0.5393984374999999 0.018875 0.04475 1.55 0.999783764189 0.0207948278031
0 0.5036484375 0.5417734375000001 0.019375 0.049125 1.59 0.999815615134 -0.0192024929017
