0 0.7556484375 0.5167734375 0.022 0.048 1.49 0.996737752043 0.0807084484548
0 0.8558984375 0.39414843749999995 0.019625 0.0485 1.57 0.999999682932 0.000796326710733
7 0.8230234375000001 0.44064843749999993 0.032125 0.146 1.59 0.999815615134 -0.0192024929017
0 0.6462734375 0.4302734375 0.020374999999999997 0.049 1.61 0.999231634421 -0.039193631773
0 0.5672734374999999 0.4286484374999999 0.0195 0.047875 1.59 0.999815615134 -0.0192024929017
7 0.3707734374999999 0.42639843749999995 0.0335 0.1575 1.62 0.998789743471 -0.0491838219142
1 0.7565234375000001 0.3441484375 0.022875 0.049375 1.58 0.999957646499 -0.00920354326881
0 0.43102343749999994 0.5798984375 0.0195 0.043125000000000004 1.28 0.958015860289 0.286715209632
0 0.16027343750000012 0.6992734375 0.020749999999999998 0.047 1.01 0.846831844618 0.531860721374
