0 0.47052343750000003 0.4951484374999999 0.020374999999999997 0.045875 1.58 0.999957646499 -0.00920354326881
0 0.9467734375 0.5343984374999999 0.019625 0.050875000000000004 1.57 0.999999682932 0.000796326710733
0 0.8872734375 0.5361484375 0.018875 0.04475 1.58 0.999957646499 -0.00920354326881
3 0.7353984375 0.5523984375 0.007000000000000001 0.00975 -1.58 -0.999957646499 -0.00920354326881
0 0.7165234375 0.5346484375 0.019375 0.049125 1.6 0.999573603042 -0.0291995223013
0 0.6501484375 0.5308984375 0.0185 0.039625 1.59 0.999815615134 -0.0192024929017
0 0.4212734374999999 0.5346484375 0.02025 0.051625 1.57 0.999999682932 0.000796326710733
0 0.6958984375 0.40414843749999996 0.02025 0.045875 -1.53 -0.999167945271 0.0407850112416
0 0.6251484375 0.4016484375 0.01975 0.052000000000000005 -1.54 -0.999525830605 0.0307914590825
0 0.5295234375 0.4006484375 0.020624999999999998 0.04925 -1.57 -0.999999682932 0.000796326710733
