0 0.6317734375 0.4920234375 0.022 0.048 1.59 0.999815615134 -0.0192024929017
7 0.9375234375 0.44602343749999995 0.0235 0.03175 1.57 0.999999682932 0.000796326710733
1 0.8750234375 0.44602343749999995 0.02475 0.058125 1.57 0.999999682932 0.000796326710733
0 0.6897734375 0.4381484375 0.022625 0.054000000000000006 1.58 0.999957646499 -0.00920354326881
0 0.5626484374999999 0.3916484375 0.020125 0.05375 1.59 0.999815615134 -0.0192024929017
0 0.5348984375 0.4335234375 0.020874999999999998 0.0485 1.58 0.999957646499 -0.00920354326881
1 0.38489843749999997 0.4335234375 0.02525 0.077125 1.59 0.999815615134 -0.0192024929017
