0 0.6953984375 0.5608984375 0.019375 0.048875 0.51 0.488177246883 0.872744507646
0 0.8736484375 0.4447734375 0.018375 0.04375 -1.64 -0.997606381319 -0.0691484486541
0 0.7436484375 0.45227343749999993 0.01975 0.041875 -1.63 -0.998247974378 -0.0591690937141
0 0.6897734375 0.4545234375 0.021374999999999998 0.055125 -1.61 -0.999231634421 -0.039193631773
0 0.5811484375 0.45364843749999995 0.0215 0.055125 -1.5 -0.997494986604 0.0707372016677
