0 0.5907734375 0.4947734374999999 0.020374999999999997 0.045875 1.58 0.999957646499 -0.00920354326881
0 0.4853984375 0.5018984375 0.021124999999999998 0.054000000000000006 1.57 0.999999682932 0.000796326710733
0 0.9508984375 0.5313984375 0.0185 0.039625 1.55 0.999783764189 0.0207948278031
0 0.8903984375 0.5371484375 0.019375 0.043875 1.5 0.997494986604 0.0707372016677
0 0.7208984375 0.5355234375 0.02025 0.051625 1.57 0.999999682932 0.000796326710733
0 0.8283984375 0.40114843750000007 0.020624999999999998 0.04925 -1.57 -0.999999682932 0.000796326710733
0 0.6205234374999999 0.5367734375000001 0.01825 0.040749999999999995 1.59 0.999815615134 -0.0192024929017
0 0.41202343750000003 0.5376484375 0.0195 0.043125000000000004 1.57 0.999999682932 0.000796326710733
