1 0.6477734375 0.24689843749999996 0.024 0.062375 -1.6 -0.999573603042 -0.0291995223013
7 0.5755234375 0.2500234375 0.019 0.02975 -1.56 -0.99994172023 0.0107961170583
1 0.3936484375 0.2423984375 0.0235 0.06625 -1.58 -0.999957646499 -0.00920354326881
7 0.32464843749999994 0.2460234375000001 0.010624999999999999 0.0355 -1.6 -0.999573603042 -0.0291995223013
0 0.23652343750000004 0.33402343749999996 0.020125 0.042375 -1.59 -0.999815615134 -0.0192024929017
