0 0.8090234375 0.4222734375 0.01925 0.04375 -1.56 -0.99994172023 0.0107961170583
0 0.7640234375 0.5355234375 0.021875 0.04725 1.57 0.999999682932 0.000796326710733
0 0.7388984375000001 0.4235234375 0.018875 0.050249999999999996 -1.58 -0.999957646499 -0.00920354326881
1 0.6443984375 0.8083984375 0.02525 0.059125000000000004 -1.52 -0.998710143976 0.0507744849336
