0 0.9466484375 0.5318984375 0.019375 0.042125 1.58 0.999957646499 -0.00920354326881
0 0.8801484375 0.44202343749999995 0.0225 0.052000000000000005 1.57 0.999999682932 0.000796326710733
0 0.7067734375 0.43602343750000006 0.020749999999999998 0.047625 -1.57 -0.999999682932 0.000796326710733
5 0.4753984375 0.4565234375 0.007875 0.025875 -1.58 -0.999957646499 -0.00920354326881
5 0.46864843749999996 0.46564843749999996 0.00825 0.022875 -1.55 -0.999783764189 0.0207948278031
0 0.5055234375 0.42902343749999994 0.020874999999999998 0.0615 -1.57 -0.999999682932 0.000796326710733
0 0.24464843749999998 0.5341484375000001 0.023 0.05125 1.52 0.998710143976 0.0507744849336
0 0.7492734375 0.5308984375 0.020874999999999998 0.04525 1.59 0.999815615134 -0.0192024929017
