0 0.12677343750000003 0.5696484374999999 0.0215 0.05437499999999999 1.64 0.997606381319 -0.0691484486541
0 0.8720234375 0.5456484374999999 0.018125 0.04 1.59 0.999815615134 -0.0192024929017
0 0.8766484375 0.5950234375 0.0185 0.040625 1.58 0.999957646499 -0.00920354326881
