0 0.4581484375 0.2350234375 0.020374999999999997 0.04425 1.55 0.999783764189 0.0207948278031
0 0.3192734374999999 0.23252343750000004 0.01875 0.043875 1.6 0.999573603042 -0.0291995223013
0 0.5650234375 0.48789843749999995 0.020374999999999997 0.05625 1.59 0.999815615134 -0.0192024929017
