0 0.7573984375 0.5282734375 0.019875 0.0455 1.57 0.999999682932 0.000796326710733
0 0.5808984374999999 0.46764843750000007 0.02 0.046625 -1.61 -0.999231634421 -0.039193631773
0 0.6813984375 0.5303984374999999 0.01875 0.040749999999999995 1.47 0.994924349778 0.100625733387
0 0.6048984374999999 0.5323984375 0.018625 0.041749999999999995 1.59 0.999815615134 -0.0192024929017
0 0.5375234375 0.5312734375 0.02 0.044 1.59 0.999815615134 -0.0192024929017
