0 0.9478984375 0.5363984375 0.0195 0.044375 -1.53 -0.999167945271 0.0407850112416
1 0.8131484375 0.5347734375 0.024875 0.08299999999999999 1.57 0.999999682932 0.000796326710733
0 0.8281484375 0.4122734375 0.01925 0.041249999999999995 3.12 0.0215909757261 -0.999766887713
0 0.7948984375 0.4178984375 0.021374999999999998 0.050875000000000004 -0.0 -0.0 1.0
0 0.7662734375 0.4182734375 0.021249999999999998 0.054000000000000006 -3.09 -0.0515697683985 -0.998669394238
0 0.6950234375 0.4221484375 0.02225 0.052500000000000005 -0.01 -0.00999983333417 0.999950000417
0 0.5795234375 0.42377343750000007 0.020749999999999998 0.05500000000000001 0.05 0.0499791692707 0.998750260395
0 0.5962734375000001 0.5313984375 0.02025 0.052375000000000005 1.58 0.999957646499 -0.00920354326881
