0 0.8675234375 0.44002343750000006 0.020499999999999997 0.057125 -1.48 -0.995880844538 0.0906716244643
1 0.5180234374999999 0.46464843749999996 0.025374999999999998 0.0675 2.1 0.863209366649 -0.5048461046
0 0.5058984375 0.36889843750000006 0.022625 0.038125 1.87 0.955571516853 -0.294759352997
