0 0.9463984375 0.5332734375 0.02 0.04825 1.55 0.999783764189 0.0207948278031
0 0.8800234375 0.5343984374999999 0.021124999999999998 0.05550000000000001 1.55 0.999783764189 0.0207948278031
0 0.8110234375 0.5373984375 0.02025 0.04725 1.53 0.999167945271 0.0407850112416
3 0.6377734375 0.5423984374999999 0.0052499999999999995 0.013000000000000001 -0.64 -0.597195441362 0.802095757884
3 0.6300234375 0.5475234375 0.00625 0.01125 -0.84 -0.744643119971 0.667462825841
0 0.47989843749999994 0.4478984374999999 0.019625 0.047875 -1.58 -0.999957646499 -0.00920354326881
3 0.4142734375 0.5143984374999999 0.006625000000000001 0.011875 0.06 0.0599640064794 0.998200539935
0 0.7633984375 0.43739843749999996 0.01825 0.04625 -1.59 -0.999815615134 -0.0192024929017
0 0.9198984375 0.4362734375 0.02 0.053000000000000005 -1.57 -0.999999682932 0.000796326710733
0 0.8532734375 0.4352734375 0.020125 0.046625 -1.6 -0.999573603042 -0.0291995223013
3 0.5826484375 0.40939843749999993 0.007124999999999999 0.005124999999999999 -1.59 -0.999815615134 -0.0192024929017
