3 0.8678984375000001 0.5308984375 0.011375 0.011375 1.67 0.99508334981 -0.0990410365987
5 0.7702734375 0.4553984375 0.010624999999999999 0.022375 -1.55 -0.999783764189 0.0207948278031
3 0.7536484375 0.5195234375 0.011 0.006125 1.63 0.998247974378 -0.0591690937141
5 0.8038984375 0.44702343750000006 0.00825 0.024375 -1.53 -0.999167945271 0.0407850112416
1 0.5617734375 0.48227343749999996 0.025750000000000002 0.073375 1.64 0.997606381319 -0.0691484486541
