0 0.7061484375 0.4933984375 0.020749999999999998 0.04 1.57 0.999999682932 0.000796326710733
0 0.28139843749999993 0.5401484375 0.01875 0.042249999999999996 1.57 0.999999682932 0.000796326710733
0 0.18039843750000006 0.7363984375 0.021124999999999998 0.05125 1.55 0.999783764189 0.0207948278031
0 0.24989843749999996 0.7353984375 0.020874999999999998 0.04525 1.55 0.999783764189 0.0207948278031
7 0.30639843749999995 0.7365234375 0.018875 0.01925 -1.52 -0.998710143976 0.0507744849336
