0 0.5708984375 0.6703984375 0.022 0.05125 -3.09 -0.0515697683985 -0.998669394238
0 0.3940234374999999 0.45389843750000003 0.02225 0.046125 1.58 0.999957646499 -0.00920354326881
5 0.3315234374999999 0.5101484375 0.0075 0.022375 0.01 0.00999983333417 0.999950000417
3 0.3172734374999999 0.4990234375 0.0085 0.018 -3.14 -0.00159265291649 -0.999998731728
3 0.33502343749999997 0.37477343750000003 0.007124999999999999 0.0165 -0.07 -0.0699428473375 0.997551000253
