0 0.9190234375 0.5445234375 0.020499999999999997 0.055125 1.59 0.999815615134 -0.0192024929017
0 0.7792734375 0.34489843750000004 0.020999999999999998 0.051375000000000004 -1.65 -0.996865028454 -0.0791208888067
0 0.4002734374999999 0.38377343750000004 0.01975 0.048 -1.71 -0.990326804156 -0.138754534952
0 0.7687734375 0.5407734375000001 0.019625 0.044 1.44 0.991458348192 0.130423708738
0 0.7071484375 0.5441484375 0.020374999999999997 0.044625 1.55 0.999783764189 0.0207948278031
0 0.6321484375 0.5440234375 0.019875 0.0455 1.52 0.998710143976 0.0507744849336
0 0.5673984375 0.5462734375 0.02175 0.051125 1.52 0.998710143976 0.0507744849336
0 0.4251484375 0.5471484375 0.01975 0.040999999999999995 1.53 0.999167945271 0.0407850112416
