0 0.4478984374999999 0.46589843750000004 0.0195 0.04525 1.63 0.998247974378 -0.0591690937141
0 0.6663984375 0.43727343750000003 0.020499999999999997 0.054000000000000006 0.93 0.801619940884 0.597833982287
0 0.5151484375 0.3407734375 0.020874999999999998 0.053625 -1.73 -0.987353839701 -0.158532000644
