0 0.9525234375 0.4361484375 0.020749999999999998 0.05475 -0.09 -0.089878549198 0.995952733012
0 0.9663984375 0.5572734374999999 0.020749999999999998 0.054625 0.01 0.00999983333417 0.999950000417
0 0.8208984375 0.4292734375 0.020874999999999998 0.053500000000000006 3.05 0.0914646422324 -0.995808324539
0 0.7558984375 0.43177343749999997 0.020874999999999998 0.054625 -3.02 -0.121293255031 -0.992616716706
0 0.8787734375 0.5646484375 0.01975 0.04 -0.01 -0.00999983333417 0.999950000417
0 0.9086484375 0.5667734375 0.0215 0.050375 -0.01 -0.00999983333417 0.999950000417
3 0.6351484375 0.4431484375 0.008375 0.01475 2.07 0.877964062999 -0.478726544159
