0 0.6786484375 0.48927343749999996 0.020749999999999998 0.04 1.59 0.999815615134 -0.0192024929017
0 0.30002343749999993 0.7276484375 0.01875 0.052625 1.6 0.999573603042 -0.0291995223013
1 0.3706484375 0.7288984375 0.023375 0.06225000000000001 1.55 0.999783764189 0.0207948278031
1 0.5155234375 0.7311484375 0.027000000000000003 0.06637499999999999 1.54 0.999525830605 0.0307914590825
2 0.6495234375 0.7323984375 0.028749999999999998 0.073375 1.57 0.999999682932 0.000796326710733
