0 0.9357734375 0.4655234375 0.019375 0.052625 1.61 0.999231634421 -0.039193631773
0 0.9365234375 0.5290234375 0.020624999999999998 0.045875 1.58 0.999957646499 -0.00920354326881
0 0.8727734375 0.5322734375 0.018875 0.053500000000000006 1.58 0.999957646499 -0.00920354326881
7 0.8232734375 0.4587734375 0.017875 0.0315 1.62 0.998789743471 -0.0491838219142
0 0.7650234375 0.4591484375 0.019625 0.05125 -1.56 -0.99994172023 0.0107961170583
0 0.8088984375 0.5276484375 0.020499999999999997 0.05175 1.64 0.997606381319 -0.0691484486541
0 0.5011484374999999 0.45564843750000006 0.019125 0.04475 -1.54 -0.999525830605 0.0307914590825
