0 0.3948984375 0.5043984375 0.020374999999999997 0.045875 1.58 0.999957646499 -0.00920354326881
0 0.8711484375 0.5350234375 0.019875 0.047375 1.6 0.999573603042 -0.0291995223013
0 0.6796484375 0.5362734375 0.019625 0.050875000000000004 1.56 0.99994172023 0.0107961170583
0 0.8077734375000001 0.5356484375 0.019875 0.046875 1.56 0.99994172023 0.0107961170583
0 0.44927343749999993 0.5405234375 0.019375 0.049125 1.59 0.999815615134 -0.0192024929017
