0 0.7166484375 0.3677734375 0.019875 0.053500000000000006 -1.65 -0.996865028454 -0.0791208888067
0 0.5386484374999999 0.5638984375 0.019875 0.052625 1.47 0.994924349778 0.100625733387
0 0.1552734375 0.7563984375 0.019875 0.050124999999999996 2.88 0.258619349661 -0.965979312398
3 0.33664843749999995 0.46302343749999997 0.00925 0.007000000000000001 0.33 0.324043028395 0.946042343528
0 0.17577343749999996 0.8377734375 0.020499999999999997 0.051000000000000004 2.84 0.297041351307 -0.95486461638
1 0.2183984375 0.9966484375 0.021374999999999998 0.049 2.87 0.26826605093 -0.963344863441
