0 0.9595234375 0.5338984375 0.019125 0.05225 1.6 0.999573603042 -0.0291995223013
0 0.8846484375 0.5322734375 0.019625 0.04975 1.61 0.999231634421 -0.039193631773
0 0.6053984375 0.39414843749999995 0.019625 0.041875 3.11 0.0315873984365 -0.999500993626
0 0.43664843749999993 0.5693984375000001 0.0215 0.05437499999999999 -1.52 -0.998710143976 0.0507744849336
0 0.4221484375 0.4730234375 0.018625 0.050875000000000004 -1.54 -0.999525830605 0.0307914590825
