0 0.8666484375 0.4605234375 0.02 0.049875 -1.55 -0.999783764189 0.0207948278031
0 0.7666484375 0.46064843749999995 0.01925 0.046 -1.56 -0.99994172023 0.0107961170583
1 0.6290234375 0.4547734375 0.02475 0.072625 -1.57 -0.999999682932 0.000796326710733
0 0.8011484375 0.5453984375 0.020624999999999998 0.05175 0.02 0.0199986666933 0.999800006667
0 0.7275234375 0.5480234375 0.020749999999999998 0.055874999999999994 -0.0 -0.0 1.0
0 0.6281484375 0.5358984375 0.022 0.051500000000000004 -0.06 -0.0599640064794 0.998200539935
1 0.4497734375 0.4558984374999999 0.023875 0.08 -1.59 -0.999815615134 -0.0192024929017
7 0.8963984375 0.5565234375 0.0052499999999999995 0.025875 -0.0 -0.0 1.0
7 0.8683984375 0.5557734375 0.006500000000000001 0.019 -0.01 -0.00999983333417 0.999950000417
0 0.41114843749999996 0.5202734375 0.01925 0.04025 1.63 0.998247974378 -0.0591690937141
1 0.9516484375 0.4613984375 0.021875 0.057874999999999996 -1.56 -0.99994172023 0.0107961170583
