3 0.8938984375 0.5436484375 0.010249999999999999 0.014249999999999999 1.38 0.981853530372 0.189640831298
3 0.8477734375 0.49689843749999996 0.01175 0.011625 0.95 0.813415504789 0.581683089464
3 0.8715234375 0.43764843750000004 0.008375 0.010374999999999999 -2.86 -0.277885925817 -0.960614080801
3 0.8501484375 0.4691484375 0.01 0.01075 -1.62 -0.998789743471 -0.0491838219142
3 0.8646484375 0.5327734375000001 0.00975 0.012875000000000001 -1.54 -0.999525830605 0.0307914590825
5 0.8168984375 0.47652343750000004 0.00825 0.021875 -1.49 -0.996737752043 0.0807084484548
4 0.8351484375 0.46227343750000005 0.00625 0.008624999999999999 3.04 0.101417986317 -0.994843903359
3 0.7026484375 0.4833984375 0.0095 0.012750000000000001 1.57 0.999999682932 0.000796326710733
3 0.6795234375 0.4710234375 0.009125 0.010499999999999999 1.68 0.994043202198 -0.10898675224
