0 0.8490234375 0.4228984375 0.01925 0.04375 -1.56 -0.99994172023 0.0107961170583
0 0.8047734375 0.5361484375 0.021875 0.04725 1.57 0.999999682932 0.000796326710733
0 0.7782734375 0.4242734374999999 0.018875 0.050249999999999996 -1.58 -0.999957646499 -0.00920354326881
0 0.6752734375 0.42502343749999993 0.020624999999999998 0.051375000000000004 -1.57 -0.999999682932 0.000796326710733
0 0.1885234375000001 0.5405234375 0.020749999999999998 0.051875000000000004 1.56 0.99994172023 0.0107961170583
