0 0.7046484375 0.25089843749999996 0.018375 0.050624999999999996 -1.59 -0.999815615134 -0.0192024929017
0 0.9595234375 0.4531484375 0.0185 0.061625 -1.58 -0.999957646499 -0.00920354326881
0 0.5306484374999999 0.45002343749999996 0.02 0.051375000000000004 -1.59 -0.999815615134 -0.0192024929017
0 0.6387734375 0.4993984375 0.020374999999999997 0.05625 1.57 0.999999682932 0.000796326710733
