0 0.7022734375 0.45527343750000004 0.02225 0.046125 1.58 0.999957646499 -0.00920354326881
5 0.6542734375 0.5982734375 0.0075 0.022375 -0.2 -0.198669330795 0.980066577841
5 0.5991484375 0.5772734374999999 0.007875 0.02275 0.05 0.0499791692707 0.998750260395
3 0.6136484375 0.4573984375 0.008624999999999999 0.012875000000000001 -0.22 -0.218229623081 0.975897449331
5 0.5031484374999999 0.5201484375 0.0075 0.022375 0.48 0.461779175541 0.886994922779
3 0.6463984375 0.41602343750000004 0.007625 0.013000000000000001 0.0 0.0 1.0
5 0.6801484375 0.3812734375 0.008 0.02175 1.14 0.908633496116 0.417594503958
3 0.6283984375 0.40352343749999997 0.006750000000000001 0.012875000000000001 -3.02 -0.121293255031 -0.992616716706
0 0.5002734375 0.7993984375000001 0.022625 0.05487499999999999 0.02 0.0199986666933 0.999800006667
