0 0.9332734375 0.4601484375 0.020374999999999997 0.055874999999999994 -1.47 -0.994924349778 0.100625733387
1 0.8595234375 0.45464843750000006 0.021249999999999998 0.05437499999999999 -1.49 -0.996737752043 0.0807084484548
0 0.7946484375 0.45527343750000004 0.02275 0.055625 -1.6 -0.999573603042 -0.0291995223013
0 0.5472734375 0.5365234375 0.0195 0.03275 1.22 0.939099356319 0.343645746316
