6 0.7073984375 0.5647734375 0.034999999999999996 0.16275 0.37 0.361615431965 0.932327345606
3 0.9015234375 0.5238984375 0.01175 0.013625000000000002 -3.04 -0.101417986317 -0.994843903359
3 0.9073984375 0.49452343750000005 0.01 0.012375 -2.77 -0.363099847204 -0.931750235289
3 0.9218984375 0.5213984375 0.0115 0.0115 0.2 0.198669330795 0.980066577841
0 0.8366484375000001 0.5546484375 0.023 0.058625000000000003 0.23 0.227977523535 0.973666395005
