0 0.6510234375 0.49852343750000006 0.020624999999999998 0.046125 1.56 0.99994172023 0.0107961170583
0 0.7462734375 0.3617734374999999 0.019625 0.05475 -1.53 -0.999167945271 0.0407850112416
0 0.4068984375 0.35952343750000004 0.021249999999999998 0.055125 -1.57 -0.999999682932 0.000796326710733
0 0.4541484375 0.5498984375 0.019625 0.04425 0.72 0.659384671971 0.751805729141
0 0.3700234375 0.5470234375 0.020624999999999998 0.05225 0.78 0.7032794192 0.710913538012
