0 0.5812734374999999 0.48289843750000006 0.022 0.048 1.62 0.998789743471 -0.0491838219142
0 0.9456484375 0.45864843750000006 0.020999999999999998 0.049375 1.61 0.999231634421 -0.039193631773
0 0.8497734375 0.44902343749999996 0.01875 0.042499999999999996 1.58 0.999957646499 -0.00920354326881
0 0.8410234375000001 0.3978984375 0.02025 0.051000000000000004 1.6 0.999573603042 -0.0291995223013
0 0.7928984375 0.33702343749999997 0.01875 0.0505 1.6 0.999573603042 -0.0291995223013
0 0.7588984375 0.38852343749999996 0.01925 0.044875 1.6 0.999573603042 -0.0291995223013
1 0.6560234375 0.39577343750000005 0.023875 0.081625 1.63 0.998247974378 -0.0591690937141
0 0.6836484375 0.33727343750000005 0.0225 0.046625 1.61 0.999231634421 -0.039193631773
0 0.5601484374999999 0.38689843749999997 0.020499999999999997 0.04775 1.6 0.999573603042 -0.0291995223013
7 0.4545234375 0.43202343750000005 0.025374999999999998 0.064125 1.59 0.999815615134 -0.0192024929017
7 0.6393984375 0.44139843749999996 0.027750000000000004 0.06899999999999999 1.61 0.999231634421 -0.039193631773
2 0.12814843749999993 0.4156484375 0.03125 0.20550000000000002 1.64 0.997606381319 -0.0691484486541
0 0.5818984374999999 0.3361484375 0.018875 0.042749999999999996 1.58 0.999957646499 -0.00920354326881
