3 0.6983984375 0.2690234375 0.00575 0.011375 0.05 0.0499791692707 0.998750260395
3 0.5358984375 0.4241484375 0.007124999999999999 0.013500000000000002 -2.83 -0.306574986384 -0.95184650954
0 0.4943984374999999 0.3986484375 0.022 0.051375000000000004 -1.05 -0.867423225594 0.497571047892
0 0.46564843749999996 0.42039843750000006 0.019625 0.050875000000000004 2.16 0.831383460779 -0.555699146251
0 0.45302343749999996 0.4581484375 0.021374999999999998 0.062875 2.13 0.847677840134 -0.530511337623
1 0.4085234375 0.5740234375 0.022125 0.05550000000000001 -1.05 -0.867423225594 0.497571047892
0 0.3833984375 0.6005234374999999 0.017625 0.042499999999999996 2.06 0.882707350816 -0.469923113728
0 0.3591484374999999 0.6410234375 0.020125 0.041999999999999996 2.19 0.814340892426 -0.580386863155
0 0.3108984374999999 0.6820234375 0.02025 0.05325 2.23 0.790480222342 -0.612487565658
0 0.3055234375 0.7110234375 0.020125 0.03575 2.15 0.836898790798 -0.54735766548
0 0.29777343749999996 0.7372734375 0.01875 0.0435 2.07 0.877964062999 -0.478726544159
0 0.2882734374999999 0.7663984375 0.0185 0.055125 -1.12 -0.900100442177 0.435682446277
1 0.24927343749999997 0.8293984375 0.023625 0.05337499999999999 -0.93 -0.801619940884 0.597833982287
0 0.23552343749999993 0.8601484375 0.020874999999999998 0.048 -0.91 -0.78950373969 0.613745749489
0 0.2193984375 0.8913984375 0.019625 0.041999999999999996 -0.98 -0.830497370492 0.557022546766
