1 0.6543984375 0.4427734375 0.02525 0.08475 -1.58 -0.999957646499 -0.00920354326881
0 0.5517734375 0.45364843749999995 0.02225 0.058125 -1.72 -0.988889766005 -0.148650700271
5 0.4342734375 0.5913984375 0.007000000000000001 0.02225 3.07 0.0715315111408 -0.997438340407
