0 0.8955234375 0.5818984375 0.021374999999999998 0.058125 0.64 0.597195441362 0.802095757884
0 0.8607734375 0.5610234375 0.020749999999999998 0.05775 0.58 0.548023936792 0.836462649915
7 0.8375234375 0.5356484375 0.029875000000000002 0.07275000000000001 -2.52 -0.582330649524 -0.8129520371
0 0.8032734375 0.5222734375 0.020125 0.059125000000000004 0.62 0.581035160537 0.813878456663
0 0.7545234375000001 0.49152343749999994 0.0195 0.0435 0.6 0.564642473395 0.82533561491
7 0.7795234375 0.4990234375 0.02 0.0335 -2.51 -0.590430918114 -0.807088180396
7 0.6072734375 0.5552734375 0.016375 0.028125 -2.5 -0.598472144104 -0.801143615547
0 0.7065234375 0.37252343750000005 0.020749999999999998 0.050749999999999997 2.23 0.790480222342 -0.612487565658
