6 0.022523437500000076 0.6250234375 0.029625000000000002 0.29112499999999997 1.54 0.999525830605 0.0307914590825
0 0.8275234375 0.38714843749999994 0.020125 0.047875 -1.56 -0.99994172023 0.0107961170583
0 0.7643984375 0.38889843749999997 0.018125 0.042499999999999996 -1.68 -0.994043202198 -0.10898675224
0 0.7048984375 0.39014843749999994 0.021374999999999998 0.05387499999999999 -1.59 -0.999815615134 -0.0192024929017
0 0.5828984374999999 0.39552343749999996 0.020749999999999998 0.050124999999999996 -1.61 -0.999231634421 -0.039193631773
0 0.5181484375 0.39977343750000005 0.02 0.04875 -1.62 -0.998789743471 -0.0491838219142
