1 0.9537734375 0.4615234375 0.023 0.050749999999999997 -1.53 -0.999167945271 0.0407850112416
1 0.9596484375 0.5318984375 0.020374999999999997 0.047 1.61 0.999231634421 -0.039193631773
0 0.8476484375 0.46502343749999997 0.020374999999999997 0.055874999999999994 -1.52 -0.998710143976 0.0507744849336
1 0.7723984375 0.4631484375 0.021249999999999998 0.05437499999999999 -1.55 -0.999783764189 0.0207948278031
0 0.7062734375 0.4671484375 0.02275 0.055625 -1.64 -0.997606381319 -0.0691484486541
0 0.5140234374999999 0.5362734375 0.0195 0.03275 1.04 0.862404227243 0.506220257233
