0 0.9313984375 0.4523984375000001 0.02 0.052125 -1.62 -0.998789743471 -0.0491838219142
0 0.8648984375 0.6132734375 0.01975 0.040999999999999995 -2.48 -0.614374257806 -0.78901474723
0 0.8327734375 0.6086484375 0.018375 0.037125000000000005 -2.53 -0.574172148355 -0.818734599277
0 0.7927734375 0.6143984375 0.017875 0.043625000000000004 -2.6 -0.515501371821 -0.856888753369
0 0.7582734375 0.6153984375 0.019125 0.045625 -2.64 -0.480822614989 -0.876817890394
0 0.7195234375 0.6193984375 0.020624999999999998 0.051500000000000004 -2.63 -0.489566606827 -0.871965903852
0 0.8513984375 0.5363984375 0.020999999999999998 0.049125 1.52 0.998710143976 0.0507744849336
0 0.7776484375 0.5395234375 0.020624999999999998 0.0475 1.51 0.998152472498 0.0607588812194
0 0.7936484375 0.45689843750000003 0.01925 0.04975 -1.67 -0.99508334981 -0.0990410365987
1 0.7227734375 0.4597734375 0.022375 0.05487499999999999 -1.65 -0.996865028454 -0.0791208888067
0 0.6118984375000001 0.6025234375 0.020874999999999998 0.04625 3.1 0.0415806624333 -0.999135150273
0 0.5853984375 0.4645234375 0.020749999999999998 0.054125 -1.62 -0.998789743471 -0.0491838219142
0 0.3048984375 0.4866484375 0.02175 0.060625 0.0 0.0 1.0
2 0.4427734375 0.5337734375000001 0.036125000000000004 0.135125 1.43 0.990104560337 0.140331605847
