1 0.9100234375 0.4405234375 0.02525 0.08475 -1.55 -0.999783764189 0.0207948278031
0 0.8073984375000001 0.4485234375 0.02225 0.058125 -1.66 -0.996023989917 -0.0890854169365
3 0.7908984375 0.4677734375 0.00825 0.01175 -2.63 -0.489566606827 -0.871965903852
3 0.7418984375 0.4707734375 0.006875000000000001 0.009875 -0.47 -0.452886285379 0.891568288195
3 0.7343984375 0.47427343750000006 0.008 0.010499999999999999 -0.81 -0.72428717437 0.689498432952
5 0.6608984375 0.5777734375 0.008125 0.022375 3.06 0.0815021517603 -0.996673165716
0 0.6668984375 0.7616484375 0.018875 0.05437499999999999 -2.96 -0.180596267894 -0.983557313034
