0 0.8431484375 0.5061484375 0.020624999999999998 0.046125 1.56 0.99994172023 0.0107961170583
0 0.7346484375 0.5632734375 0.0215 0.0485 0.76 0.688921445111 0.724836010741
0 0.6000234375 0.5638984375 0.018625 0.04325 0.78 0.7032794192 0.710913538012
0 0.5153984374999999 0.5611484375 0.020125 0.045625 0.76 0.688921445111 0.724836010741
0 0.7542734375 0.4131484375000001 0.01975 0.042749999999999996 -1.6 -0.999573603042 -0.0291995223013
0 0.8031484375 0.3701484374999999 0.019625 0.050124999999999996 -1.59 -0.999815615134 -0.0192024929017
0 0.6172734375 0.3193984375000001 0.0185 0.040125 -1.71 -0.990326804156 -0.138754534952
