0 0.8892734375 0.4567734375 0.020499999999999997 0.049375 -1.57 -0.999999682932 0.000796326710733
0 0.8871484375 0.5322734375 0.020499999999999997 0.048 1.57 0.999999682932 0.000796326710733
0 0.7558984375 0.5307734375 0.019875 0.052375000000000005 -1.55 -0.999783764189 0.0207948278031
0 0.7496484375 0.4555234375 0.020499999999999997 0.045375 -1.53 -0.999167945271 0.0407850112416
0 0.6822734375 0.5313984375 0.01975 0.04575 1.58 0.999957646499 -0.00920354326881
0 0.6247734375 0.5300234374999999 0.02 0.04725 -1.55 -0.999783764189 0.0207948278031
