0 0.8845234375 0.5550234375 0.020749999999999998 0.052000000000000005 0.18 0.179029573426 0.983843692788
0 0.8250234375000001 0.5398984375 0.020999999999999998 0.05425 -2.92 -0.219783612225 -0.975548647581
0 0.9147734375 0.40802343750000003 0.019125 0.05575 -2.96 -0.180596267894 -0.983557313034
5 0.6287734375 0.45202343750000007 0.007875 0.026500000000000003 1.72 0.988889766005 -0.148650700271
0 0.8223984375 0.3900234375 0.0195 0.048125 -2.96 -0.180596267894 -0.983557313034
0 0.7345234375 0.37389843750000007 0.02025 0.04375 -2.91 -0.229527947021 -0.973302071063
0 0.5868984374999999 0.3520234375 0.01925 0.045 -2.96 -0.180596267894 -0.983557313034
