0 0.6647734375000001 0.45164843750000006 0.02 0.051375000000000004 -1.59 -0.999815615134 -0.0192024929017
0 0.4000234375 0.45264843749999994 0.019375 0.047375 -1.56 -0.99994172023 0.0107961170583
0 0.10789843750000006 0.45027343750000004 0.02025 0.040125 -1.57 -0.999999682932 0.000796326710733
0 0.6303984375 0.4991484375 0.020374999999999997 0.05625 1.58 0.999957646499 -0.00920354326881
