0 0.7672734375 0.5268984375 0.020749999999999998 0.04975 1.65 0.996865028454 -0.0791208888067
1 0.5133984375 0.3996484375 0.021875 0.05337499999999999 -3.09 -0.0515697683985 -0.998669394238
0 0.3011484375 0.49552343749999994 0.018875 0.043125000000000004 1.75 0.983985946874 -0.178246055649
