0 0.8577734375 0.4258984375 0.020374999999999997 0.04525 -1.59 -0.999815615134 -0.0192024929017
0 0.9325234375 0.5362734375 0.02 0.04425 1.61 0.999231634421 -0.039193631773
0 0.8672734375 0.5366484375 0.01875 0.041749999999999995 1.67 0.99508334981 -0.0990410365987
0 0.7950234375 0.42677343749999996 0.017875 0.044 -1.56 -0.99994172023 0.0107961170583
3 0.7460234375 0.5607734375 0.0085 0.01 1.57 0.999999682932 0.000796326710733
3 0.7508984375000001 0.5675234375 0.008125 0.00925 1.57 0.999999682932 0.000796326710733
0 0.7973984375000001 0.5388984375 0.018125 0.043 1.6 0.999573603042 -0.0291995223013
