2 0.9487734375 0.45964843750000006 0.025750000000000002 0.06775 -1.57 -0.999999682932 0.000796326710733
0 0.8960234375 0.5346484375 0.02 0.046375 1.54 0.999525830605 0.0307914590825
1 0.5758984375 0.5300234374999999 0.02275 0.055125 1.57 0.999999682932 0.000796326710733
