0 0.7133984375 0.4911484374999999 0.021124999999999998 0.042249999999999996 1.62 0.998789743471 -0.0491838219142
0 0.9036484375 0.4195234375 0.019625 0.0435 -0.69 -0.636537182222 0.771246014997
0 0.9302734375 0.46689843750000004 0.02175 0.04575 1.58 0.999957646499 -0.00920354326881
0 0.8637734375 0.4640234375000001 0.019875 0.045625 1.63 0.998247974378 -0.0591690937141
0 0.8032734375 0.46027343749999994 0.02 0.041875 1.58 0.999957646499 -0.00920354326881
0 0.7816484375 0.4205234375 0.019 0.041249999999999995 -0.68 -0.628793024018 0.777572718751
0 0.5167734374999999 0.4537734375 0.019375 0.043875 1.58 0.999957646499 -0.00920354326881
0 0.9245234375 0.5312734375 0.021249999999999998 0.0505 1.57 0.999999682932 0.000796326710733
0 0.8492734375 0.5308984375 0.0185 0.041999999999999996 1.62 0.998789743471 -0.0491838219142
0 0.6236484375 0.5216484375 0.019375 0.045 1.64 0.997606381319 -0.0691484486541
2 0.4936484375 0.5245234375 0.032125 0.098375 1.61 0.999231634421 -0.039193631773
3 0.5641484374999999 0.5572734374999999 0.00975 0.008125 -2.84 -0.297041351307 -0.95486461638
0 0.6290234375 0.3012734375 0.020749999999999998 0.051125 -1.56 -0.99994172023 0.0107961170583
0 0.5617734375 0.48689843750000006 0.020874999999999998 0.045125 1.62 0.998789743471 -0.0491838219142
0 0.7515234375 0.30564843750000004 0.01925 0.044625 -1.54 -0.999525830605 0.0307914590825
