0 0.9600234375 0.46827343749999994 0.02 0.046625 -1.58 -0.999957646499 -0.00920354326881
0 0.9850234375 0.5326484375 0.018625 0.041749999999999995 1.62 0.998789743471 -0.0491838219142
0 0.9190234375 0.5286484375 0.02 0.044 1.59 0.999815615134 -0.0192024929017
0 0.8953984375 0.4667734375 0.01875 0.0435 1.61 0.999231634421 -0.039193631773
0 0.8325234375 0.46464843749999996 0.020374999999999997 0.041499999999999995 -1.56 -0.99994172023 0.0107961170583
0 0.8358984375 0.5316484375 0.019375 0.040875 1.66 0.996023989917 -0.0890854169365
0 0.7725234375 0.5272734375 0.02 0.047375 1.59 0.999815615134 -0.0192024929017
