0 0.7723984375 0.4973984375 0.020624999999999998 0.046125 1.58 0.999957646499 -0.00920354326881
3 0.8238984375 0.6047734375 0.007875 0.01075 0.74 0.674287911628 0.73846855873
3 0.8020234374999999 0.6185234375 0.006875000000000001 0.00975 -2.45 -0.637764702135 -0.770231254047
3 0.6622734375 0.7345234375 0.005375 0.0025 -2.73 -0.400069477592 -0.916484813349
