0 0.9140234375 0.4557734375 0.019 0.0445 -1.58 -0.999957646499 -0.00920354326881
0 0.5280234375 0.44664843750000005 0.020499999999999997 0.057125 -1.53 -0.999167945271 0.0407850112416
1 0.18027343750000002 0.4780234375 0.025374999999999998 0.0675 2.07 0.877964062999 -0.478726544159
0 0.6288984375 0.4022734375 0.017625 0.05275 -2.75 -0.381660992052 -0.924302378632
