3 0.9170234375 0.5038984375 0.0095 0.012750000000000001 2.43 0.653040751572 -0.757322769225
3 0.9011484375 0.5022734375 0.008 0.011375 2.19 0.814340892426 -0.580386863155
3 0.8958984375 0.48064843749999997 0.0085 0.011625 2.15 0.836898790798 -0.54735766548
3 0.8748984375 0.45927343750000005 0.01 0.01175 2.11 0.858117829635 -0.513452812304
3 0.8657734375 0.4966484375 0.010374999999999999 0.0115 2.36 0.70441076577 -0.709792556362
3 0.8511484375 0.4673984375 0.0085 0.012375 2.48 0.614374257806 -0.78901474723
3 0.8797734375 0.4821484375 0.008875 0.011 2.31 0.739005278059 -0.673699635595
3 0.8311484375 0.4780234375 0.00975 0.01175 2.58 0.532534907556 -0.846408041216
3 0.8671484375 0.48827343749999996 0.008624999999999999 0.011 2.18 0.820103947621 -0.572214570852
0 0.7738984375 0.45564843750000006 0.020874999999999998 0.05175 -1.56 -0.99994172023 0.0107961170583
