0 0.7460234375 0.5042734375 0.020749999999999998 0.04 1.54 0.999525830605 0.0307914590825
6 0.5910234375 0.5937734375 0.027125 0.18575 -1.62 -0.998789743471 -0.0491838219142
6 0.4348984375 0.6031484375 0.028499999999999998 0.12662500000000002 -1.63 -0.998247974378 -0.0591690937141
3 0.6822734375 0.36514843750000003 0.0063750000000000005 0.010875 -1.64 -0.997606381319 -0.0691484486541
