5 0.7467734375 0.34064843749999996 0.00625 0.02175 -1.55 -0.999783764189 0.0207948278031
0 0.5522734375 0.39452343749999996 0.019 0.04375 -3.12 -0.0215909757261 -0.999766887713
0 0.4851484374999999 0.3933984374999999 0.019 0.043375000000000004 -3.14 -0.00159265291649 -0.999998731728
