3 0.9201484375 0.5170234375 0.0095 0.012750000000000001 2.19 0.814340892426 -0.580386863155
3 0.9031484375 0.5153984375 0.008 0.011375 2.08 0.873132979508 -0.487482102334
3 0.8957734375 0.4937734375 0.0085 0.011625 2.12 0.852940481553 -0.522008175155
3 0.8742734375 0.4720234375000001 0.01 0.01175 2.2 0.80849640382 -0.588501117255
3 0.8665234374999999 0.5097734375 0.010374999999999999 0.0115 2.33 0.725384387467 -0.688344020399
3 0.8485234375 0.48289843750000006 0.0085 0.012375 2.55 0.557683717391 -0.830053535235
3 0.8801484375 0.4956484375 0.008875 0.011 2.28 0.758880708181 -0.651229660528
3 0.8307734375 0.4913984375 0.00975 0.01175 2.53 0.574172148355 -0.818734599277
3 0.8666484375 0.5008984375 0.008624999999999999 0.011 2.23 0.790480222342 -0.612487565658
0 0.7628984375 0.4615234375 0.020874999999999998 0.05175 -1.58 -0.999957646499 -0.00920354326881
