1 0.8993984375 0.41939843750000005 0.0235 0.072625 -0.02 -0.0199986666933 0.999800006667
0 0.9502734375 0.5335234375 0.02025 0.052375000000000005 1.57 0.999999682932 0.000796326710733
0 0.8892734375 0.5792734375 0.019875 0.040125 -0.07 -0.0699428473375 0.997551000253
0 0.8345234375 0.5761484375 0.022125 0.05525 3.11 0.0315873984365 -0.999500993626
0 0.8056484375 0.41939843750000005 0.020749999999999998 0.052000000000000005 -3.11 -0.0315873984365 -0.999500993626
0 0.7163984375 0.42977343749999997 0.018625 0.04825 -0.09 -0.089878549198 0.995952733012
0 0.7757734375 0.4265234375 0.020499999999999997 0.050875000000000004 -3.11 -0.0315873984365 -0.999500993626
