0 0.4488984374999999 0.5315234375 0.02025 0.048625 1.6 0.999573603042 -0.0291995223013
0 0.7407734375 0.5403984375 0.01975 0.049375 1.61 0.999231634421 -0.039193631773
0 0.8552734375 0.5435234375 0.019625 0.040375 1.57 0.999999682932 0.000796326710733
2 0.4607734375 0.5786484375 0.032 0.09962499999999999 1.62 0.998789743471 -0.0491838219142
0 0.8560234375 0.5925234375 0.020125 0.052500000000000005 1.6 0.999573603042 -0.0291995223013
0 0.5012734375 0.6687734375 0.017 0.043875 2.21 0.802571066247 -0.596556521734
