3 0.9057734375 0.5306484375 0.005625 0.009375 -1.15 -0.912763940261 0.408487440884
3 0.8511484375 0.4987734374999999 0.007875 0.00925 -1.32 -0.968715100118 0.248175451652
3 0.8493984375 0.5097734375 0.0075 0.006500000000000001 -1.36 -0.977864602435 0.209238665891
3 0.8398984375 0.5265234375000001 0.00575 0.008375 -1.22 -0.939099356319 0.343645746316
5 0.7035234375 0.38952343750000007 0.007124999999999999 0.018 -2.24 -0.784315925084 -0.620361612013
