0 0.5472734375 0.3008984375 0.020874999999999998 0.048125 -2.14 -0.842330431637 -0.5389614494
0 0.3946484375 0.36827343749999997 0.019625 0.063 -2.83 -0.306574986384 -0.95184650954
0 0.36914843750000004 0.7563984375 0.01825 0.048 -3.14 -0.00159265291649 -0.999998731728
