0 0.6887734375 0.5571484375 0.020874999999999998 0.0455 1.36 0.977864602435 0.209238665891
0 0.8606484375 0.4225234375 0.019625 0.053000000000000005 -1.76 -0.982154317138 -0.188076838893
0 0.6795234375 0.4581484375 0.020999999999999998 0.055625 -1.77 -0.980224472788 -0.197888814609
0 0.5680234375 0.4850234375 0.02025 0.047125 -1.75 -0.983985946874 -0.178246055649
0 0.4657734375 0.5022734375 0.01825 0.05225 -1.78 -0.978196606808 -0.207681001609
