3 0.7152734375 0.5332734375 0.006625000000000001 0.008 2.65 0.47203054129 -0.881582195878
3 0.8490234375 0.4327734375000001 0.00825 0.008375 -0.59 -0.556361022913 0.8309406791
3 0.9071484375 0.5161484375 0.00825 0.0125 -1.36 -0.977864602435 0.209238665891
3 0.9040234375 0.5282734375 0.00775 0.0125 -1.38 -0.981853530372 0.189640831298
3 0.8616484375 0.5103984374999999 0.009375 0.012 -1.29 -0.960835064206 0.277120875057
3 0.8597734375 0.5035234375 0.010249999999999999 0.011125 -1.0 -0.841470984808 0.540302305868
3 0.8548984374999999 0.5245234375 0.007124999999999999 0.012 -1.15 -0.912763940261 0.408487440884
3 0.8535234375 0.5361484375 0.00575 0.013375000000000001 -1.32 -0.968715100118 0.248175451652
3 0.7773984375 0.6601484375 0.006500000000000001 0.013500000000000002 3.0 0.14112000806 -0.9899924966
3 0.8601484375 0.4787734375 0.0072499999999999995 0.0115 -1.28 -0.958015860289 0.286715209632
3 0.8513984375 0.48127343749999996 0.006500000000000001 0.010875 -1.02 -0.852108021949 0.523365951252
3 0.8476484375 0.48752343749999993 0.006875000000000001 0.011875 -1.28 -0.958015860289 0.286715209632
3 0.8441484375 0.49552343749999994 0.007000000000000001 0.009625 -1.38 -0.981853530372 0.189640831298
3 0.8341484375 0.49489843750000007 0.008 0.011125 -1.33 -0.971148377921 0.238476053434
3 0.7885234375 0.4597734375 0.007625 0.011 -1.29 -0.960835064206 0.277120875057
3 0.7843984375 0.4780234375 0.008 0.011125 -1.34 -0.973484541695 0.228752807808
3 0.7815234375 0.48889843749999995 0.008375 0.012375 -1.32 -0.968715100118 0.248175451652
3 0.7803984375 0.5032734375000001 0.0072499999999999995 0.012 -1.28 -0.958015860289 0.286715209632
1 0.9495234375 0.4593984375 0.024875 0.064875 1.93 0.936177052316 -0.351528841941
