0 0.7990234375 0.5348984375 0.0215 0.05437499999999999 -1.46 -0.993868363412 0.11056977982
0 0.7931484375 0.4387734375 0.018625 0.050875000000000004 -1.48 -0.995880844538 0.0906716244643
0 0.6036484375 0.4251484375000001 0.020624999999999998 0.048875 -1.48 -0.995880844538 0.0906716244643
