0 0.5192734375 0.49289843749999995 0.02 0.0445 1.6 0.999573603042 -0.0291995223013
0 0.42377343749999996 0.44939843749999997 0.020374999999999997 0.044625 1.6 0.999573603042 -0.0291995223013
1 0.24727343749999997 0.5011484375 0.020499999999999997 0.065 1.56 0.99994172023 0.0107961170583
0 0.6838984375 0.29802343750000004 0.019125 0.04375 -1.56 -0.99994172023 0.0107961170583
