5 0.8585234374999999 0.43477343749999997 0.006750000000000001 0.021625 -1.6 -0.999573603042 -0.0291995223013
5 0.8237734375 0.4298984375 0.007375 0.024 -1.58 -0.999957646499 -0.00920354326881
1 0.6612734375 0.4545234375 0.025374999999999998 0.06687499999999999 1.38 0.981853530372 0.189640831298
4 0.8441484375 0.3696484375 0.0063750000000000005 0.015125 -0.12 -0.119712207289 0.992808635854
3 0.9493984375 0.5407734375000001 0.0045 0.007625 -1.42 -0.988651762852 0.150225469912
4 0.7775234375 0.3777734374999999 0.00825 0.010499999999999999 -0.07 -0.0699428473375 0.997551000253
5 0.6570234375 0.5137734375 0.007375 0.023625 0.92 0.795601620036 0.605820156643
3 0.7637734375 0.6102734375 0.00625 0.007625 -3.09 -0.0515697683985 -0.998669394238
3 0.7368984375000001 0.6026484375 0.007375 0.010374999999999999 1.53 0.999167945271 0.0407850112416
4 0.7081484375 0.5866484375 0.0063750000000000005 0.014875 3.12 0.0215909757261 -0.999766887713
4 0.6898984375 0.5883984375 0.00625 0.016625 3.09 0.0515697683985 -0.998669394238
0 0.5060234374999999 0.37489843749999996 0.02025 0.048875 2.95 0.190422647361 -0.981702202998
