0 0.8358984375 0.4328984375 0.0195 0.043625000000000004 -1.52 -0.998710143976 0.0507744849336
0 0.8786484375 0.38514843750000005 0.0215 0.054125 -1.47 -0.994924349778 0.100625733387
0 0.8080234374999999 0.3818984375000001 0.02 0.051125 -1.47 -0.994924349778 0.100625733387
0 0.7215234375 0.37289843749999996 0.01975 0.04575 -1.77 -0.980224472788 -0.197888814609
0 0.5148984375 0.5416484374999999 0.0195 0.04425 1.45 0.992712991038 0.120502769367
0 0.4145234375 0.5227734374999999 0.021124999999999998 0.05325 1.41 0.987100101014 0.160104311555
