0 0.9040234375 0.41514843749999997 0.019625 0.045 -3.09 -0.0515697683985 -0.998669394238
0 0.8768984375 0.4211484375 0.01925 0.052375000000000005 0.04 0.0399893341866 0.999200106661
0 0.8465234375 0.4165234375 0.019625 0.051000000000000004 3.14 0.00159265291649 -0.999998731728
0 0.9516484375 0.5370234375 0.020125 0.044375 1.59 0.999815615134 -0.0192024929017
0 0.7821484375000001 0.5366484375 0.018875 0.042499999999999996 1.63 0.998247974378 -0.0591690937141
0 0.8156484374999999 0.4272734375 0.018625 0.042249999999999996 -0.02 -0.0199986666933 0.999800006667
1 0.7863984375 0.4271484375 0.019625 0.039875 0.0 0.0 1.0
0 0.7248984375 0.42102343749999993 0.019375 0.041875 -3.06 -0.0815021517603 -0.996673165716
0 0.6918984375 0.5800234375000001 0.019 0.049875 3.08 0.0615537174299 -0.998103772095
0 0.6108984375 0.4142734375 0.020999999999999998 0.051000000000000004 0.0 0.0 1.0
1 0.4372734374999999 0.5325234375 0.0245 0.076375 1.58 0.999957646499 -0.00920354326881
0 0.4900234374999999 0.41514843749999997 0.020125 0.05387499999999999 -3.14 -0.00159265291649 -0.999998731728
0 0.4261484375 0.42002343750000004 0.022125 0.055125 -3.02 -0.121293255031 -0.992616716706
1 0.21964843749999996 0.5301484375000001 0.024875 0.08299999999999999 1.58 0.999957646499 -0.00920354326881
