3 0.8383984375 0.43302343749999994 0.00925 0.007000000000000001 0.03 0.0299955002025 0.999550033749
2 0.9127734375 0.3701484374999999 0.0325 0.148 -1.63 -0.998247974378 -0.0591690937141
0 0.5907734375 0.7412734375 0.020624999999999998 0.058499999999999996 2.92 0.219783612225 -0.975548647581
0 0.2926484374999999 0.46364843750000007 0.01625 0.0505 -1.75 -0.983985946874 -0.178246055649
0 0.2826484375 0.41939843750000005 0.018 0.046125 -1.81 -0.971526955822 -0.236929048685
0 0.21527343749999994 0.47589843749999994 0.014249999999999999 0.04325 -1.8 -0.973847630878 -0.227202094693
