7 0.8181484375 0.5978984374999999 0.013750000000000002 0.027625 0.98 0.830497370492 0.557022546766
0 0.7790234375 0.6242734375 0.0195 0.042749999999999996 0.93 0.801619940884 0.597833982287
0 0.5361484375 0.6932734375 0.020499999999999997 0.052625 -2.14 -0.842330431637 -0.5389614494
