0 0.5630234375 0.44627343750000004 0.019875 0.045 -1.44 -0.991458348192 0.130423708738
3 0.7311484375 0.6371484375 0.006875000000000001 0.014499999999999999 1.92 0.939645473685 -0.342149651151
3 0.7278984374999999 0.6430234375 0.007000000000000001 0.015375 1.95 0.928959715004 -0.370180831351
1 0.6982734375 0.7472734375 0.02275 0.057125 3.08 0.0615537174299 -0.998103772095
0 0.45489843750000003 0.44639843749999997 0.019625 0.050749999999999997 -1.51 -0.998152472498 0.0607588812194
0 0.12777343749999992 0.45802343749999996 0.021249999999999998 0.055625 1.42 0.988651762852 0.150225469912
