3 0.8811484375 0.5827734375 0.006625000000000001 0.011875 0.02 0.0199986666933 0.999800006667
3 0.7515234375 0.5698984375 0.006625000000000001 0.009625 1.57 0.999999682932 0.000796326710733
3 0.7516484375 0.5647734375 0.007625 0.009625 1.56 0.99994172023 0.0107961170583
