0 0.9222734375 0.45889843750000003 0.020624999999999998 0.048875 1.57 0.999999682932 0.000796326710733
0 0.9132734375 0.5343984374999999 0.019625 0.051125 1.57 0.999999682932 0.000796326710733
0 0.7986484375 0.4497734375 0.020374999999999997 0.05487499999999999 -1.57 -0.999999682932 0.000796326710733
0 0.8116484374999999 0.5303984374999999 0.01975 0.044125 1.57 0.999999682932 0.000796326710733
0 0.6766484375 0.5271484375 0.020874999999999998 0.05500000000000001 1.56 0.99994172023 0.0107961170583
0 0.5911484375 0.41539843750000005 0.02025 0.04625 -3.11 -0.0315873984365 -0.999500993626
7 0.5866484375 0.5277734374999999 0.026625 0.0725 1.58 0.999957646499 -0.00920354326881
0 0.12952343749999995 0.43202343750000005 0.020499999999999997 0.04625 -1.55 -0.999783764189 0.0207948278031
