0 0.2788984374999999 0.4723984375 0.0195 0.04525 1.43 0.990104560337 0.140331605847
0 0.3882734374999999 0.4893984375 0.020499999999999997 0.054000000000000006 1.47 0.994924349778 0.100625733387
0 0.6360234375 0.4671484375 0.02025 0.0485 1.06 0.872355482345 0.488872081861
0 0.7185234375 0.3886484375 0.021249999999999998 0.05625 0.65 0.605186405736 0.796083798549
0 0.5152734375 0.3407734375 0.020874999999999998 0.053625 -1.73 -0.987353839701 -0.158532000644
