0 0.7277734375 0.4993984375 0.022 0.048 1.56 0.99994172023 0.0107961170583
0 0.8442734375000001 0.39439843750000003 0.019 0.050749999999999997 1.57 0.999999682932 0.000796326710733
1 0.8661484375 0.4443984375000001 0.02525 0.077125 1.57 0.999999682932 0.000796326710733
0 0.7572734375 0.3938984375000001 0.021249999999999998 0.049625 1.58 0.999957646499 -0.00920354326881
0 0.7218984375 0.4485234375 0.020874999999999998 0.049 1.57 0.999999682932 0.000796326710733
0 0.5723984375 0.3890234375 0.020125 0.050624999999999996 1.59 0.999815615134 -0.0192024929017
0 0.5706484374999999 0.4391484375 0.021124999999999998 0.045375 1.58 0.999957646499 -0.00920354326881
0 0.43864843749999993 0.4308984375 0.01975 0.043625000000000004 1.58 0.999957646499 -0.00920354326881
7 0.16277343750000006 0.42639843749999995 0.032125 0.146 1.59 0.999815615134 -0.0192024929017
