3 0.9341484375 0.46202343749999997 0.00825 0.006625000000000001 3.05 0.0914646422324 -0.995808324539
3 0.9315234375 0.4545234375 0.007625 0.0063750000000000005 -0.31 -0.305058636443 0.952333569886
3 0.8826484375 0.5283984375 0.007875 0.0063750000000000005 -0.65 -0.605186405736 0.796083798549
5 0.7970234375 0.4560234375000001 0.007124999999999999 0.025 -1.57 -0.999999682932 0.000796326710733
5 0.7212734375000001 0.45789843750000003 0.0075 0.023125 -1.46 -0.993868363412 0.11056977982
3 0.6377734375 0.4711484375 0.007625 0.009125 2.14 0.842330431637 -0.5389614494
3 0.6407734375 0.46464843749999996 0.006750000000000001 0.010875 2.11 0.858117829635 -0.513452812304
