0 0.7273984375 0.4541484375 0.022125 0.055125 -1.68 -0.994043202198 -0.10898675224
0 0.6341484374999999 0.47027343750000006 0.020624999999999998 0.05500000000000001 -1.73 -0.987353839701 -0.158532000644
0 0.4322734374999999 0.5142734375 0.020749999999999998 0.0455 -1.74 -0.985719178836 -0.168397447949
0 0.14802343750000002 0.5998984375 0.020499999999999997 0.04725 -1.92 -0.939645473685 -0.342149651151
5 0.6745234375 0.5418984375 0.008624999999999999 0.022625 1.47 0.994924349778 0.100625733387
