0 0.9583984375 0.5318984375 0.019375 0.042125 1.58 0.999957646499 -0.00920354326881
0 0.8920234375 0.4418984375 0.0225 0.052000000000000005 1.57 0.999999682932 0.000796326710733
0 0.7190234375 0.43564843750000004 0.020749999999999998 0.047625 -1.57 -0.999999682932 0.000796326710733
5 0.49414843750000004 0.4558984374999999 0.007875 0.025875 -1.58 -0.999957646499 -0.00920354326881
5 0.48752343749999993 0.46464843749999996 0.00825 0.022875 -1.54 -0.999525830605 0.0307914590825
0 0.5172734374999999 0.4285234375 0.020874999999999998 0.0615 -1.57 -0.999999682932 0.000796326710733
0 0.25652343749999995 0.5328984375 0.023 0.05125 1.52 0.998710143976 0.0507744849336
0 0.7612734375 0.5303984374999999 0.020874999999999998 0.04525 1.58 0.999957646499 -0.00920354326881
