0 0.7556484375 0.5161484375 0.019125 0.042249999999999996 1.81 0.971526955822 -0.236929048685
0 0.5742734374999999 0.4711484375 0.01925 0.042749999999999996 1.91 0.94301993129 -0.332736245681
0 0.8488984374999999 0.5760234375 0.01925 0.04425 2.95 0.190422647361 -0.981702202998
0 0.8558984375 0.6358984375 0.021249999999999998 0.0465 3.0 0.14112000806 -0.9899924966
0 0.3892734375 0.42177343749999996 0.017374999999999998 0.046625 -2.35 -0.711473352791 -0.702713076774
5 0.6875234375 0.4231484375 0.008 0.018875 -1.34 -0.973484541695 0.228752807808
0 0.4258984375 0.5008984375 0.020874999999999998 0.04725 0.85 0.75128040514 0.659983145885
0 0.3451484375 0.5801484375 0.016 0.0395 0.82 0.731145829727 0.682221207288
