0 0.9715234375 0.5357734375 0.020125 0.047125 1.57 0.999999682932 0.000796326710733
0 0.8938984375 0.5357734375 0.019625 0.0395 1.5 0.997494986604 0.0707372016677
0 0.5090234375 0.5350234375 0.021875 0.04725 1.57 0.999999682932 0.000796326710733
