0 0.8850234375 0.41877343749999996 0.021124999999999998 0.050875000000000004 3.09 0.0515697683985 -0.998669394238
0 0.7157734375 0.6381484375 0.024875 0.060250000000000005 1.53 0.999167945271 0.0407850112416
0 0.7065234375 0.6721484375 0.0195 0.0485 1.54 0.999525830605 0.0307914590825
0 0.8233984375000001 0.4186484375 0.0195 0.051500000000000004 -3.14 -0.00159265291649 -0.999998731728
0 0.7887734375 0.41539843750000005 0.019875 0.04375 -3.11 -0.0315873984365 -0.999500993626
0 0.7605234375000001 0.4172734375 0.021875 0.057125 3.14 0.00159265291649 -0.999998731728
0 0.6810234374999999 0.42339843750000006 0.020999999999999998 0.050249999999999996 -0.11 -0.109778300837 0.993956097957
0 0.6550234375 0.4231484375 0.01775 0.05337499999999999 3.1 0.0415806624333 -0.999135150273
0 0.5095234375 0.5566484375 0.02325 0.05225 -0.07 -0.0699428473375 0.997551000253
