0 0.6620234375 0.4987734374999999 0.020624999999999998 0.046125 1.56 0.99994172023 0.0107961170583
0 0.40802343750000003 0.5501484375000001 0.019625 0.04425 0.73 0.666869635004 0.745174402345
0 0.32227343750000004 0.5463984375 0.020624999999999998 0.05225 0.79 0.710353272418 0.703845315652
