0 0.6910234375 0.3643984375 0.01975 0.048 -1.69 -0.992903651094 -0.118921569297
0 0.9245234375 0.5397734375 0.019625 0.044 1.44 0.991458348192 0.130423708738
0 0.8628984375 0.5420234374999999 0.020374999999999997 0.044625 1.57 0.999999682932 0.000796326710733
0 0.7882734375 0.5418984375 0.019875 0.0455 1.52 0.998710143976 0.0507744849336
0 0.7202734375 0.5423984374999999 0.02175 0.051125 1.53 0.999167945271 0.0407850112416
0 0.5815234374999999 0.5426484375 0.01975 0.040999999999999995 1.54 0.999525830605 0.0307914590825
