5 0.9151484375 0.5558984375 0.0045 0.01575 1.58 0.999957646499 -0.00920354326881
0 0.9232734375 0.5323984375 0.018875 0.042375 1.57 0.999999682932 0.000796326710733
1 0.8570234375 0.5335234375 0.020749999999999998 0.052875000000000005 1.59 0.999815615134 -0.0192024929017
0 0.6771484375 0.46764843750000007 0.020999999999999998 0.05525 -1.56 -0.99994172023 0.0107961170583
1 0.6748984375 0.5393984374999999 0.022 0.057625 1.6 0.999573603042 -0.0291995223013
0 0.5823984375 0.5377734375000001 0.019125 0.05225 1.59 0.999815615134 -0.0192024929017
