0 0.3430234375 0.4963984375 0.020374999999999997 0.045875 1.58 0.999957646499 -0.00920354326881
0 0.8846484375 0.5321484375 0.019125 0.0445 1.56 0.99994172023 0.0107961170583
0 0.8223984375 0.5342734375 0.02 0.047625 1.59 0.999815615134 -0.0192024929017
0 0.30777343749999997 0.45902343749999996 0.019875 0.044875 -1.57 -0.999999682932 0.000796326710733
0 0.6932734375 0.5361484375 0.018375 0.04625 1.59 0.999815615134 -0.0192024929017
0 0.6362734375 0.5331484375 0.020499999999999997 0.048625 1.6 0.999573603042 -0.0291995223013
3 0.6096484375 0.5567734375 0.008624999999999999 0.0085 1.57 0.999999682932 0.000796326710733
