0 0.6955234375 0.5107734374999999 0.020749999999999998 0.04 1.49 0.996737752043 0.0807084484548
0 0.6005234375 0.4598984374999999 0.020125 0.04575 -1.65 -0.996865028454 -0.0791208888067
0 0.5542734374999999 0.42777343749999996 0.019125 0.042125 -1.69 -0.992903651094 -0.118921569297
