0 0.006648437499999993 0.44664843750000005 0.021625 0.038125 1.57 0.999999682932 0.000796326710733
2 0.04789843750000011 0.49214843750000004 0.032875 0.15425 1.59 0.999815615134 -0.0192024929017
6 0.7872734375 0.3778984375000001 0.034499999999999996 0.1605 1.58 0.999957646499 -0.00920354326881
