0 0.7096484375000001 0.5417734375000001 0.018125 0.04 1.6 0.999573603042 -0.0291995223013
0 0.9512734375 0.5403984375 0.018625 0.041499999999999995 1.59 0.999815615134 -0.0192024929017
0 0.7255234375 0.5926484375000001 0.0185 0.040625 1.6 0.999573603042 -0.0291995223013
0 0.8678984375000001 0.5948984375 0.0195 0.0495 1.58 0.999957646499 -0.00920354326881
