1 0.9592734375 0.5385234375 0.021374999999999998 0.0465 1.59 0.999815615134 -0.0192024929017
6 0.4226484374999999 0.4098984375 0.034875 0.15887500000000002 0.37 0.361615431965 0.932327345606
4 0.9210234375 0.47264843749999996 0.008749999999999999 0.009375 1.57 0.999999682932 0.000796326710733
4 0.9207734375 0.4647734375 0.0085 0.0095 1.57 0.999999682932 0.000796326710733
4 0.9075234375 0.46589843750000004 0.007375 0.008 -1.6 -0.999573603042 -0.0291995223013
4 0.8937734375 0.46627343750000005 0.006875000000000001 0.00825 1.55 0.999783764189 0.0207948278031
4 0.8815234375 0.4663984375 0.007124999999999999 0.007375 -1.58 -0.999957646499 -0.00920354326881
3 0.9185234375 0.4418984375 0.008 0.0072499999999999995 1.76 0.982154317138 -0.188076838893
3 0.9098984375 0.43802343749999995 0.007000000000000001 0.0063750000000000005 -1.6 -0.999573603042 -0.0291995223013
