0 0.7702734375 0.41602343750000004 0.0215 0.05275 -1.79 -0.976070921983 -0.217452420681
0 0.6803984375000001 0.49052343750000005 0.023375 0.059250000000000004 -2.5 -0.598472144104 -0.801143615547
0 0.7735234375 0.6245234375 0.021124999999999998 0.052875000000000005 0.05 0.0499791692707 0.998750260395
