0 0.8418984375 0.5032734375000001 0.019125 0.0475 -2.91 -0.229527947021 -0.973302071063
0 0.8522734375000001 0.44602343749999995 0.017499999999999998 0.04925 -2.92 -0.219783612225 -0.975548647581
0 0.8688984375 0.3772734375 0.019375 0.041125 -2.93 -0.210017299251 -0.977697670047
5 0.8673984375 0.5457734375000001 0.006500000000000001 0.020749999999999998 -2.75 -0.381660992052 -0.924302378632
