5 0.8323984375 0.6013984375 0.00425 0.021124999999999998 -0.02 -0.0199986666933 0.999800006667
3 0.7441484375 0.6321484374999999 0.008375 0.00625 1.22 0.939099356319 0.343645746316
3 0.9395234375 0.4750234375 0.006875000000000001 0.01225 -1.88 -0.952576194272 -0.30430017106
3 0.9325234375 0.45827343750000005 0.006875000000000001 0.014499999999999999 -1.8 -0.973847630878 -0.227202094693
3 0.9362734375 0.4683984375 0.007625 0.0125 -2.06 -0.882707350816 -0.469923113728
3 0.8175234375 0.5401484375 0.008 0.013000000000000001 3.1 0.0415806624333 -0.999135150273
5 0.7957734375 0.6031484375 0.006125 0.0215 2.91 0.229527947021 -0.973302071063
3 0.8470234375 0.5957734375 0.008125 0.007375 3.13 0.0115923939362 -0.999932805944
3 0.8630234375 0.5922734375 0.007625 0.009 -2.89 -0.248946786673 -0.968517164228
3 0.8542734375000001 0.5948984375 0.005 0.0075 -3.14 -0.00159265291649 -0.999998731728
1 0.10364843750000008 0.4967734375 0.02275 0.05775 1.57 0.999999682932 0.000796326710733
