0 0.9018984375 0.45527343750000004 0.018 0.045 -1.66 -0.996023989917 -0.0890854169365
0 0.6525234375 0.6623984375 0.019 0.055374999999999994 -0.35 -0.342897807455 0.939372712847
0 0.36052343749999993 0.6435234375000001 0.020999999999999998 0.04925 -1.94 -0.932615014022 -0.36087288014
