0 0.9152734375 0.46589843750000004 0.02 0.055125 1.63 0.998247974378 -0.0591690937141
0 0.9503984375 0.5285234375 0.021124999999999998 0.0485 1.57 0.999999682932 0.000796326710733
0 0.8525234375 0.46602343749999997 0.020999999999999998 0.05125 1.51 0.998152472498 0.0607588812194
0 0.6826484375 0.5327734375000001 0.020499999999999997 0.052125 1.6 0.999573603042 -0.0291995223013
0 0.8798984375 0.5308984375 0.0195 0.049625 1.59 0.999815615134 -0.0192024929017
3 0.8183984375 0.44402343750000006 0.0075 0.004875 1.57 0.999999682932 0.000796326710733
3 0.7807734375 0.4381484375 0.00425 0.004 1.57 0.999999682932 0.000796326710733
0 0.5138984375 0.4671484375 0.021875 0.048625 1.62 0.998789743471 -0.0491838219142
0 0.5286484375 0.5330234375 0.020499999999999997 0.050375 1.6 0.999573603042 -0.0291995223013
3 0.7876484375 0.4427734375 0.005 0.005375 1.57 0.999999682932 0.000796326710733
0 0.3151484375 0.5327734375000001 0.021875 0.056499999999999995 1.55 0.999783764189 0.0207948278031
