3 0.9020234375 0.46189843750000004 0.008375 0.010875 1.89 0.949485614865 -0.313810559359
3 0.7637734375 0.44727343750000004 0.00825 0.006625000000000001 3.01 0.13121319215 -0.991354173949
3 0.7613984375 0.4395234375 0.007625 0.0063750000000000005 -0.31 -0.305058636443 0.952333569886
