0 0.8603984375 0.41214843749999996 0.020125 0.045125 -1.57 -0.999999682932 0.000796326710733
7 0.7423984375 0.42377343750000007 0.008875 0.024375 -1.59 -0.999815615134 -0.0192024929017
0 0.33502343749999997 0.5167734375 0.020374999999999997 0.045875 1.56 0.99994172023 0.0107961170583
0 0.38189843749999997 0.4268984375 0.019875 0.050124999999999996 -1.73 -0.987353839701 -0.158532000644
0 0.33564843749999995 0.5533984375000001 0.020874999999999998 0.048 1.51 0.998152472498 0.0607588812194
