7 0.8572734375 0.5576484374999999 0.013750000000000002 0.027625 1.24 0.94578399945 0.324796284439
0 0.8105234375 0.5741484375 0.0195 0.042749999999999996 1.2 0.932039085967 0.362357754477
0 0.5545234375 0.5860234375 0.020499999999999997 0.052625 -1.9 -0.946300087687 -0.323289566864
0 0.3617734374999999 0.6612734375 0.020874999999999998 0.055374999999999994 -1.95 -0.928959715004 -0.370180831351
