0 0.6687734375000001 0.4911484374999999 0.020749999999999998 0.044375 1.6 0.999573603042 -0.0291995223013
0 0.34527343749999995 0.20189843750000003 0.021625 0.048375 -1.56 -0.99994172023 0.0107961170583
0 0.26514843749999994 0.1988984374999999 0.02025 0.050624999999999996 -1.53 -0.999167945271 0.0407850112416
