3 0.9251484375 0.5572734374999999 0.00825 0.008125 0.79 0.710353272418 0.703845315652
5 0.9130234375 0.46764843750000007 0.011625 0.021124999999999998 -1.33 -0.971148377921 0.238476053434
3 0.8557734375 0.5463984375 0.010249999999999999 0.014249999999999999 1.63 0.998247974378 -0.0591690937141
3 0.8062734375 0.4947734374999999 0.01175 0.011625 1.33 0.971148377921 0.238476053434
3 0.8041484375 0.4615234375 0.008375 0.010374999999999999 -3.12 -0.0215909757261 -0.999766887713
3 0.7736484375 0.4801484375 0.01 0.01075 -1.61 -0.999231634421 -0.039193631773
3 0.7871484375 0.5380234374999999 0.00975 0.012875000000000001 -1.57 -0.999999682932 0.000796326710733
5 0.7142734374999999 0.48152343750000004 0.00825 0.021875 -1.56 -0.99994172023 0.0107961170583
