0 0.6213984375 0.4930234375 0.020374999999999997 0.045875 1.58 0.999957646499 -0.00920354326881
0 0.5142734375 0.5007734375 0.021124999999999998 0.054000000000000006 1.57 0.999999682932 0.000796326710733
0 0.9655234375 0.5366484375 0.019375 0.043875 1.51 0.998152472498 0.0607588812194
0 0.7950234375 0.5341484375000001 0.02025 0.051625 1.57 0.999999682932 0.000796326710733
0 0.9015234375 0.4013984374999999 0.020624999999999998 0.04925 -1.57 -0.999999682932 0.000796326710733
0 0.6947734375 0.5360234375 0.01825 0.040749999999999995 1.59 0.999815615134 -0.0192024929017
0 0.4857734375 0.5356484375 0.0195 0.043125000000000004 1.57 0.999999682932 0.000796326710733
