2 0.47764843749999997 0.5410234375 0.036125000000000004 0.135125 1.45 0.992712991038 0.120502769367
0 0.5912734374999999 0.25652343750000006 0.020499999999999997 0.0485 -1.57 -0.999999682932 0.000796326710733
0 0.5228984375 0.2586484375 0.022625 0.052000000000000005 -1.61 -0.999231634421 -0.039193631773
0 0.3591484374999999 0.2623984375 0.018 0.044875 -1.63 -0.998247974378 -0.0591690937141
0 0.29302343749999993 0.2672734375 0.020999999999999998 0.042249999999999996 -1.63 -0.998247974378 -0.0591690937141
0 0.15739843750000004 0.2762734375 0.018375 0.041875 -1.68 -0.994043202198 -0.10898675224
