0 0.6266484375 0.4880234375 0.022 0.048 1.6 0.999573603042 -0.0291995223013
0 0.8771484375 0.45827343750000005 0.0215 0.053000000000000005 1.57 0.999999682932 0.000796326710733
0 0.8031484375 0.3982734375 0.020125 0.0465 1.58 0.999957646499 -0.00920354326881
0 0.7980234374999999 0.34027343749999994 0.020749999999999998 0.051625 1.57 0.999999682932 0.000796326710733
0 0.7042734375 0.4485234375 0.020499999999999997 0.047625 1.57 0.999999682932 0.000796326710733
0 0.5636484374999999 0.3952734375 0.021374999999999998 0.04725 1.59 0.999815615134 -0.0192024929017
0 0.5520234374999999 0.44902343749999996 0.020125 0.052625 1.57 0.999999682932 0.000796326710733
1 0.1462734375 0.4282734375 0.026125 0.0745 1.61 0.999231634421 -0.039193631773
0 0.7088984375 0.34364843749999996 0.019375 0.049875 1.58 0.999957646499 -0.00920354326881
