3 0.8447734375 0.40039843750000004 0.0072499999999999995 0.011625 -1.87 -0.955571516853 -0.294759352997
3 0.8405234375 0.39239843750000003 0.006875000000000001 0.007625 -1.93 -0.936177052316 -0.351528841941
5 0.8402734375 0.5465234375 0.00425 0.021124999999999998 1.58 0.999957646499 -0.00920354326881
3 0.7975234375 0.5023984375 0.007625 0.011625 0.73 0.666869635004 0.745174402345
7 0.6737734375 0.4623984375 0.0085 0.022625 -1.52 -0.998710143976 0.0507744849336
5 0.6806484375 0.4448984375 0.0075 0.024375 1.55 0.999783764189 0.0207948278031
3 0.7243984375 0.5710234375 0.008 0.0045 0.65 0.605186405736 0.796083798549
3 0.5532734374999999 0.5482734375 0.009625 0.010499999999999999 -2.34 -0.718464793069 -0.695563326463
3 0.5623984375 0.5265234375000001 0.008375 0.00625 1.42 0.988651762852 0.150225469912
3 0.5628984375 0.5355234375 0.007875 0.005875 1.39 0.983700814811 0.179812977673
3 0.5241484375 0.5772734374999999 0.006875000000000001 0.014499999999999999 -2.45 -0.637764702135 -0.770231254047
3 0.5461484375 0.5820234375 0.007625 0.0125 -2.92 -0.219783612225 -0.975548647581
