0 0.9058984375 0.41802343749999993 0.01925 0.05125 -0.07 -0.0699428473375 0.997551000253
0 0.8457734375 0.4195234375 0.019875 0.048375 3.14 0.00159265291649 -0.999998731728
0 0.8878984375 0.5321484375 0.019875 0.044875 1.63 0.998247974378 -0.0591690937141
0 0.7517734375 0.5315234375 0.02175 0.045625 1.57 0.999999682932 0.000796326710733
0 0.8137734375 0.4208984375 0.018625 0.04375 -0.04 -0.0399893341866 0.999200106661
0 0.7497734375 0.4171484375000001 0.020374999999999997 0.05375 -3.1 -0.0415806624333 -0.999135150273
0 0.6753984375 0.5305234375000001 0.019375 0.048375 1.62 0.998789743471 -0.0491838219142
0 0.5632734374999999 0.5298984375 0.0185 0.041999999999999996 1.62 0.998789743471 -0.0491838219142
