0 0.8912734375 0.4058984375 0.021374999999999998 0.049125 -0.87 -0.764328937026 0.64482654724
0 0.2450234375 0.7391484375 0.021875 0.057874999999999996 0.66 0.613116851973 0.789992231497
0 0.9427734375 0.5512734375 0.02 0.038875 1.14 0.908633496116 0.417594503958
0 0.8007734375 0.5195234375 0.021124999999999998 0.059 -3.13 -0.0115923939362 -0.999932805944
0 0.6568984375 0.19627343750000004 0.02175 0.049 0.64 0.597195441362 0.802095757884
0 0.7332734375000001 0.6366484375 0.021249999999999998 0.049375 -2.48 -0.614374257806 -0.78901474723
0 0.6413984375 0.7553984375 0.020999999999999998 0.047375 -2.52 -0.582330649524 -0.8129520371
