0 0.9285234375 0.4281484375 0.02 0.04525 -0.01 -0.00999983333417 0.999950000417
0 0.8986484375 0.42439843750000006 0.019625 0.038875 -0.05 -0.0499791692707 0.998750260395
0 0.8693984375 0.42164843750000003 0.021374999999999998 0.05425 -0.04 -0.0399893341866 0.999200106661
0 0.8375234375 0.41414843749999997 0.02025 0.040749999999999995 3.13 0.0115923939362 -0.999932805944
0 0.8081484375 0.4206484375 0.020749999999999998 0.046625 -3.08 -0.0615537174299 -0.998103772095
0 0.7767734374999999 0.4145234375 0.019625 0.054625 3.11 0.0315873984365 -0.999500993626
0 0.7203984375 0.4158984375 0.020999999999999998 0.0485 -3.07 -0.0715315111408 -0.997438340407
0 0.6883984375000001 0.4142734375 0.0225 0.054625 0.02 0.0199986666933 0.999800006667
5 0.5223984374999999 0.4623984375 0.0072499999999999995 0.021124999999999998 -1.54 -0.999525830605 0.0307914590825
0 0.8980234375 0.5338984375 0.018625 0.042249999999999996 1.56 0.99994172023 0.0107961170583
0 0.8357734375 0.5772734374999999 0.02 0.04925 -0.06 -0.0599640064794 0.998200539935
0 0.8065234375 0.5746484374999999 0.021875 0.041999999999999996 -0.05 -0.0499791692707 0.998750260395
0 0.7702734375 0.5736484374999999 0.019 0.041625 -0.02 -0.0199986666933 0.999800006667
0 0.7061484375 0.5741484375 0.020999999999999998 0.049625 -3.09 -0.0515697683985 -0.998669394238
0 0.6698984375 0.5722734375 0.020624999999999998 0.05325 0.05 0.0499791692707 0.998750260395
0 0.6415234375000001 0.5746484374999999 0.021124999999999998 0.04775 0.02 0.0199986666933 0.999800006667
0 0.5483984375 0.41477343749999995 0.019875 0.05550000000000001 -3.13 -0.0115923939362 -0.999932805944
0 0.5142734375 0.4202734375 0.020374999999999997 0.05125 3.12 0.0215909757261 -0.999766887713
0 0.4755234374999999 0.5288984375 0.0195 0.051000000000000004 1.62 0.998789743471 -0.0491838219142
