0 0.7005234375 0.49489843750000007 0.021124999999999998 0.042249999999999996 1.53 0.999167945271 0.0407850112416
0 0.9197734375 0.43364843749999993 0.02025 0.0465 2.4 0.675463180551 -0.737393715541
0 0.8455234375 0.4365234375 0.020749999999999998 0.044375 2.49 0.606453523378 -0.795118937004
0 0.6437734375 0.42977343749999997 0.020374999999999997 0.047875 2.83 0.306574986384 -0.95184650954
7 0.7572734375 0.4367734375 0.008 0.018375 -2.99 -0.151012712086 -0.988531820827
0 0.8038984375 0.5418984375 0.020749999999999998 0.051000000000000004 1.57 0.999999682932 0.000796326710733
1 0.5418984375 0.5402734375 0.025374999999999998 0.068625 1.61 0.999231634421 -0.039193631773
0 0.8438984375 0.38614843749999994 0.02025 0.04425 -1.53 -0.999167945271 0.0407850112416
0 0.5841484374999999 0.5010234375 0.020874999999999998 0.045125 1.56 0.99994172023 0.0107961170583
0 0.7885234375 0.31339843749999996 0.019 0.046625 -1.58 -0.999957646499 -0.00920354326881
