3 0.7428984375000001 0.47427343750000006 0.010875 0.012875000000000001 -2.64 -0.480822614989 -0.876817890394
6 0.6205234374999999 0.34964843749999996 0.034375 0.04025 0.37 0.361615431965 0.932327345606
6 0.5986484375 0.40614843749999996 0.035125 0.083625 0.37 0.361615431965 0.932327345606
6 0.5761484374999999 0.4643984375 0.034999999999999996 0.03925 0.38 0.370920469413 0.928664635577
6 0.5401484375 0.5578984375 0.034875 0.15887500000000002 0.37 0.361615431965 0.932327345606
4 0.9196484375 0.5326484375 0.0085 0.009 1.57 0.999999682932 0.000796326710733
4 0.9195234375 0.5390234375 0.007124999999999999 0.0085 2.33 0.725384387467 -0.688344020399
4 0.9056484375 0.5307734375 0.007875 0.009375 -1.29 -0.960835064206 0.277120875057
4 0.9060234375 0.5386484375 0.008 0.008125 -1.92 -0.939645473685 -0.342149651151
