0 0.7192734375000001 0.4998984375 0.021124999999999998 0.042249999999999996 1.61 0.999231634421 -0.039193631773
0 0.9051484375 0.43102343750000005 0.019625 0.046625 2.48 0.614374257806 -0.78901474723
0 0.8076484375 0.42139843749999994 0.019625 0.0435 -0.73 -0.666869635004 0.745174402345
0 0.8363984375 0.46889843750000004 0.02175 0.04575 1.56 0.99994172023 0.0107961170583
0 0.7690234375 0.4675234374999999 0.019875 0.045625 1.62 0.998789743471 -0.0491838219142
0 0.6836484375 0.42377343750000007 0.019 0.041249999999999995 -0.69 -0.636537182222 0.771246014997
1 0.9856484375 0.5368984375 0.025374999999999998 0.068625 1.6 0.999573603042 -0.0291995223013
3 0.9238984375 0.5351484375 0.009625 0.007875 1.58 0.999957646499 -0.00920354326881
0 0.8901484375000001 0.5345234375000001 0.0215 0.049375 1.55 0.999783764189 0.0207948278031
0 0.8297734375 0.5340234374999999 0.021249999999999998 0.0505 1.57 0.999999682932 0.000796326710733
0 0.7547734375 0.5352734375 0.0185 0.041999999999999996 1.62 0.998789743471 -0.0491838219142
0 0.5293984375 0.5296484375 0.019375 0.045 1.6 0.999573603042 -0.0291995223013
2 0.3986484375 0.5351484375 0.032125 0.098375 1.57 0.999999682932 0.000796326710733
1 0.8862734375 0.3843984375 0.0245 0.057874999999999996 -1.56 -0.99994172023 0.0107961170583
0 0.5731484375 0.49689843749999996 0.020874999999999998 0.045125 1.57 0.999999682932 0.000796326710733
0 0.6532734375 0.3108984375 0.01925 0.044625 -1.6 -0.999573603042 -0.0291995223013
