0 0.38089843749999996 0.49714843750000004 0.020374999999999997 0.045875 1.58 0.999957646499 -0.00920354326881
0 0.9261484375 0.46289843750000004 0.019875 0.044875 -1.57 -0.999999682932 0.000796326710733
0 0.9745234375 0.5332734375 0.020499999999999997 0.048625 1.59 0.999815615134 -0.0192024929017
0 0.9255234375 0.5326484375 0.017374999999999998 0.033125 1.62 0.998789743471 -0.0491838219142
0 0.8038984375 0.5326484375 0.019875 0.047375 1.61 0.999231634421 -0.039193631773
0 0.6123984375 0.5315234375 0.019625 0.050875000000000004 1.56 0.99994172023 0.0107961170583
0 0.7398984375 0.5327734375000001 0.019875 0.046875 1.57 0.999999682932 0.000796326710733
0 0.3816484375 0.5342734375 0.019375 0.049125 1.6 0.999573603042 -0.0291995223013
3 0.8947734375 0.5493984375000001 0.008624999999999999 0.0085 1.57 0.999999682932 0.000796326710733
