0 0.7397734375 0.5220234375 0.022 0.048 1.47 0.994924349778 0.100625733387
7 0.8897734375 0.4378984375 0.032125 0.146 1.62 0.998789743471 -0.0491838219142
0 0.7207734375 0.4245234375 0.020374999999999997 0.049 1.62 0.998789743471 -0.0491838219142
0 0.6353984375 0.4211484375 0.0195 0.047875 1.61 0.999231634421 -0.039193631773
7 0.43239843749999995 0.41502343750000004 0.0335 0.1575 1.64 0.997606381319 -0.0691484486541
0 0.4022734375 0.6020234375 0.0195 0.043125000000000004 1.22 0.939099356319 0.343645746316
0 0.14364843750000011 0.7385234375 0.020749999999999998 0.047 0.87 0.764328937026 0.64482654724
