0 0.7336484375 0.4917734375 0.022 0.048 1.6 0.999573603042 -0.0291995223013
0 0.9275234375 0.4593984375 0.020125 0.05487499999999999 1.58 0.999957646499 -0.00920354326881
0 0.8438984375 0.4575234375 0.020749999999999998 0.053625 1.58 0.999957646499 -0.00920354326881
0 0.7783984375 0.4016484375 0.019375 0.04925 1.57 0.999999682932 0.000796326710733
0 0.7520234375 0.4558984374999999 0.021249999999999998 0.04875 1.57 0.999999682932 0.000796326710733
0 0.6296484375 0.3980234375 0.02025 0.049375 1.58 0.999957646499 -0.00920354326881
0 0.6135234375 0.4558984374999999 0.0215 0.053000000000000005 1.58 0.999957646499 -0.00920354326881
0 0.5457734375 0.34064843749999996 0.018875 0.048 1.57 0.999999682932 0.000796326710733
