0 0.6753984375 0.5403984375 0.019375 0.048875 0.81 0.72428717437 0.689498432952
0 0.8391484375 0.44602343749999995 0.018375 0.04375 -1.65 -0.996865028454 -0.0791208888067
0 0.7103984375 0.4547734375 0.01975 0.041875 -1.65 -0.996865028454 -0.0791208888067
0 0.6551484375000001 0.4573984375 0.021374999999999998 0.055125 -1.61 -0.999231634421 -0.039193631773
0 0.5451484375 0.4575234375 0.0215 0.055125 -1.5 -0.997494986604 0.0707372016677
