0 0.8473984375 0.5343984374999999 0.01975 0.048625 -1.58 -0.999957646499 -0.00920354326881
0 0.7648984375 0.46027343749999994 0.020874999999999998 0.055374999999999994 -1.59 -0.999815615134 -0.0192024929017
0 0.7622734375 0.5336484375 0.019875 0.04525 1.61 0.999231634421 -0.039193631773
0 0.6937734375 0.5337734375000001 0.020499999999999997 0.05625 -1.58 -0.999957646499 -0.00920354326881
0 0.5775234374999999 0.46064843749999995 0.018875 0.0405 -1.55 -0.999783764189 0.0207948278031
