3 0.9386484375 0.5455234375 0.010249999999999999 0.014249999999999999 1.54 0.999525830605 0.0307914590825
3 0.8957734375 0.5128984375 0.01175 0.011625 0.94 0.807558100405 0.589788025031
3 0.9485234375 0.46852343750000003 0.01 0.01075 -1.58 -0.999957646499 -0.00920354326881
5 0.9442734375 0.4781484375 0.00825 0.021875 -1.55 -0.999783764189 0.0207948278031
3 0.8680234375 0.5608984375 0.013000000000000001 0.0115 2.79 0.344393467258 -0.938825404274
3 0.8626484375 0.5701484375 0.006750000000000001 0.006875000000000001 1.67 0.99508334981 -0.0990410365987
4 0.9036484375 0.46364843750000007 0.00625 0.008624999999999999 3.03 0.111361188687 -0.993779998619
4 0.8305234375 0.4581484375 0.006750000000000001 0.011875 2.96 0.180596267894 -0.983557313034
3 0.7398984375 0.46264843750000006 0.00825 0.01125 -1.36 -0.977864602435 0.209238665891
3 0.7390234375 0.4555234375 0.009125 0.009625 -1.37 -0.979908061399 0.199449720998
3 0.7422734375 0.48627343749999996 0.0095 0.012750000000000001 1.6 0.999573603042 -0.0291995223013
3 0.6442734375 0.4920234375 0.012 0.011875 1.68 0.994043202198 -0.10898675224
3 0.7436484375 0.5007734375 0.008 0.011375 1.56 0.99994172023 0.0107961170583
3 0.7228984375 0.46564843749999996 0.009125 0.010499999999999999 2.35 0.711473352791 -0.702713076774
