3 0.8957734375 0.5862734375 0.006625000000000001 0.011875 0.02 0.0199986666933 0.999800006667
3 0.7643984375 0.5705234375 0.006625000000000001 0.009625 1.57 0.999999682932 0.000796326710733
3 0.7645234375000001 0.5645234375 0.007625 0.009625 1.54 0.999525830605 0.0307914590825
