0 0.7695234375 0.3958984375 0.02225 0.053125 3.12 0.0215909757261 -0.999766887713
0 0.5372734374999999 0.40039843750000004 0.020499999999999997 0.04625 0.01 0.00999983333417 0.999950000417
7 0.8548984374999999 0.3862734375000001 0.009875 0.02375 -0.01 -0.00999983333417 0.999950000417
5 0.7328984375 0.6097734375 0.0063750000000000005 0.023125 1.57 0.999999682932 0.000796326710733
5 0.6838984375 0.6033984375 0.005375 0.021249999999999998 1.56 0.99994172023 0.0107961170583
5 0.6181484375 0.6113984375 0.0055 0.022375 1.57 0.999999682932 0.000796326710733
