0 0.8428984374999999 0.44064843749999993 0.020749999999999998 0.047 -1.58 -0.999957646499 -0.00920354326881
0 0.9687734375 0.5465234375 0.019875 0.041749999999999995 1.62 0.998789743471 -0.0491838219142
0 0.9047734375 0.5460234374999999 0.02 0.04625 1.55 0.999783764189 0.0207948278031
0 0.7726484375 0.4421484375 0.020999999999999998 0.047 -1.6 -0.999573603042 -0.0291995223013
0 0.8353984375 0.5463984375 0.020499999999999997 0.044 1.55 0.999783764189 0.0207948278031
0 0.7048984375 0.4428984375 0.020999999999999998 0.05425 -1.62 -0.998789743471 -0.0491838219142
0 0.7701484375000001 0.5457734375000001 0.020499999999999997 0.05175 1.57 0.999999682932 0.000796326710733
0 0.5070234374999999 0.4508984375 0.02 0.04 -1.61 -0.999231634421 -0.039193631773
0 0.7071484375 0.5476484375 0.020749999999999998 0.04375 1.54 0.999525830605 0.0307914590825
0 0.6387734375 0.5521484375 0.020125 0.043875 1.53 0.999167945271 0.0407850112416
