0 0.7020234375000001 0.4647734375 0.02 0.04825 1.24 0.94578399945 0.324796284439
0 0.5357734375 0.5486484375 0.019125 0.0475 1.15 0.912763940261 0.408487440884
1 0.8175234375 0.4720234375000001 0.025625 0.062 1.22 0.939099356319 0.343645746316
0 0.4251484375 0.5507734375 0.0195 0.045625 1.23 0.942488801932 0.334237727125
