0 0.9133984375 0.4115234375 0.020999999999999998 0.0485 -3.05 -0.0914646422324 -0.995808324539
0 0.8807734375 0.40877343750000006 0.0225 0.054625 0.04 0.0399893341866 0.999200106661
5 0.7957734375 0.4571484375 0.0072499999999999995 0.021124999999999998 -1.52 -0.998710143976 0.0507744849336
0 0.9296484375 0.5723984375 0.01975 0.035125 0.08 0.0799146939692 0.996801706303
0 0.8983984375 0.5711484375 0.020999999999999998 0.049625 -3.08 -0.0615537174299 -0.998103772095
0 0.8620234375 0.5675234375 0.020624999999999998 0.05325 0.07 0.0699428473375 0.997551000253
0 0.8322734375 0.5696484374999999 0.021124999999999998 0.04775 0.04 0.0399893341866 0.999200106661
0 0.7415234375 0.4076484375 0.019875 0.05550000000000001 -3.11 -0.0315873984365 -0.999500993626
0 0.7085234375 0.4116484375 0.020374999999999997 0.05125 -3.14 -0.00159265291649 -0.999998731728
0 0.6680234375 0.5205234375 0.0195 0.051000000000000004 1.64 0.997606381319 -0.0691484486541
0 0.5276484375 0.40602343750000003 0.020499999999999997 0.045625 -0.06 -0.0599640064794 0.998200539935
0 0.4793984375 0.5142734375 0.01975 0.042125 1.6 0.999573603042 -0.0291995223013
