0 0.9456484375 0.44239843749999996 0.01975 0.041875 -1.58 -0.999957646499 -0.00920354326881
0 0.8913984375 0.4411484375 0.021374999999999998 0.055125 -1.54 -0.999525830605 0.0307914590825
0 0.7837734375000001 0.4341484375 0.0215 0.055125 -1.49 -0.996737752043 0.0807084484548
0 0.6733984375 0.4247734375000001 0.021875 0.05375 -1.51 -0.998152472498 0.0607588812194
1 0.8403984375 0.6152734375 0.024375 0.0665 3.14 0.00159265291649 -0.999998731728
