0 0.8941484375000001 0.44064843749999993 0.020874999999999998 0.056499999999999995 -1.41 -0.987100101014 0.160104311555
5 0.9043984375 0.5396484375 0.00625 0.0215 1.64 0.997606381319 -0.0691484486541
0 0.0761484375 0.4238984375 0.022625 0.050875000000000004 -1.51 -0.998152472498 0.0607588812194
