0 0.16177343750000017 0.5721484375 0.0215 0.05437499999999999 1.67 0.99508334981 -0.0990410365987
0 0.8930234375 0.5463984375 0.018125 0.04 1.59 0.999815615134 -0.0192024929017
0 0.8953984375 0.5953984375 0.0185 0.040625 1.58 0.999957646499 -0.00920354326881
