0 0.9078984375 0.5001484375 0.020374999999999997 0.041499999999999995 1.57 0.999999682932 0.000796326710733
2 0.6770234375 0.4727734375 0.031125000000000003 0.092875 -2.68 -0.445374644542 -0.895344305839
0 0.6526484375 0.7565234375000001 0.021625 0.05325 3.08 0.0615537174299 -0.998103772095
