0 0.7435234374999999 0.5348984375 0.019375 0.048875 -1.49 -0.996737752043 0.0807084484548
0 0.7261484375 0.5043984375 0.023 0.05125 -1.6 -0.999573603042 -0.0291995223013
1 0.8415234375 0.4680234375000001 0.023625 0.057625 2.37 0.69727773826 -0.716801057287
