0 0.9078984375 0.4098984375 0.0195 0.044125 -3.08 -0.0615537174299 -0.998103772095
0 0.8787734375 0.40477343750000006 0.020374999999999997 0.042499999999999996 -3.04 -0.101417986317 -0.994843903359
0 0.6803984375000001 0.5408984375 0.019625 0.043875 0.12 0.119712207289 0.992808635854
0 0.8147734375 0.5507734375 0.02175 0.0485 0.11 0.109778300837 0.993956097957
0 0.8048984375 0.3970234375 0.020874999999999998 0.047375 0.14 0.139543114644 0.990215996213
0 0.7737734375 0.39514843749999995 0.02 0.0505 -3.05 -0.0914646422324 -0.995808324539
0 0.7380234375 0.39139843750000003 0.0215 0.051875000000000004 0.04 0.0399893341866 0.999200106661
0 0.6750234375 0.38889843749999997 0.019625 0.050124999999999996 -3.02 -0.121293255031 -0.992616716706
0 0.2001484375 0.34289843749999993 0.020749999999999998 0.04975 2.09 0.868214583446 -0.496188912706
