0 0.9032734375 0.40739843750000004 0.020374999999999997 0.042499999999999996 -3.06 -0.0815021517603 -0.996673165716
0 0.7077734375 0.5463984375 0.019625 0.043875 0.1 0.0998334166468 0.995004165278
0 0.8420234375 0.5543984375 0.02175 0.0485 0.09 0.089878549198 0.995952733012
0 0.8293984375 0.4006484375 0.020874999999999998 0.047375 0.12 0.119712207289 0.992808635854
0 0.7976484375 0.39939843750000004 0.02 0.0505 -3.09 -0.0515697683985 -0.998669394238
0 0.7616484375 0.3973984374999999 0.0215 0.051875000000000004 0.02 0.0199986666933 0.999800006667
0 0.6993984375 0.39552343749999996 0.019625 0.050124999999999996 -3.04 -0.101417986317 -0.994843903359
0 0.6771484375 0.5428984375 0.020374999999999997 0.042875 0.14 0.139543114644 0.990215996213
0 0.2267734375 0.3593984375 0.020749999999999998 0.04975 2.06 0.882707350816 -0.469923113728
