3 0.9376484375 0.4663984375 0.007625 0.009125 1.72 0.988889766005 -0.148650700271
3 0.9391484375 0.4611484375 0.006750000000000001 0.010875 1.74 0.985719178836 -0.168397447949
3 0.8831484375 0.5338984375 0.007625 0.0115 -1.3 -0.963558185417 0.267498828625
3 0.8845234375 0.5453984375 0.008624999999999999 0.009625 -1.28 -0.958015860289 0.286715209632
5 0.8618984375000001 0.5698984375 0.00625 0.0165 -1.98 -0.917437955282 -0.39787887379
5 0.8401484375 0.5875234375 0.006750000000000001 0.021249999999999998 -2.09 -0.868214583446 -0.496188912706
