0 0.7731484375 0.46889843750000004 0.019875 0.050375 1.54 0.999525830605 0.0307914590825
0 0.6415234375000001 0.4710234375 0.01925 0.041999999999999996 1.57 0.999999682932 0.000796326710733
0 0.5862734374999999 0.5105234375000001 0.020874999999999998 0.05475 1.53 0.999167945271 0.0407850112416
1 0.8920234375 0.42664843750000003 0.024375 0.05600000000000001 -1.55 -0.999783764189 0.0207948278031
0 0.4615234375 0.4846484375 0.019875 0.045625 1.53 0.999167945271 0.0407850112416
