0 0.4983984374999999 0.48952343750000005 0.022 0.048 1.59 0.999815615134 -0.0192024929017
0 0.8931484375000001 0.39452343749999996 0.0225 0.0475 1.57 0.999999682932 0.000796326710733
0 0.8160234375 0.3935234375000001 0.021374999999999998 0.051500000000000004 1.58 0.999957646499 -0.00920354326881
7 0.8715234375 0.44739843749999997 0.016 0.016 1.57 0.999999682932 0.000796326710733
0 0.8267734375 0.4471484375 0.01975 0.049875 1.57 0.999999682932 0.000796326710733
0 0.7153984375 0.3932734375 0.020624999999999998 0.045625 1.59 0.999815615134 -0.0192024929017
0 0.6875234375 0.4418984375 0.020125 0.0445 1.57 0.999999682932 0.000796326710733
0 0.5820234375 0.39077343750000004 0.020125 0.046 1.59 0.999815615134 -0.0192024929017
0 0.5612734374999999 0.4352734375 0.020499999999999997 0.049875 1.58 0.999957646499 -0.00920354326881
0 0.4455234375 0.43664843749999993 0.019625 0.0465 1.58 0.999957646499 -0.00920354326881
7 0.25389843749999996 0.4341484375 0.0235 0.03175 1.6 0.999573603042 -0.0291995223013
1 0.6185234374999999 0.3431484375 0.022875 0.054625 1.58 0.999957646499 -0.00920354326881
