0 0.9341484375 0.5346484375 0.021374999999999998 0.04475 1.59 0.999815615134 -0.0192024929017
0 0.8558984375 0.44627343750000004 0.022625 0.04325 1.61 0.999231634421 -0.039193631773
0 0.8055234375 0.5317734375 0.019375 0.042125 1.59 0.999815615134 -0.0192024929017
0 0.6083984375 0.5326484375 0.020874999999999998 0.04525 1.59 0.999815615134 -0.0192024929017
