0 0.7975234375 0.4631484375 0.019375 0.052625 1.62 0.998789743471 -0.0491838219142
0 0.7972734375 0.5277734374999999 0.020624999999999998 0.045875 1.58 0.999957646499 -0.00920354326881
7 0.6843984375000001 0.4577734375 0.017875 0.0315 1.61 0.999231634421 -0.039193631773
0 0.6278984375 0.45902343749999996 0.019625 0.05125 -1.53 -0.999167945271 0.0407850112416
0 0.6692734375 0.5271484375 0.020499999999999997 0.05175 1.62 0.998789743471 -0.0491838219142
0 0.3573984374999999 0.45327343750000004 0.019125 0.04475 -1.53 -0.999167945271 0.0407850112416
