0 0.6405234375 0.5442734375 0.02 0.051375000000000004 1.25 0.948984619356 0.315322362395
1 0.9085234375 0.45327343750000004 0.023125 0.051375000000000004 1.21 0.935616001553 0.353019401219
0 0.6956484375 0.37689843750000007 0.017125 0.043125000000000004 -1.75 -0.983985946874 -0.178246055649
0 0.5187734374999999 0.41002343750000003 0.020999999999999998 0.0595 -1.68 -0.994043202198 -0.10898675224
