0 0.7005234375 0.49227343749999997 0.02 0.0445 1.6 0.999573603042 -0.0291995223013
0 0.5888984374999999 0.4545234375 0.020374999999999997 0.044625 1.55 0.999783764189 0.0207948278031
0 0.34489843749999993 0.31239843749999996 0.024125 0.044 -1.45 -0.992712991038 0.120502769367
0 0.13777343750000015 0.2915234375 0.01975 0.038875 -1.49 -0.996737752043 0.0807084484548
0 0.7792734375 0.34564843750000007 0.020499999999999997 0.047125 -1.49 -0.996737752043 0.0807084484548
1 0.3616484375 0.4906484375 0.020499999999999997 0.065 1.61 0.999231634421 -0.039193631773
