0 0.7745234375 0.5400234375 0.021625 0.049625 1.56 0.99994172023 0.0107961170583
0 0.7897734375000001 0.6433984375 0.01975 0.04875 2.44 0.645434998334 -0.763815202078
0 0.7022734375 0.5412734375 0.02025 0.051375000000000004 1.54 0.999525830605 0.0307914590825
0 0.7103984375 0.6376484375 0.019125 0.05475 2.48 0.614374257806 -0.78901474723
0 0.7516484375 0.6435234375000001 0.0225 0.04975 2.46 0.630030629996 -0.776570283533
