0 0.7576484375 0.5005234375 0.021625 0.038125 1.57 0.999999682932 0.000796326710733
5 0.7536484375 0.5670234375 0.006625000000000001 0.025 1.64 0.997606381319 -0.0691484486541
6 0.6278984375 0.44464843749999994 0.03425 0.14975 1.57 0.999999682932 0.000796326710733
6 0.8231484375 0.4451484375 0.0325 0.19012500000000002 1.57 0.999999682932 0.000796326710733
