0 0.5287734374999999 0.2678984375000001 0.021249999999999998 0.05175 1.63 0.998247974378 -0.0591690937141
0 0.5311484375 0.23364843749999997 0.021374999999999998 0.051375000000000004 1.63 0.998247974378 -0.0591690937141
0 0.6880234375000001 0.27977343750000006 0.019375 0.043125000000000004 -1.53 -0.999167945271 0.0407850112416
