0 0.7606484375 0.44939843749999997 0.019375 0.041499999999999995 1.63 0.998247974378 -0.0591690937141
0 0.6777734375 0.4482734374999999 0.020999999999999998 0.048875 -1.57 -0.999999682932 0.000796326710733
0 0.46827343749999994 0.43202343750000005 0.021875 0.055874999999999994 -1.53 -0.999167945271 0.0407850112416
0 0.8363984375 0.38889843749999997 0.021625 0.056625 -2.96 -0.180596267894 -0.983557313034
