0 0.7663984375 0.4545234375 0.019 0.0445 -1.59 -0.999815615134 -0.0192024929017
0 0.37652343749999995 0.4407734375000001 0.020499999999999997 0.057125 -1.52 -0.998710143976 0.0507744849336
1 0.0312734375 0.47027343750000006 0.025374999999999998 0.0675 2.07 0.877964062999 -0.478726544159
0 0.8532734375 0.38252343749999995 0.01925 0.05437499999999999 -2.67 -0.45430566983 -0.890845866781
0 0.4813984375 0.3982734375 0.017625 0.05275 -2.73 -0.400069477592 -0.916484813349
