0 0.7415234375 0.5066484375 0.021124999999999998 0.042249999999999996 1.57 0.999999682932 0.000796326710733
3 0.7271484375 0.6057734375 0.007124999999999999 0.011125 -1.55 -0.999783764189 0.0207948278031
0 0.6203984375 0.7290234375 0.020874999999999998 0.054000000000000006 -3.1 -0.0415806624333 -0.999135150273
5 0.5663984375 0.5920234375 0.01075 0.025124999999999998 3.08 0.0615537174299 -0.998103772095
1 0.4643984375 0.5385234375 0.02325 0.055125 1.53 0.999167945271 0.0407850112416
3 0.5456484374999999 0.45789843750000003 0.008 0.008125 0.13 0.12963414262 0.991561893715
0 0.6137734375 0.4970234375 0.020874999999999998 0.045125 1.57 0.999999682932 0.000796326710733
