0 0.7098984375 0.49427343749999997 0.020749999999999998 0.04 1.56 0.99994172023 0.0107961170583
0 0.3737734374999999 0.5412734375 0.01875 0.042249999999999996 1.57 0.999999682932 0.000796326710733
0 0.2723984374999999 0.7372734375 0.021124999999999998 0.05125 1.55 0.999783764189 0.0207948278031
0 0.3430234375 0.7370234375 0.020874999999999998 0.04525 1.55 0.999783764189 0.0207948278031
7 0.4002734374999999 0.7398984375 0.018875 0.01925 -1.52 -0.998710143976 0.0507744849336
