0 0.8181484375 0.5365234375 0.0195 0.047625 1.57 0.999999682932 0.000796326710733
0 0.7526484375 0.5362734375 0.020999999999999998 0.047875 1.59 0.999815615134 -0.0192024929017
1 0.6633984375 0.5346484375 0.02475 0.07025 1.57 0.999999682932 0.000796326710733
0 0.6006484375 0.45764843749999995 0.01875 0.048125 -1.5 -0.997494986604 0.0707372016677
