0 0.8381484375 0.6291484375 0.019375 0.048875 -1.93 -0.936177052316 -0.351528841941
0 0.8105234375 0.6053984375 0.023 0.05125 -1.86 -0.958471283079 -0.285189059245
0 0.6331484375 0.4128984375 0.021625 0.049625 1.91 0.94301993129 -0.332736245681
0 0.6103984375 0.5113984375 0.01975 0.04875 2.83 0.306574986384 -0.95184650954
1 0.9008984375 0.5276484375 0.023625 0.057625 1.95 0.928959715004 -0.370180831351
0 0.8126484375 0.48852343749999994 0.020499999999999997 0.047 1.96 0.925211520788 -0.379451764788
