1 0.9180234375 0.5346484375 0.02275 0.055125 1.56 0.99994172023 0.0107961170583
0 0.8478984375 0.5316484375 0.0195 0.051375000000000004 1.57 0.999999682932 0.000796326710733
0 0.7778984375 0.5338984375 0.018625 0.047375 1.58 0.999957646499 -0.00920354326881
0 0.7051484375 0.5325234375 0.019125 0.051625 1.58 0.999957646499 -0.00920354326881
0 0.6147734375 0.4600234375000001 0.020624999999999998 0.048875 1.55 0.999783764189 0.0207948278031
0 0.5022734375 0.5347734375 0.01975 0.044125 1.55 0.999783764189 0.0207948278031
7 0.27777343749999994 0.5345234375000001 0.026625 0.0725 1.58 0.999957646499 -0.00920354326881
