0 0.4521484375 0.5965234374999999 0.02 0.051375000000000004 1.31 0.966184951613 0.257850032533
1 0.7248984375 0.5160234375 0.023125 0.051375000000000004 1.22 0.939099356319 0.343645746316
0 0.8078984375 0.3517734375 0.017125 0.043125000000000004 -1.78 -0.978196606808 -0.207681001609
0 0.7390234375 0.4621484375 0.018125 0.054125 1.24 0.94578399945 0.324796284439
1 0.9233984375 0.40252343749999997 0.023125 0.07775 1.25 0.948984619356 0.315322362395
0 0.6411484375000001 0.3890234375 0.020999999999999998 0.0595 -1.73 -0.987353839701 -0.158532000644
0 0.43277343749999997 0.4241484375 0.019375 0.051125 -1.65 -0.996865028454 -0.0791208888067
