0 0.8527734375 0.5447734375 0.020499999999999997 0.043875 1.53 0.999167945271 0.0407850112416
0 0.7868984375 0.5531484375 0.019125 0.051875000000000004 1.5 0.997494986604 0.0707372016677
0 0.7166484375 0.5643984375000001 0.02175 0.062 1.4 0.985449729988 0.1699671429
1 0.4361484375 0.6545234375 0.02475 0.066625 1.03 0.857298989189 0.51481884497
