0 0.9473984375 0.46202343749999997 0.02 0.049875 -1.55 -0.999783764189 0.0207948278031
0 0.8597734375 0.46227343750000005 0.01925 0.046 -1.58 -0.999957646499 -0.00920354326881
1 0.7372734375 0.4585234375 0.02475 0.072625 -1.57 -0.999999682932 0.000796326710733
0 0.8853984375 0.5471484375 0.020624999999999998 0.05175 0.02 0.0199986666933 0.999800006667
0 0.8105234375 0.5498984375 0.020749999999999998 0.055874999999999994 -0.01 -0.00999983333417 0.999950000417
0 0.7113984375 0.5376484375 0.022 0.051500000000000004 -0.07 -0.0699428473375 0.997551000253
1 0.5787734375 0.46102343749999997 0.023875 0.08 -1.6 -0.999573603042 -0.0291995223013
7 0.9393984375 0.5563984375000001 0.0055 0.023375 -0.01 -0.00999983333417 0.999950000417
0 0.49527343749999997 0.5238984375 0.01925 0.04025 1.62 0.998789743471 -0.0491838219142
3 0.08277343749999999 0.45139843749999997 0.0052499999999999995 0.013000000000000001 -0.44 -0.425939465066 0.90475166322
3 0.07152343750000001 0.4571484375 0.00625 0.01125 -0.7 -0.644217687238 0.764842187284
