0 0.6200234375 0.2792734375 0.020874999999999998 0.048125 -2.05 -0.887362368633 -0.461072691377
0 0.44902343749999996 0.3373984375 0.019625 0.063 -2.67 -0.45430566983 -0.890845866781
0 0.4070234374999999 0.6965234375 0.01825 0.048 -3.12 -0.0215909757261 -0.999766887713
