0 0.9038984375 0.45464843750000006 0.021249999999999998 0.049375 -1.64 -0.997606381319 -0.0691484486541
3 0.7572734375 0.5743984375 0.009 0.013625000000000002 -1.71 -0.990326804156 -0.138754534952
0 0.8340234375 0.5498984375 0.02 0.0405 1.54 0.999525830605 0.0307914590825
0 0.7640234375 0.5545234375 0.02175 0.05125 1.47 0.994924349778 0.100625733387
0 0.7530234375 0.4615234375 0.020999999999999998 0.047375 -1.65 -0.996865028454 -0.0791208888067
0 0.6856484375 0.4671484375 0.019 0.041875 -1.63 -0.998247974378 -0.0591690937141
0 0.6786484375 0.5583984375 0.020624999999999998 0.054625 1.53 0.999167945271 0.0407850112416
0 0.5922734374999999 0.4715234374999999 0.020624999999999998 0.05225 -1.63 -0.998247974378 -0.0591690937141
0 0.5072734375 0.49414843750000004 0.018125 0.0435 -1.92 -0.939645473685 -0.342149651151
0 0.3800234375 0.5670234375 0.020499999999999997 0.051000000000000004 -2.16 -0.831383460779 -0.555699146251
