0 0.9202734375 0.5350234375 0.019875 0.047125 1.65 0.996865028454 -0.0791208888067
0 0.8957734375 0.4361484375 0.02175 0.055125 -1.52 -0.998710143976 0.0507744849336
0 0.7678984375 0.5228984375 0.021374999999999998 0.04475 1.65 0.996865028454 -0.0791208888067
0 0.6962734375 0.42977343749999997 0.022625 0.04325 1.65 0.996865028454 -0.0791208888067
0 0.6405234375 0.5126484375 0.019375 0.042125 1.64 0.997606381319 -0.0691484486541
0 0.44402343749999995 0.5021484375 0.020874999999999998 0.04525 1.67 0.99508334981 -0.0990410365987
