0 0.5987734375 0.4943984375 0.020374999999999997 0.045875 1.58 0.999957646499 -0.00920354326881
0 0.4933984375 0.5017734375 0.021124999999999998 0.054000000000000006 1.57 0.999999682932 0.000796326710733
0 0.9696484375 0.5313984375 0.0185 0.039625 1.56 0.99994172023 0.0107961170583
0 0.9101484375 0.5371484375 0.019375 0.043875 1.51 0.998152472498 0.0607588812194
0 0.7398984375 0.5355234375 0.02025 0.051625 1.57 0.999999682932 0.000796326710733
0 0.8473984375 0.4013984374999999 0.020624999999999998 0.04925 -1.57 -0.999999682932 0.000796326710733
0 0.6398984375 0.5370234375 0.01825 0.040749999999999995 1.59 0.999815615134 -0.0192024929017
0 0.43102343749999994 0.5370234375 0.0195 0.043125000000000004 1.57 0.999999682932 0.000796326710733
