0 0.8105234375 0.5007734375 0.021625 0.038125 1.57 0.999999682932 0.000796326710733
5 0.7965234375 0.5685234375 0.006625000000000001 0.025 1.6 0.999573603042 -0.0291995223013
6 0.7881484375 0.4455234375 0.03425 0.14975 1.57 0.999999682932 0.000796326710733
6 0.9668984375 0.44664843750000005 0.0325 0.19012500000000002 1.57 0.999999682932 0.000796326710733
