0 0.9710234375 0.45927343750000005 0.020749999999999998 0.05275 -1.5 -0.997494986604 0.0707372016677
0 0.8981484375 0.46127343749999994 0.021124999999999998 0.053500000000000006 -1.55 -0.999783764189 0.0207948278031
7 0.8253984375000001 0.45827343750000005 0.022625 0.03225 -1.65 -0.996865028454 -0.0791208888067
0 0.7028984375 0.4753984375 0.020374999999999997 0.050375 -1.77 -0.980224472788 -0.197888814609
0 0.24352343749999994 0.7117734375 0.021875 0.058374999999999996 0.98 0.830497370492 0.557022546766
