0 0.9712734375000001 0.5348984375 0.021875 0.04725 1.57 0.999999682932 0.000796326710733
0 0.8426484375000001 0.42239843749999995 0.020624999999999998 0.051375000000000004 -1.57 -0.999999682932 0.000796326710733
0 0.5348984375 0.4498984375 0.022 0.05500000000000001 -1.59 -0.999815615134 -0.0192024929017
0 0.7613984375 0.41877343749999996 0.020499999999999997 0.05 -1.58 -0.999957646499 -0.00920354326881
0 0.6243984375 0.41502343750000004 0.021249999999999998 0.04675 -1.56 -0.99994172023 0.0107961170583
0 0.3527734375 0.5287734375 0.020749999999999998 0.051875000000000004 1.57 0.999999682932 0.000796326710733
0 0.4415234375 0.5975234375 0.021249999999999998 0.058125 -3.13 -0.0115923939362 -0.999932805944
1 0.32264843749999994 0.7731484375 0.025875 0.061750000000000006 0.03 0.0299955002025 0.999550033749
