0 0.7916484375 0.4926484375 0.020374999999999997 0.045875 1.58 0.999957646499 -0.00920354326881
0 0.7170234375 0.4970234375 0.021124999999999998 0.054000000000000006 1.57 0.999999682932 0.000796326710733
0 0.7998984375 0.5346484375 0.0195 0.043125000000000004 1.57 0.999999682932 0.000796326710733
0 0.7266484375 0.5302734375 0.019125 0.050875000000000004 1.61 0.999231634421 -0.039193631773
0 0.6545234375 0.5253984375 0.019125 0.052000000000000005 1.58 0.999957646499 -0.00920354326881
0 0.35689843749999994 0.28814843749999997 0.023125 0.04375 0.29 0.285952225105 0.958243875513
