0 0.7200234375 0.4487734375000001 0.022 0.05500000000000001 -1.58 -0.999957646499 -0.00920354326881
0 0.8875234375 0.41739843749999994 0.020499999999999997 0.05 -1.58 -0.999957646499 -0.00920354326881
0 0.7527734375 0.4122734375 0.021249999999999998 0.04675 -1.56 -0.99994172023 0.0107961170583
0 0.4820234374999999 0.5238984375 0.020749999999999998 0.051875000000000004 1.57 0.999999682932 0.000796326710733
0 0.5698984374999999 0.5937734375 0.021249999999999998 0.058125 -3.14 -0.00159265291649 -0.999998731728
0 0.5315234375 0.5945234375 0.022625 0.054125 3.14 0.00159265291649 -0.999998731728
1 0.45039843749999997 0.7678984375 0.025875 0.061750000000000006 0.03 0.0299955002025 0.999550033749
