0 0.7347734375 0.5027734374999999 0.020749999999999998 0.04 1.72 0.988889766005 -0.148650700271
0 0.6396484375 0.34202343749999997 0.01875 0.03875 -1.59 -0.999815615134 -0.0192024929017
0 0.6655234375 0.3908984375 0.020874999999999998 0.050875000000000004 -1.54 -0.999525830605 0.0307914590825
