3 0.5775234374999999 0.37514843750000004 0.007124999999999999 0.013500000000000002 -2.91 -0.229527947021 -0.973302071063
0 0.5402734375 0.35289843750000005 0.022 0.051375000000000004 -0.95 -0.813415504789 0.581683089464
0 0.5097734375 0.37127343749999997 0.019625 0.050875000000000004 2.25 0.778073196888 -0.628173622723
0 0.49352343749999994 0.4072734375 0.021374999999999998 0.062875 2.23 0.790480222342 -0.612487565658
1 0.4375234375 0.5192734375 0.022125 0.05550000000000001 -0.95 -0.813415504789 0.581683089464
0 0.4082734374999999 0.5423984374999999 0.017625 0.042499999999999996 2.21 0.802571066247 -0.596556521734
0 0.3827734374999999 0.5810234375000001 0.020125 0.041999999999999996 2.28 0.758880708181 -0.651229660528
0 0.3295234375 0.6180234375 0.02025 0.05325 2.26 0.77175266202 -0.635922816594
0 0.3215234375 0.6465234375 0.020125 0.03575 2.13 0.847677840134 -0.530511337623
0 0.3122734374999999 0.6706484375 0.01875 0.0435 2.17 0.825784993106 -0.563985057569
0 0.2995234375 0.6991484375 0.0185 0.055125 -1.03 -0.857298989189 0.51481884497
1 0.2556484374999999 0.7571484374999999 0.023625 0.05337499999999999 -0.84 -0.744643119971 0.667462825841
0 0.23577343750000002 0.7865234375 0.020874999999999998 0.048 -0.82 -0.731145829727 0.682221207288
0 0.2187734375 0.8160234375 0.019625 0.041999999999999996 -0.88 -0.770738878899 0.637151144199
