3 0.8518984375 0.5755234375 0.006625000000000001 0.011875 -0.0 -0.0 1.0
3 0.7250234375 0.5702734375 0.006625000000000001 0.009625 1.57 0.999999682932 0.000796326710733
3 0.7251484375 0.5647734375 0.007625 0.009625 1.55 0.999783764189 0.0207948278031
