0 0.8922734375 0.4251484375000001 0.0185 0.046375 -1.56 -0.99994172023 0.0107961170583
0 0.8178984375 0.4242734374999999 0.020624999999999998 0.050249999999999996 -1.57 -0.999999682932 0.000796326710733
0 0.8715234375 0.6120234375 0.019875 0.049875 3.14 0.00159265291649 -0.999998731728
0 0.8390234375000001 0.6128984375 0.020999999999999998 0.034749999999999996 -3.12 -0.0215909757261 -0.999766887713
0 0.8098984375 0.6077734375 0.020874999999999998 0.042875 -3.12 -0.0215909757261 -0.999766887713
0 0.7743984375 0.6032734375 0.02025 0.046125 -3.13 -0.0115923939362 -0.999932805944
0 0.7237734375 0.4262734375 0.020125 0.051625 -1.63 -0.998247974378 -0.0591690937141
0 0.7961484375 0.5390234375 0.02 0.048375 1.6 0.999573603042 -0.0291995223013
0 0.7265234375 0.5383984374999999 0.019625 0.0505 1.57 0.999999682932 0.000796326710733
