3 0.9276484375 0.5455234375 0.010249999999999999 0.014249999999999999 1.55 0.999783764189 0.0207948278031
3 0.8858984375 0.5085234375 0.01175 0.011625 0.95 0.813415504789 0.581683089464
3 0.9280234375 0.4673984375 0.01 0.01075 -1.57 -0.999999682932 0.000796326710733
3 0.9425234375 0.5351484375 0.00975 0.012875000000000001 -1.54 -0.999525830605 0.0307914590825
5 0.9172734375 0.47727343749999995 0.00825 0.021875 -1.54 -0.999525830605 0.0307914590825
3 0.8556484375 0.5632734375 0.013000000000000001 0.0115 2.83 0.306574986384 -0.95184650954
4 0.8875234375 0.46327343750000005 0.00625 0.008624999999999999 3.04 0.101417986317 -0.994843903359
4 0.8181484375 0.4567734375 0.006750000000000001 0.011875 2.97 0.170751828951 -0.985314068158
3 0.7200234375 0.4587734375 0.00825 0.01125 -1.39 -0.983700814811 0.179812977673
3 0.7173984375 0.45064843750000005 0.009125 0.009625 -1.36 -0.977864602435 0.209238665891
3 0.7343984375 0.48514843750000003 0.0095 0.012750000000000001 1.56 0.99994172023 0.0107961170583
3 0.7352734375000001 0.4986484375 0.008 0.011375 1.55 0.999783764189 0.0207948278031
3 0.7132734375 0.46602343749999997 0.009125 0.010499999999999999 2.27 0.765354952529 -0.643608418714
