0 0.8397734375 0.5305234375000001 0.0195 0.05425 1.58 0.999957646499 -0.00920354326881
0 0.9020234375 0.46102343749999997 0.019125 0.051500000000000004 1.61 0.999231634421 -0.039193631773
0 0.6285234375 0.5271484375 0.020499999999999997 0.043875 1.51 0.998152472498 0.0607588812194
1 0.20527343750000004 0.6072734375 0.02475 0.066625 1.11 0.89569868568 0.444661516742
