0 0.9361484375 0.4573984375 0.022625 0.05675 1.72 0.988889766005 -0.148650700271
0 0.9726484375 0.5348984375 0.01925 0.03775 1.46 0.993868363412 0.11056977982
0 0.9050234375 0.5607734375 0.019 0.051500000000000004 0.9 0.783326909627 0.621609968271
