0 0.48489843749999995 0.6716484375 0.022 0.05125 -3.09 -0.0515697683985 -0.998669394238
0 0.3076484374999999 0.4555234375 0.02225 0.046125 1.58 0.999957646499 -0.00920354326881
5 0.24289843749999995 0.48652343750000004 0.0075 0.022375 0.0 0.0 1.0
3 0.2287734374999999 0.5170234375 0.0085 0.018 3.14 0.00159265291649 -0.999998731728
3 0.24852343749999994 0.36814843750000004 0.007124999999999999 0.0165 -0.07 -0.0699428473375 0.997551000253
