0 0.8776484375 0.39639843750000003 0.021625 0.048875 -1.56 -0.99994172023 0.0107961170583
1 0.6781484375 0.39077343750000004 0.023 0.051000000000000004 -1.55 -0.999783764189 0.0207948278031
1 0.8972734375 0.5638984375 0.0315 0.06987499999999999 1.58 0.999957646499 -0.00920354326881
