0 0.7656484375 0.5431484375 0.018125 0.04 1.59 0.999815615134 -0.0192024929017
0 0.7747734374999999 0.5937734375 0.0185 0.040625 1.58 0.999957646499 -0.00920354326881
0 0.9058984375 0.5957734375 0.0195 0.0495 1.59 0.999815615134 -0.0192024929017
