0 0.6036484375 0.4930234375 0.022 0.048 1.59 0.999815615134 -0.0192024929017
0 0.8600234375 0.39952343749999997 0.021124999999999998 0.049125 1.57 0.999999682932 0.000796326710733
7 0.7957734375 0.45202343750000007 0.025374999999999998 0.064125 1.57 0.999999682932 0.000796326710733
0 0.7176484375000001 0.45102343749999996 0.02025 0.049875 1.58 0.999957646499 -0.00920354326881
7 0.9743984375 0.4553984375 0.027750000000000004 0.06899999999999999 1.58 0.999957646499 -0.00920354326881
0 0.7733984375 0.3998984375 0.018875 0.0405 1.57 0.999999682932 0.000796326710733
0 0.6833984375 0.34789843749999994 0.018875 0.043625000000000004 1.57 0.999999682932 0.000796326710733
1 0.6812734375 0.4002734375 0.024875 0.061875 1.57 0.999999682932 0.000796326710733
2 0.4890234375 0.4485234375 0.03125 0.20550000000000002 1.59 0.999815615134 -0.0192024929017
