0 0.6363984375 0.23364843749999997 0.02275 0.037875 -1.59 -0.999815615134 -0.0192024929017
0 0.24277343750000002 0.21502343749999997 0.020999999999999998 0.049125 1.56 0.99994172023 0.0107961170583
0 0.2257734374999999 0.13989843749999997 0.022625 0.059125000000000004 1.56 0.99994172023 0.0107961170583
0 0.6408984375 0.4907734375 0.020374999999999997 0.05625 1.58 0.999957646499 -0.00920354326881
