0 0.9495234375 0.43864843750000004 0.022125 0.055125 -1.59 -0.999815615134 -0.0192024929017
0 0.8572734375 0.44539843749999997 0.020624999999999998 0.05500000000000001 -1.64 -0.997606381319 -0.0691484486541
0 0.6548984375 0.47027343750000006 0.020749999999999998 0.0455 -1.7 -0.991664810452 -0.128844494296
0 0.3623984375 0.5322734375 0.020499999999999997 0.04725 -1.88 -0.952576194272 -0.30430017106
1 0.2938984375 0.7222734375 0.026500000000000003 0.07075000000000001 -0.12 -0.119712207289 0.992808635854
5 0.7718984375 0.5283984375 0.008624999999999999 0.022625 1.46 0.993868363412 0.11056977982
