0 0.6650234375 0.4870234375 0.022 0.048 1.6 0.999573603042 -0.0291995223013
0 0.8221484375 0.40114843750000007 0.02025 0.049375 1.57 0.999999682932 0.000796326710733
0 0.7907734375 0.45702343749999996 0.0215 0.053000000000000005 1.58 0.999957646499 -0.00920354326881
0 0.6810234374999999 0.39514843749999995 0.020125 0.0465 1.58 0.999957646499 -0.00920354326881
0 0.6205234374999999 0.4455234375 0.020499999999999997 0.047625 1.57 0.999999682932 0.000796326710733
0 0.4653984375 0.44464843749999994 0.020125 0.052625 1.58 0.999957646499 -0.00920354326881
1 0.05777343750000008 0.42377343750000007 0.026125 0.0745 1.62 0.998789743471 -0.0491838219142
0 0.5828984374999999 0.3397734375 0.019375 0.049875 1.58 0.999957646499 -0.00920354326881
