0 0.6225234374999999 0.5007734375 0.020624999999999998 0.046125 1.56 0.99994172023 0.0107961170583
0 0.6427734375 0.36514843750000003 0.01925 0.045875 -1.61 -0.999231634421 -0.039193631773
0 0.5736484374999999 0.3656484375 0.021249999999999998 0.055125 -1.56 -0.99994172023 0.0107961170583
0 0.6230234375 0.5555234375 0.019625 0.04425 0.75 0.681638760023 0.731688868874
0 0.5793984375 0.5582734375 0.020499999999999997 0.049875 0.78 0.7032794192 0.710913538012
0 0.5368984374999999 0.5506484375 0.020624999999999998 0.05225 0.76 0.688921445111 0.724836010741
0 0.4940234374999999 0.5482734375 0.020624999999999998 0.04925 0.81 0.72428717437 0.689498432952
