0 0.7987734375 0.42102343749999993 0.021124999999999998 0.046125 3.12 0.0215909757261 -0.999766887713
0 0.7411484375 0.4185234375 0.021124999999999998 0.050875000000000004 3.13 0.0115923939362 -0.999932805944
0 0.5708984375 0.6376484375 0.024875 0.060250000000000005 1.52 0.998710143976 0.0507744849336
0 0.5617734375 0.6718984375 0.0195 0.0485 1.55 0.999783764189 0.0207948278031
0 0.6782734375 0.41802343749999993 0.0195 0.051500000000000004 -3.14 -0.00159265291649 -0.999998731728
0 0.6452734375 0.41477343749999995 0.019875 0.04375 -3.11 -0.0315873984365 -0.999500993626
0 0.6145234375 0.41639843750000005 0.021875 0.057125 3.14 0.00159265291649 -0.999998731728
