0 0.34264843749999996 0.5030234375 0.020374999999999997 0.045875 1.58 0.999957646499 -0.00920354326881
0 0.9737734375 0.5367734375000001 0.019625 0.046375 1.61 0.999231634421 -0.039193631773
0 0.8508984374999999 0.5345234375000001 0.02025 0.047 1.57 0.999999682932 0.000796326710733
0 0.7071484375 0.5350234375 0.019125 0.0445 1.56 0.99994172023 0.0107961170583
0 0.6431484375000001 0.5378984375 0.02 0.047625 1.61 0.999231634421 -0.039193631773
0 0.4571484375 0.5376484375 0.020499999999999997 0.048625 1.59 0.999815615134 -0.0192024929017
3 0.46102343749999997 0.5623984375 0.008624999999999999 0.0085 1.57 0.999999682932 0.000796326710733
