0 0.7941484375 0.49852343750000006 0.020624999999999998 0.046125 1.59 0.999815615134 -0.0192024929017
3 0.7993984375000001 0.5958984375 0.007875 0.01075 0.7 0.644217687238 0.764842187284
3 0.7686484375 0.6253984375 0.006875000000000001 0.00975 -2.44 -0.645434998334 -0.763815202078
3 0.7778984375 0.6770234375 0.0063750000000000005 0.00425 -3.13 -0.0115923939362 -0.999932805944
3 0.6343984375 0.7353984375 0.005375 0.0025 -2.84 -0.297041351307 -0.95486461638
