0 0.7757734375 0.5261484375000001 0.020125 0.04675 -1.55 -0.999783764189 0.0207948278031
1 0.5426484374999999 0.46327343750000005 0.023 0.050749999999999997 -1.65 -0.996865028454 -0.0791208888067
1 0.5480234374999999 0.5330234375 0.020374999999999997 0.047 1.54 0.999525830605 0.0307914590825
0 0.5925234374999999 0.41939843750000005 0.020999999999999998 0.05325 3.14 0.00159265291649 -0.999998731728
0 0.8476484375 0.6058984375 0.02 0.05575 -0.08 -0.0799146939692 0.996801706303
