0 0.8941484375000001 0.46164843749999995 0.01925 0.041999999999999996 1.54 0.999525830605 0.0307914590825
0 0.7922734375 0.4813984375 0.020874999999999998 0.05475 1.61 0.999231634421 -0.039193631773
0 0.7205234375 0.47189843749999993 0.019875 0.045625 1.55 0.999783764189 0.0207948278031
0 0.6620234375 0.5073984375 0.018375 0.027875 1.57 0.999999682932 0.000796326710733
0 0.5935234374999999 0.42177343749999996 0.02 0.05625 -1.59 -0.999815615134 -0.0192024929017
0 0.5682734375 0.4943984375 0.018625 0.052375000000000005 1.48 0.995880844538 0.0906716244643
