0 0.9553984375 0.46127343749999994 0.023625 0.061375 -1.49 -0.996737752043 0.0807084484548
0 0.7212734375000001 0.45327343750000004 0.020874999999999998 0.047625 1.61 0.999231634421 -0.039193631773
0 0.7672734375 0.5348984375 0.018875 0.03875 1.63 0.998247974378 -0.0591690937141
0 0.7087734375 0.5297734375 0.01975 0.044125 1.63 0.998247974378 -0.0591690937141
2 0.6012734375 0.45002343749999996 0.025750000000000002 0.06775 -1.55 -0.999783764189 0.0207948278031
0 0.5441484375 0.5247734375 0.02 0.046375 1.56 0.99994172023 0.0107961170583
1 0.22527343749999995 0.5088984375 0.02275 0.055125 1.65 0.996865028454 -0.0791208888067
0 0.8457734375 0.5352734375 0.0215 0.044 1.59 0.999815615134 -0.0192024929017
