0 0.9452734375 0.5321484375 0.0195 0.046 1.63 0.998247974378 -0.0591690937141
0 0.9132734375 0.46489843750000004 0.01925 0.050624999999999996 1.58 0.999957646499 -0.00920354326881
1 0.8880234375 0.5338984375 0.020125 0.0465 1.62 0.998789743471 -0.0491838219142
0 0.7762734375 0.4641484375 0.020874999999999998 0.05375 -1.54 -0.999525830605 0.0307914590825
0 0.6571484375000001 0.5301484375000001 0.01925 0.04525 1.57 0.999999682932 0.000796326710733
0 0.4421484375 0.46364843750000007 0.019625 0.05525 -1.56 -0.99994172023 0.0107961170583
