0 0.9156484375 0.42502343749999993 0.020624999999999998 0.050249999999999996 -1.57 -0.999999682932 0.000796326710733
0 0.8743984375 0.6013984375 0.02025 0.046125 -3.13 -0.0115923939362 -0.999932805944
0 0.8228984375 0.4271484375 0.020125 0.051625 -1.62 -0.998789743471 -0.0491838219142
0 0.8956484375 0.5397734375 0.02 0.048375 1.58 0.999957646499 -0.00920354326881
0 0.8260234375 0.5392734375 0.019625 0.0505 1.57 0.999999682932 0.000796326710733
0 0.7040234375000001 0.5421484375000001 0.020125 0.045125 -1.52 -0.998710143976 0.0507744849336
0 0.6318984375 0.5405234375 0.020874999999999998 0.048625 1.63 0.998247974378 -0.0591690937141
0 0.5251484375 0.5380234374999999 0.02 0.04425 1.63 0.998247974378 -0.0591690937141
0 0.1512734375000001 0.46089843750000004 0.021374999999999998 0.05437499999999999 2.29 0.752330576394 -0.658785779918
