0 0.6840234375 0.44739843749999997 0.020749999999999998 0.047 -1.62 -0.998789743471 -0.0491838219142
0 0.8820234375 0.5482734375 0.020749999999999998 0.04825 1.54 0.999525830605 0.0307914590825
0 0.8117734375 0.5498984375 0.019875 0.041749999999999995 1.61 0.999231634421 -0.039193631773
0 0.7465234375 0.5511484375 0.02 0.04625 1.53 0.999167945271 0.0407850112416
0 0.6132734375 0.4511484375 0.020999999999999998 0.047 -1.64 -0.997606381319 -0.0691484486541
0 0.6787734375 0.5536484374999999 0.020499999999999997 0.044 1.54 0.999525830605 0.0307914590825
0 0.5450234375 0.4541484375 0.020999999999999998 0.05425 -1.62 -0.998789743471 -0.0491838219142
0 0.6130234375 0.5551484375 0.020499999999999997 0.05175 1.52 0.998710143976 0.0507744849336
