0 0.8977734375 0.41202343750000003 0.019625 0.054625 3.13 0.0115923939362 -0.999932805944
0 0.8411484375 0.4130234374999999 0.020999999999999998 0.0485 -3.05 -0.0914646422324 -0.995808324539
0 0.8085234375 0.40977343749999995 0.0225 0.054625 0.04 0.0399893341866 0.999200106661
5 0.6945234375 0.45789843750000003 0.0072499999999999995 0.021124999999999998 -1.53 -0.999167945271 0.0407850112416
0 0.9250234375 0.5745234375 0.021875 0.041999999999999996 -0.04 -0.0399893341866 0.999200106661
0 0.8897734375 0.5713984375 0.019 0.041625 -0.01 -0.00999983333417 0.999950000417
0 0.8570234375 0.5725234375 0.01975 0.035125 0.08 0.0799146939692 0.996801706303
0 0.8256484374999999 0.5711484375 0.020999999999999998 0.049625 -3.08 -0.0615537174299 -0.998103772095
0 0.7896484375 0.5690234375000001 0.020624999999999998 0.05325 0.07 0.0699428473375 0.997551000253
0 0.7600234375 0.5705234375 0.021124999999999998 0.04775 0.04 0.0399893341866 0.999200106661
0 0.6702734375 0.41002343750000003 0.019875 0.05550000000000001 -3.12 -0.0215909757261 -0.999766887713
0 0.6358984375 0.41414843749999997 0.020374999999999997 0.05125 3.14 0.00159265291649 -0.999998731728
0 0.5958984375 0.5227734374999999 0.0195 0.051000000000000004 1.63 0.998247974378 -0.0591690937141
0 0.4078984374999999 0.5173984375 0.01975 0.042125 1.59 0.999815615134 -0.0192024929017
