0 0.9411484375 0.5336484375 0.020624999999999998 0.050749999999999997 1.57 0.999999682932 0.000796326710733
0 0.9415234375 0.4603984375 0.01975 0.04975 1.56 0.99994172023 0.0107961170583
0 0.8756484375 0.5342734375 0.0195 0.047 1.61 0.999231634421 -0.039193631773
0 0.8111484375 0.5316484375 0.0195 0.046 1.62 0.998789743471 -0.0491838219142
0 0.7800234375 0.4633984375 0.01925 0.050624999999999996 1.6 0.999573603042 -0.0291995223013
1 0.7530234375 0.5327734375000001 0.020125 0.0465 1.6 0.999573603042 -0.0291995223013
0 0.6431484375000001 0.46327343750000005 0.020874999999999998 0.05375 -1.55 -0.999783764189 0.0207948278031
0 0.5238984375 0.5296484375 0.01925 0.04525 1.57 0.999999682932 0.000796326710733
0 0.3076484374999999 0.4615234375 0.019625 0.05525 -1.56 -0.99994172023 0.0107961170583
