0 0.7451484375 0.5032734375000001 0.020624999999999998 0.046125 1.58 0.999957646499 -0.00920354326881
0 0.8223984375 0.5563984375000001 0.018625 0.04325 0.8 0.7173560909 0.696706709347
0 0.7403984375 0.5525234375 0.020125 0.045625 0.77 0.696135238627 0.717910669611
0 0.7341484375 0.4188984375 0.021249999999999998 0.049625 -1.64 -0.997606381319 -0.0691484486541
0 0.8257734375 0.36714843750000004 0.020624999999999998 0.057874999999999996 -1.59 -0.999815615134 -0.0192024929017
0 0.5106484375 0.43727343750000003 0.023 0.057374999999999995 -1.68 -0.994043202198 -0.10898675224
0 0.20927343750000005 0.48914843750000003 0.01975 0.046 -1.79 -0.976070921983 -0.217452420681
0 0.6195234375 0.37652343750000006 0.02025 0.052375000000000005 -1.71 -0.990326804156 -0.138754534952
0 0.4587734374999999 0.40114843750000007 0.020874999999999998 0.056625 -1.81 -0.971526955822 -0.236929048685
0 0.22552343749999992 0.5575234375 0.01825 0.0395 1.27 0.955100855585 0.296280872925
0 0.6308984375 0.3241484375 0.01875 0.056625 -1.68 -0.994043202198 -0.10898675224
